# 3ds Max Wavefront OBJ Exporter v0.97b - (c)2007 guruware
# File Created: 16.12.2018 21:06:55

mtllib Pillar_7.mtl

#
# object Pillar_7
#

v  -32.1592 -1.4388 -72.6421
v  -32.3115 1.3754 -73.0102
v  -6.8699 1.3754 -79.4529
v  -6.8457 -1.4388 -79.0524
v  19.2851 1.3754 -77.2857
v  19.1774 -1.4388 -76.8961
v  43.3192 1.3754 -66.7433
v  43.0903 -1.4388 -66.4068
v  62.6282 1.3754 -48.9682
v  62.3020 -1.4388 -48.7214
v  75.1193 1.3754 -25.8868
v  74.7300 -1.4388 -25.7562
v  79.4389 1.3754 -0.0000
v  79.0280 -1.4388 -0.0000
v  75.1193 1.3754 25.8868
v  74.7300 -1.4388 25.7562
v  62.6282 1.3754 48.9682
v  62.3020 -1.4388 48.7214
v  43.3192 1.3754 66.7433
v  43.0903 -1.4388 66.4068
v  19.2851 1.3754 77.2857
v  19.1774 -1.4388 76.8961
v  -6.8699 1.3754 79.4529
v  -6.8457 -1.4388 79.0524
v  -32.3115 1.3754 73.0102
v  -32.1592 -1.4388 72.6421
v  -54.2826 1.3754 58.6557
v  -54.0195 -1.4388 58.3600
v  -70.4024 1.3754 37.9450
v  -70.0580 -1.4388 37.7538
v  -78.9242 1.3754 13.1224
v  -78.5368 -1.4388 13.0561
v  -78.9242 1.3754 -13.1224
v  -78.5368 -1.4388 -13.0561
v  -70.4024 1.3754 -37.9450
v  -70.0580 -1.4388 -37.7538
v  -5.4959 651.6591 63.9647
v  -43.6662 651.6591 47.2216
v  -25.9779 651.6591 58.7779
v  -56.6436 651.6591 30.5483
v  -63.5042 651.6591 -10.5644
v  -63.5042 651.6591 10.5644
v  -5.4959 651.6591 -63.9647
v  -25.9779 651.6591 -58.7779
v  -43.6662 651.6591 -47.2216
v  -56.6436 651.6591 -30.5483
v  50.4545 651.6591 39.4226
v  50.4545 651.6591 -39.4226
v  34.9096 651.6591 -53.7326
v  15.5606 651.6591 -62.2200
v  63.9884 651.6591 -0.0000
v  60.5107 651.6591 -20.8404
v  60.5107 651.6591 20.8404
v  34.9096 651.6591 53.7326
v  15.5606 651.6591 62.2200
v  44.6092 324.0332 -0.0000
v  42.0661 68.1043 -0.0000
v  39.7869 68.1043 -13.6588
v  42.1913 324.0332 -14.4903
v  42.2450 598.0365 -14.5089
v  35.1993 324.0332 -27.4103
v  35.2440 598.0365 -27.4454
v  33.1961 68.1043 -25.8375
v  23.0080 68.1043 -35.2162
v  24.3910 324.0332 -37.3599
v  24.4219 598.0365 -37.4078
v  10.9378 324.0332 -43.2611
v  10.9515 598.0365 -43.3165
v  10.3267 68.1043 -40.7788
v  -3.4737 68.1043 -41.9224
v  -3.7026 324.0332 -44.4743
v  -3.7078 598.0365 -44.5313
v  -17.9438 324.0332 -40.8679
v  -17.9671 598.0365 -40.9204
v  -16.8977 68.1043 -38.5229
v  -28.4906 68.1043 -30.9489
v  -30.2423 324.0332 -32.8329
v  -36.9960 68.1043 -20.0212
v  -39.2655 324.0332 -21.2399
v  -39.3161 598.0365 -21.2672
v  -44.0356 324.0332 -7.3453
v  -44.0923 598.0365 -7.3547
v  -41.4924 68.1043 -6.9238
v  -41.4924 68.1043 6.9238
v  -44.0356 324.0332 7.3453
v  -44.0923 598.0365 7.3547
v  -39.2655 324.0332 21.2399
v  -39.3161 598.0365 21.2672
v  -36.9960 68.1043 20.0212
v  -28.4906 68.1043 30.9489
v  -30.2423 324.0332 32.8329
v  -30.2814 598.0365 32.8750
v  -17.9438 324.0332 40.8679
v  -17.9671 598.0365 40.9204
v  -16.8977 68.1043 38.5229
v  -3.4737 68.1043 41.9224
v  -3.7026 324.0332 44.4743
v  -3.7078 598.0365 44.5313
v  10.9378 324.0332 43.2611
v  10.9515 598.0365 43.3165
v  10.3267 68.1043 40.7788
v  23.0080 68.1043 35.2162
v  24.3910 324.0332 37.3599
v  24.4219 598.0365 37.4078
v  35.1993 324.0332 27.4103
v  35.2440 598.0365 27.4454
v  33.1961 68.1043 25.8375
v  39.7869 68.1043 13.6588
v  42.1913 324.0332 14.4903
v  42.2450 598.0365 14.5089
v  44.6660 598.0365 -0.0000
v  -48.1563 622.7993 -26.0049
v  -50.6954 616.4246 -27.3780
v  -56.8439 616.4246 -9.4680
v  -53.9963 622.7993 -8.9932
v  -50.6954 610.6299 -27.3780
v  -48.9239 606.1987 -26.4265
v  -54.8587 606.1987 -9.1389
v  -56.8439 610.6299 -9.4680
v  -54.8587 606.1987 9.1389
v  -56.8439 610.6299 9.4680
v  -59.6698 636.5071 -32.1878
v  -49.8026 625.3558 -26.8891
v  -55.8414 625.3558 -9.2989
v  -66.8985 636.5071 -11.1314
v  -30.2814 598.0365 -32.8750
v  -48.9239 606.1987 26.4265
v  -37.6974 606.1987 40.8505
v  -22.3956 606.1987 50.8476
v  -4.6770 606.1987 55.3345
v  13.5386 606.1987 53.8252
v  30.2771 606.1987 46.4830
v  43.7247 606.1987 34.1036
v  52.4241 606.1987 18.0286
v  55.4324 606.1987 -0.0000
v  52.4241 606.1987 -18.0286
v  43.7247 606.1987 -34.1036
v  30.2771 606.1987 -46.4830
v  13.5386 606.1987 -53.8252
v  -4.6770 606.1987 -55.3345
v  -22.3956 606.1987 -50.8476
v  -37.6974 606.1987 -40.8505
v  -50.6954 610.6299 27.3780
v  -39.0647 610.6299 42.3212
v  -23.2122 610.6299 52.6782
v  -4.8556 610.6299 57.3265
v  14.0157 610.6299 55.7628
v  31.3568 610.6299 48.1564
v  45.2884 610.6299 35.3314
v  54.3009 610.6299 18.6777
v  57.4177 610.6299 -0.0000
v  54.3009 610.6299 -18.6777
v  45.2884 610.6299 -35.3314
v  31.3568 610.6299 -48.1564
v  14.0157 610.6299 -55.7628
v  -4.8556 610.6299 -57.3265
v  -23.2122 610.6299 -52.6782
v  -39.0647 610.6299 -42.3212
v  -60.8686 643.4949 -32.8315
v  -68.2419 643.4949 -11.3540
v  -56.8439 616.4246 9.4680
v  -50.6954 616.4246 27.3780
v  -39.0647 616.4246 42.3212
v  -23.2122 616.4246 52.6782
v  -4.8556 616.4246 57.3265
v  14.0157 616.4246 55.7628
v  31.3568 616.4246 48.1564
v  45.2884 616.4246 35.3314
v  54.3009 616.4246 18.6777
v  57.4177 616.4246 -0.0000
v  54.3009 616.4246 -18.6777
v  45.2884 616.4246 -35.3314
v  31.3568 616.4246 -48.1564
v  14.0157 616.4246 -55.7628
v  -4.8556 616.4246 -57.3265
v  -23.2122 616.4246 -52.6782
v  -39.0647 616.4246 -42.3212
v  -53.9963 622.7993 8.9932
v  -48.1563 622.7993 26.0049
v  -37.1089 622.7993 40.1986
v  -22.0514 622.7993 50.0361
v  -4.6155 622.7993 54.4515
v  13.3094 622.7993 52.9662
v  29.7808 622.7993 45.7412
v  43.0138 622.7993 33.5594
v  51.5743 622.7993 17.7410
v  54.5347 622.7993 -0.0000
v  51.5743 622.7993 -17.7410
v  43.0138 622.7993 -33.5594
v  29.7808 622.7993 -45.7412
v  13.3094 622.7993 -52.9662
v  -4.6155 622.7993 -54.4515
v  -22.0514 622.7993 -50.0361
v  -37.1089 622.7993 -40.1986
v  -55.8414 625.3558 9.2989
v  -49.8026 625.3558 26.8891
v  -38.3796 625.3558 41.5653
v  -22.8101 625.3558 51.7374
v  -4.7815 625.3558 56.3029
v  13.7528 625.3558 54.7672
v  30.7843 625.3558 47.2964
v  44.4671 625.3558 34.7005
v  53.3187 625.3558 18.3441
v  56.3798 625.3558 -0.0000
v  53.3187 625.3558 -18.3441
v  44.4671 625.3558 -34.7005
v  30.7843 625.3558 -47.2964
v  13.7528 625.3558 -54.7672
v  -4.7815 625.3558 -56.3029
v  -22.8101 625.3558 -51.7374
v  -38.3796 625.3558 -41.5653
v  -66.8985 636.5071 11.1314
v  -59.6698 636.5071 32.1878
v  -45.9959 636.5071 49.7563
v  -27.3583 636.5071 61.9328
v  -5.7768 636.5071 67.3979
v  16.4099 636.5071 65.5594
v  36.7975 636.5071 56.6167
v  53.1767 636.5071 41.5386
v  63.7726 636.5071 21.9592
v  67.4369 636.5071 -0.0000
v  63.7726 636.5071 -21.9592
v  53.1767 636.5071 -41.5386
v  36.7975 636.5071 -56.6167
v  16.4099 636.5071 -65.5594
v  -5.7768 636.5071 -67.3979
v  -27.3583 636.5071 -61.9328
v  -45.9959 636.5071 -49.7563
v  -60.8686 639.4045 -32.8315
v  -68.2419 639.4045 -11.3540
v  -68.2419 639.4045 11.3540
v  -60.8686 639.4045 32.8315
v  -46.9212 639.4045 50.7513
v  -27.9108 639.4045 63.1713
v  -5.8976 639.4045 68.7458
v  16.7327 639.4045 66.8707
v  37.5281 639.4045 57.7490
v  54.2349 639.4045 42.3693
v  65.0427 639.4045 22.3982
v  68.7803 639.4045 -0.0000
v  65.0427 639.4045 -22.3982
v  54.2349 639.4045 -42.3693
v  37.5281 639.4045 -57.7490
v  16.7327 639.4045 -66.8707
v  -5.8976 639.4045 -68.7458
v  -27.9108 639.4045 -63.1713
v  -46.9212 639.4045 -50.7513
v  -68.2419 643.4949 11.3540
v  -60.8686 643.4949 32.8315
v  -46.9212 643.4949 50.7513
v  -27.9108 643.4949 63.1713
v  -5.8976 643.4949 68.7458
v  16.7327 643.4949 66.8707
v  37.5281 643.4949 57.7490
v  54.2349 643.4949 42.3693
v  65.0427 643.4949 22.3982
v  68.7803 643.4949 -0.0000
v  65.0427 643.4949 -22.3982
v  54.2349 643.4949 -42.3693
v  37.5281 643.4949 -57.7490
v  16.7327 643.4949 -66.8707
v  -5.8976 643.4949 -68.7458
v  -27.9108 643.4949 -63.1713
v  -46.9212 643.4949 -50.7513
v  -39.0758 50.6586 -21.1223
v  -40.0490 56.4532 -21.6449
v  -30.8538 56.4532 -33.4589
v  -30.1026 50.6586 -32.6510
v  -61.8651 21.3055 -33.3604
v  -56.8930 23.3507 -30.6902
v  -43.8551 23.3507 -47.4413
v  -47.6929 21.3055 -51.5687
v  -41.1592 63.3615 -22.2569
v  -31.7040 63.3615 -34.4050
v  -18.8166 63.3615 -42.8246
v  -3.8937 63.3615 -46.6036
v  11.4478 63.3615 -45.3324
v  25.5450 63.3615 -39.1486
v  36.8708 63.3615 -28.7226
v  44.1975 63.3615 -15.1840
v  46.7313 63.3615 -0.0000
v  44.1975 63.3615 15.1840
v  36.8708 63.3615 28.7226
v  25.5450 63.3615 39.1486
v  11.4478 63.3615 45.3324
v  -3.8937 63.3615 46.6036
v  -18.8166 63.3615 42.8246
v  -31.7040 63.3615 34.4050
v  -41.1592 63.3615 22.2569
v  -46.1576 63.3615 7.6971
v  -46.1576 63.3615 -7.6971
v  -42.1124 60.7141 -22.7687
v  -32.4397 60.7141 -35.1963
v  -19.2561 60.7141 -43.8096
v  -3.9898 60.7141 -47.6755
v  11.7044 60.7141 -46.3751
v  26.1260 60.7141 -40.0492
v  37.7122 60.7141 -29.3832
v  45.2075 60.7141 -15.5332
v  47.7996 60.7141 -0.0000
v  45.2075 60.7141 15.5332
v  37.7122 60.7141 29.3832
v  26.1260 60.7141 40.0492
v  11.7044 60.7141 46.3751
v  -3.9898 60.7141 47.6755
v  -19.2561 60.7141 43.8096
v  -32.4397 60.7141 35.1963
v  -42.1124 60.7141 22.7687
v  -47.2257 60.7141 7.8740
v  -47.2257 60.7141 -7.8740
v  -18.3208 56.4532 -41.6471
v  -3.8083 56.4532 -45.3222
v  11.1113 56.4532 -44.0858
v  24.8210 56.4532 -38.0723
v  35.8354 56.4532 -27.9328
v  42.9606 56.4532 -14.7666
v  45.4248 56.4532 -0.0000
v  42.9606 56.4532 14.7666
v  35.8354 56.4532 27.9328
v  24.8210 56.4532 38.0723
v  11.1113 56.4532 44.0858
v  -3.8083 56.4532 45.3222
v  -18.3208 56.4532 41.6471
v  -30.8538 56.4532 33.4589
v  -40.0490 56.4532 21.6449
v  -44.9100 56.4532 7.4854
v  -44.9100 56.4532 -7.4854
v  -17.8722 50.6586 -40.6416
v  -3.7101 50.6586 -44.2278
v  10.8492 50.6586 -43.0215
v  24.2279 50.6586 -37.1530
v  34.9764 50.6586 -27.2584
v  41.9295 50.6586 -14.4100
v  44.3342 50.6586 -0.0000
v  41.9295 50.6586 14.4100
v  34.9764 50.6586 27.2584
v  24.2279 50.6586 37.1530
v  10.8492 50.6586 43.0215
v  -3.7101 50.6586 44.2278
v  -17.8722 50.6586 40.6416
v  -30.1026 50.6586 32.6510
v  -39.0758 50.6586 21.1223
v  -43.8195 50.6586 7.3045
v  -43.8195 50.6586 -7.3045
v  -40.2165 45.0343 -21.7349
v  -30.9830 45.0343 -33.5980
v  -18.3980 45.0343 -41.8201
v  -3.8252 45.0343 -45.5105
v  11.1565 45.0343 -44.2691
v  24.9231 45.0343 -38.2305
v  35.9832 45.0343 -28.0489
v  43.1381 45.0343 -14.8279
v  45.6124 45.0343 -0.0000
v  43.1381 45.0343 14.8279
v  35.9832 45.0343 28.0489
v  24.9231 45.0343 38.2305
v  11.1565 45.0343 44.2691
v  -3.8252 45.0343 45.5105
v  -18.3980 45.0343 41.8201
v  -30.9830 45.0343 33.5980
v  -40.2165 45.0343 21.7349
v  -45.0977 45.0343 7.5164
v  -45.0977 45.0343 -7.5164
v  -47.0565 38.2170 -25.4080
v  -36.2627 38.2170 -39.2759
v  -21.5508 38.2170 -48.8878
v  -4.5151 38.2170 -53.2017
v  12.9983 38.2170 -51.7505
v  29.0917 38.2170 -44.6914
v  42.0209 38.2170 -32.7893
v  50.3850 38.2170 -17.3338
v  53.2774 38.2170 -0.0000
v  50.3850 38.2170 17.3338
v  42.0209 38.2170 32.7893
v  29.0917 38.2170 44.6914
v  12.9983 38.2170 51.7505
v  -4.5151 38.2170 53.2017
v  -21.5508 38.2170 48.8878
v  -36.2627 38.2170 39.2759
v  -47.0565 38.2170 25.4080
v  -52.7627 38.2170 8.7868
v  -52.7627 38.2170 -8.7868
v  -52.7342 31.7406 -28.4570
v  -40.6452 31.7406 -43.9890
v  -24.1678 31.7406 -54.7542
v  -5.0877 31.7406 -59.5860
v  14.5273 31.7406 -57.9605
v  32.5518 31.7406 -50.0544
v  47.0326 31.7406 -36.7239
v  56.4002 31.7406 -19.4139
v  59.6398 31.7406 -0.0000
v  56.4002 31.7406 19.4139
v  47.0326 31.7406 36.7239
v  32.5518 31.7406 50.0544
v  14.5273 31.7406 57.9605
v  -5.0877 31.7406 59.5860
v  -24.1678 31.7406 54.7542
v  -40.6452 31.7406 43.9890
v  -52.7342 31.7406 28.4570
v  -59.1251 31.7406 9.8411
v  -59.1251 31.7406 -9.8411
v  -54.8539 28.6341 -29.5952
v  -42.2811 28.6341 -45.7486
v  -25.1447 28.6341 -56.9444
v  -5.3016 28.6341 -61.9695
v  15.0981 28.6341 -60.2791
v  33.8436 28.6341 -52.0564
v  48.9034 28.6341 -38.1928
v  58.6460 28.6341 -20.1904
v  62.0151 28.6341 -0.0000
v  58.6460 28.6341 20.1904
v  48.9034 28.6341 38.1928
v  33.8436 28.6341 52.0564
v  15.0981 28.6341 60.2791
v  -5.3016 28.6341 61.9695
v  -25.1447 28.6341 56.9444
v  -42.2811 28.6341 45.7486
v  -54.8539 28.6341 29.5952
v  -61.5004 28.6341 10.2348
v  -61.5004 28.6341 -10.2348
v  -26.0846 23.3507 -59.0513
v  -5.5072 23.3507 -64.2623
v  15.6472 23.3507 -62.5094
v  35.0863 23.3507 -53.9827
v  50.7034 23.3507 -39.6060
v  60.8064 23.3507 -20.9374
v  64.3001 23.3507 -0.0000
v  60.8064 23.3507 20.9374
v  50.7034 23.3507 39.6060
v  35.0863 23.3507 53.9827
v  15.6472 23.3507 62.5094
v  -5.5072 23.3507 64.2623
v  -26.0846 23.3507 59.0513
v  -43.8551 23.3507 47.4413
v  -56.8930 23.3507 30.6902
v  -63.7854 23.3507 10.6135
v  -63.7854 23.3507 -10.6135
v  -28.3764 21.3055 -64.1888
v  -6.0088 21.3055 -69.8531
v  16.9861 21.3055 -67.9477
v  38.1165 21.3055 -58.6791
v  55.0922 21.3055 -43.0517
v  66.0741 21.3055 -22.7590
v  69.8719 21.3055 -0.0000
v  66.0741 21.3055 22.7590
v  55.0922 21.3055 43.0517
v  38.1165 21.3055 58.6791
v  16.9861 21.3055 67.9477
v  -6.0088 21.3055 69.8531
v  -28.3764 21.3055 64.1888
v  -47.6929 21.3055 51.5687
v  -61.8651 21.3055 33.3604
v  -69.3572 21.3055 11.5369
v  -69.3572 21.3055 -11.5369
v  -64.2471 7.6814 -34.6395
v  -49.5317 7.6814 -53.5462
v  -29.4744 7.6814 -66.6502
v  -6.2491 7.6814 -72.5316
v  17.6276 7.6814 -70.5531
v  39.5680 7.6814 -60.9291
v  57.1950 7.6814 -44.7025
v  68.5979 7.6814 -23.6316
v  72.5414 7.6814 -0.0000
v  68.5979 7.6814 23.6316
v  57.1950 7.6814 44.7025
v  39.5680 7.6814 60.9291
v  17.6276 7.6814 70.5531
v  -6.2491 7.6814 72.5316
v  -29.4744 7.6814 66.6502
v  -49.5317 7.6814 53.5462
v  -64.2471 7.6814 34.6395
v  -72.0265 7.6814 11.9792
v  -72.0265 7.6814 -11.9792
v  -69.0850 4.1023 -37.2375
v  -53.2658 4.1023 -57.5621
v  -31.7043 4.1023 -71.6490
v  -6.7370 4.1023 -77.9715
v  18.9304 4.1023 -75.8447
v  42.5163 4.1023 -65.4988
v  61.4651 4.1023 -48.0552
v  73.7233 4.1023 -25.4041
v  77.9626 4.1023 -0.0000
v  73.7233 4.1023 25.4041
v  61.4651 4.1023 48.0552
v  42.5163 4.1023 65.4988
v  18.9304 4.1023 75.8447
v  -6.7370 4.1023 77.9715
v  -31.7043 4.1023 71.6490
v  -53.2658 4.1023 57.5621
v  -69.0850 4.1023 37.2375
v  -77.4478 4.1023 12.8777
v  -77.4478 4.1023 -12.8777
v  -54.2826 1.3754 -58.6557
v  -54.0195 -1.4388 -58.3600
# 494 vertices

vn -0.2780 -0.7222 -0.6333
vn -0.3956 0.1733 -0.9019
vn -0.0813 0.1724 -0.9817
vn -0.0573 -0.7226 -0.6889
vn 0.2419 0.1714 -0.9550
vn 0.1694 -0.7229 -0.6698
vn 0.5390 0.1706 -0.8249
vn 0.3775 -0.7233 -0.5782
vn 0.7777 0.1699 -0.6053
vn 0.5447 -0.7235 -0.4241
vn 0.9321 0.1694 -0.3200
vn 0.6527 -0.7237 -0.2241
vn 0.9856 0.1693 0.0000
vn 0.6901 -0.7237 -0.0000
vn 0.9321 0.1694 0.3200
vn 0.6527 -0.7237 0.2242
vn 0.7777 0.1699 0.6053
vn 0.5447 -0.7235 0.4241
vn 0.5390 0.1706 0.8249
vn 0.3775 -0.7233 0.5782
vn 0.2419 0.1714 0.9550
vn 0.1694 -0.7229 0.6698
vn -0.0813 0.1724 0.9817
vn -0.0573 -0.7226 0.6889
vn -0.3956 0.1733 0.9019
vn -0.2780 -0.7222 0.6333
vn -0.6669 0.1741 0.7245
vn -0.4688 -0.7219 0.5090
vn -0.8659 0.1747 0.4686
vn -0.6088 -0.7217 0.3294
vn -0.9711 0.1750 0.1621
vn -0.6829 -0.7216 0.1139
vn -0.9711 0.1750 -0.1621
vn -0.6829 -0.7216 -0.1139
vn -0.8659 0.1747 -0.4686
vn -0.6088 -0.7217 -0.3294
vn -0.0441 0.8455 0.5322
vn -0.3616 0.8456 0.3928
vn -0.2144 0.8455 0.4890
vn -0.4695 0.8456 0.2541
vn -0.5265 0.8456 -0.0879
vn -0.5265 0.8456 0.0879
vn -0.0441 0.8455 -0.5322
vn -0.2144 0.8455 -0.4890
vn -0.3616 0.8456 -0.3928
vn -0.4695 0.8456 -0.2541
vn 0.4216 0.8454 0.3281
vn 0.4216 0.8454 -0.3281
vn 0.2922 0.8454 -0.4472
vn 0.1311 0.8454 -0.5177
vn 0.5343 0.8453 0.0000
vn 0.5053 0.8453 -0.1735
vn 0.5053 0.8453 0.1735
vn 0.2922 0.8454 0.4472
vn 0.1311 0.8454 0.5177
vn 1.0000 -0.0051 -0.0000
vn 0.9212 0.3890 -0.0000
vn 0.8713 0.3891 -0.2990
vn 0.9458 -0.0051 -0.3247
vn 0.8375 -0.4648 -0.2874
vn 0.7891 -0.0051 -0.6142
vn 0.6987 -0.4650 -0.5437
vn 0.7270 0.3893 -0.5656
vn 0.5039 0.3897 -0.7709
vn 0.5469 -0.0051 -0.8372
vn 0.4843 -0.4654 -0.7409
vn 0.2455 -0.0051 -0.9694
vn 0.2174 -0.4659 -0.8577
vn 0.2262 0.3902 -0.8925
vn -0.0758 0.3908 -0.9174
vn -0.0826 -0.0051 -0.9966
vn -0.0728 -0.4664 -0.8816
vn -0.4017 -0.0051 -0.9158
vn -0.3550 -0.4669 -0.8099
vn -0.3695 0.3913 -0.8428
vn -0.6230 0.3918 -0.6770
vn -0.6773 -0.0051 -0.7357
vn -0.8090 0.3921 -0.4379
vn -0.8795 -0.0051 -0.4759
vn -0.7773 -0.4677 -0.4208
vn -0.9863 -0.0051 -0.1646
vn -0.8718 -0.4678 -0.1455
vn -0.9073 0.3923 -0.1514
vn -0.9073 0.3923 0.1514
vn -0.9863 -0.0051 0.1646
vn -0.8718 -0.4678 0.1455
vn -0.8795 -0.0051 0.4759
vn -0.7773 -0.4677 0.4208
vn -0.8090 0.3921 0.4379
vn -0.6230 0.3918 0.6770
vn -0.6773 -0.0051 0.7357
vn -0.5986 -0.4673 0.6505
vn -0.4017 -0.0051 0.9158
vn -0.3550 -0.4669 0.8099
vn -0.3695 0.3913 0.8428
vn -0.0758 0.3908 0.9174
vn -0.0826 -0.0051 0.9966
vn -0.0728 -0.4664 0.8816
vn 0.2455 -0.0051 0.9694
vn 0.2174 -0.4659 0.8577
vn 0.2262 0.3902 0.8925
vn 0.5039 0.3897 0.7709
vn 0.5469 -0.0051 0.8372
vn 0.4843 -0.4654 0.7409
vn 0.7891 -0.0051 0.6142
vn 0.6987 -0.4650 0.5437
vn 0.7270 0.3893 0.5656
vn 0.8713 0.3891 0.2990
vn 0.9458 -0.0051 0.3247
vn 0.8375 -0.4648 0.2874
vn 0.8855 -0.4647 -0.0000
vn -0.8742 -0.1087 -0.4732
vn -0.8605 0.2066 -0.4657
vn -0.9651 0.2066 -0.1610
vn -0.9805 -0.1089 -0.1637
vn -0.8605 -0.2070 -0.4656
vn -0.6941 -0.6141 -0.3756
vn -0.7783 -0.6144 -0.1299
vn -0.9650 -0.2071 -0.1610
vn -0.7783 -0.6144 0.1299
vn -0.9650 -0.2071 0.1610
vn -0.7243 -0.5672 -0.3920
vn -0.6642 -0.6555 -0.3595
vn -0.7447 -0.6557 -0.1243
vn -0.8122 -0.5674 -0.1355
vn -0.5986 -0.4673 -0.6505
vn -0.6941 -0.6141 0.3756
vn -0.5348 -0.6137 0.5809
vn -0.3173 -0.6131 0.7235
vn -0.0653 -0.6123 0.7879
vn 0.1942 -0.6116 0.7670
vn 0.4330 -0.6109 0.6628
vn 0.6251 -0.6104 0.4865
vn 0.7495 -0.6100 0.2573
vn 0.7925 -0.6099 0.0000
vn 0.7495 -0.6100 -0.2573
vn 0.6251 -0.6104 -0.4865
vn 0.4330 -0.6109 -0.6628
vn 0.1942 -0.6116 -0.7670
vn -0.0653 -0.6123 -0.7879
vn -0.3173 -0.6131 -0.7235
vn -0.5348 -0.6137 -0.5809
vn -0.8605 -0.2070 0.4656
vn -0.6627 -0.2067 0.7198
vn -0.3931 -0.2064 0.8960
vn -0.0809 -0.2060 0.9752
vn 0.2401 -0.2056 0.9487
vn 0.5352 -0.2053 0.8194
vn 0.7723 -0.2050 0.6012
vn 0.9258 -0.2048 0.3179
vn 0.9788 -0.2047 0.0000
vn 0.9258 -0.2048 -0.3179
vn 0.7723 -0.2050 -0.6012
vn 0.5352 -0.2053 -0.8194
vn 0.2401 -0.2056 -0.9487
vn -0.0809 -0.2060 -0.9752
vn -0.3931 -0.2064 -0.8960
vn -0.6627 -0.2067 -0.7198
vn -0.8502 0.2560 -0.4601
vn -0.9535 0.2560 -0.1591
vn -0.9651 0.2066 0.1610
vn -0.8605 0.2066 0.4657
vn -0.6627 0.2066 0.7199
vn -0.3930 0.2065 0.8960
vn -0.0808 0.2065 0.9751
vn 0.2402 0.2064 0.9485
vn 0.5352 0.2064 0.8191
vn 0.7721 0.2064 0.6010
vn 0.9255 0.2064 0.3177
vn 0.9785 0.2064 -0.0000
vn 0.9255 0.2064 -0.3177
vn 0.7721 0.2064 -0.6010
vn 0.5352 0.2064 -0.8191
vn 0.2402 0.2064 -0.9485
vn -0.0808 0.2065 -0.9751
vn -0.3930 0.2065 -0.8960
vn -0.6627 0.2066 -0.7199
vn -0.9805 -0.1089 0.1637
vn -0.8742 -0.1087 0.4732
vn -0.6732 -0.1084 0.7315
vn -0.3992 -0.1079 0.9105
vn -0.0819 -0.1074 0.9908
vn 0.2443 -0.1069 0.9638
vn 0.5440 -0.1064 0.8323
vn 0.7848 -0.1060 0.6106
vn 0.9405 -0.1058 0.3228
vn 0.9944 -0.1057 -0.0000
vn 0.9405 -0.1058 -0.3228
vn 0.7848 -0.1060 -0.6106
vn 0.5440 -0.1064 -0.8323
vn 0.2443 -0.1069 -0.9638
vn -0.0819 -0.1074 -0.9908
vn -0.3992 -0.1079 -0.9105
vn -0.6732 -0.1084 -0.7315
vn -0.7447 -0.6557 0.1243
vn -0.6642 -0.6555 0.3595
vn -0.5118 -0.6549 0.5560
vn -0.3037 -0.6543 0.6926
vn -0.0624 -0.6535 0.7544
vn 0.1861 -0.6526 0.7345
vn 0.4148 -0.6518 0.6348
vn 0.5989 -0.6512 0.4661
vn 0.7181 -0.6508 0.2465
vn 0.7593 -0.6507 0.0000
vn 0.7181 -0.6508 -0.2465
vn 0.5989 -0.6512 -0.4661
vn 0.4148 -0.6519 -0.6348
vn 0.1861 -0.6526 -0.7345
vn -0.0624 -0.6535 -0.7544
vn -0.3037 -0.6543 -0.6926
vn -0.5118 -0.6549 -0.5560
vn -0.8122 -0.5674 0.1355
vn -0.7243 -0.5672 0.3920
vn -0.5580 -0.5667 0.6062
vn -0.3312 -0.5660 0.7550
vn -0.0681 -0.5652 0.8221
vn 0.2026 -0.5645 0.8002
vn 0.4518 -0.5637 0.6915
vn 0.6521 -0.5631 0.5076
vn 0.7819 -0.5627 0.2684
vn 0.8267 -0.5626 -0.0000
vn 0.7819 -0.5627 -0.2684
vn 0.6521 -0.5631 -0.5076
vn 0.4518 -0.5637 -0.6915
vn 0.2026 -0.5645 -0.8002
vn -0.0681 -0.5652 -0.8221
vn -0.3312 -0.5660 -0.7550
vn -0.5580 -0.5667 -0.6062
vn -0.8593 -0.2131 -0.4650
vn -0.9637 -0.2132 -0.1608
vn -0.9637 -0.2132 0.1608
vn -0.8593 -0.2131 0.4650
vn -0.6618 -0.2128 0.7188
vn -0.3926 -0.2125 0.8948
vn -0.0808 -0.2121 0.9739
vn 0.2398 -0.2117 0.9475
vn 0.5345 -0.2113 0.8183
vn 0.7713 -0.2110 0.6004
vn 0.9245 -0.2108 0.3174
vn 0.9775 -0.2108 0.0000
vn 0.9245 -0.2108 -0.3174
vn 0.7713 -0.2110 -0.6004
vn 0.5345 -0.2113 -0.8183
vn 0.2398 -0.2117 -0.9475
vn -0.0808 -0.2121 -0.9739
vn -0.3926 -0.2125 -0.8948
vn -0.6618 -0.2128 -0.7188
vn -0.9535 0.2560 0.1591
vn -0.8502 0.2560 0.4601
vn -0.6547 0.2560 0.7112
vn -0.3883 0.2559 0.8853
vn -0.0799 0.2558 0.9634
vn 0.2373 0.2558 0.9372
vn 0.5288 0.2557 0.8093
vn 0.7629 0.2556 0.5938
vn 0.9144 0.2556 0.3139
vn 0.9668 0.2556 0.0000
vn 0.9144 0.2556 -0.3139
vn 0.7629 0.2556 -0.5938
vn 0.5288 0.2557 -0.8094
vn 0.2373 0.2558 -0.9372
vn -0.0799 0.2558 -0.9634
vn -0.3883 0.2559 -0.8853
vn -0.6547 0.2560 -0.7112
vn -0.8793 0.0194 -0.4759
vn -0.8256 -0.3447 -0.4467
vn -0.6359 -0.3448 -0.6905
vn -0.6771 0.0193 -0.7357
vn -0.6851 0.6271 -0.3707
vn -0.5808 0.7510 -0.3143
vn -0.4475 0.7506 -0.4861
vn -0.5277 0.6268 -0.5733
vn -0.7382 0.5435 -0.3995
vn -0.5687 0.5431 -0.6178
vn -0.3375 0.5424 -0.7693
vn -0.0694 0.5417 -0.8377
vn 0.2065 0.5409 -0.8154
vn 0.4603 0.5402 -0.7045
vn 0.6644 0.5396 -0.5171
vn 0.7965 0.5392 -0.2735
vn 0.8422 0.5391 -0.0000
vn 0.7965 0.5392 0.2735
vn 0.6644 0.5396 0.5171
vn 0.4603 0.5402 0.7045
vn 0.2065 0.5409 0.8154
vn -0.0694 0.5417 0.8377
vn -0.3375 0.5424 0.7693
vn -0.5687 0.5431 0.6178
vn -0.7382 0.5435 0.3995
vn -0.8278 0.5438 0.1381
vn -0.8278 0.5438 -0.1381
vn -0.8781 -0.0555 -0.4752
vn -0.6762 -0.0560 -0.7346
vn -0.4011 -0.0566 -0.9143
vn -0.0824 -0.0573 -0.9949
vn 0.2451 -0.0581 -0.9678
vn 0.5460 -0.0587 -0.8357
vn 0.7878 -0.0593 -0.6131
vn 0.9441 -0.0597 -0.3241
vn 0.9982 -0.0598 0.0000
vn 0.9441 -0.0597 0.3241
vn 0.7878 -0.0593 0.6131
vn 0.5460 -0.0587 0.8357
vn 0.2451 -0.0581 0.9678
vn -0.0824 -0.0573 0.9949
vn -0.4011 -0.0566 0.9143
vn -0.6762 -0.0560 0.7346
vn -0.8781 -0.0555 0.4752
vn -0.9849 -0.0553 0.1643
vn -0.9849 -0.0553 -0.1643
vn -0.3772 -0.3450 -0.8595
vn -0.0777 -0.3452 -0.9353
vn 0.2302 -0.3454 -0.9098
vn 0.5131 -0.3455 -0.7857
vn 0.7404 -0.3457 -0.5764
vn 0.8875 -0.3458 -0.3047
vn 0.9383 -0.3458 0.0000
vn 0.8875 -0.3458 0.3047
vn 0.7404 -0.3457 0.5764
vn 0.5131 -0.3455 0.7857
vn 0.2302 -0.3454 0.9098
vn -0.0777 -0.3452 0.9353
vn -0.3772 -0.3450 0.8595
vn -0.6359 -0.3448 0.6905
vn -0.8256 -0.3447 0.4467
vn -0.9260 -0.3446 0.1545
vn -0.9260 -0.3446 -0.1545
vn -0.4015 0.0193 -0.9157
vn -0.0824 0.0193 -0.9964
vn 0.2456 0.0192 -0.9692
vn 0.5470 0.0192 -0.8369
vn 0.7891 0.0192 -0.6140
vn 0.9457 0.0191 -0.3246
vn 0.9998 0.0191 0.0000
vn 0.9457 0.0191 0.3246
vn 0.7891 0.0192 0.6140
vn 0.5470 0.0192 0.8369
vn 0.2456 0.0192 0.9692
vn -0.0824 0.0193 0.9964
vn -0.4015 0.0193 0.9157
vn -0.6771 0.0193 0.7357
vn -0.8793 0.0194 0.4759
vn -0.9862 0.0194 0.1646
vn -0.9862 0.0194 -0.1646
vn -0.7472 0.5273 -0.4045
vn -0.5756 0.5269 -0.6254
vn -0.3414 0.5263 -0.7787
vn -0.0701 0.5256 -0.8478
vn 0.2091 0.5249 -0.8251
vn 0.4659 0.5242 -0.7128
vn 0.6723 0.5237 -0.5232
vn 0.8060 0.5234 -0.2766
vn 0.8522 0.5232 0.0000
vn 0.8060 0.5234 0.2766
vn 0.6723 0.5237 0.5232
vn 0.4659 0.5242 0.7128
vn 0.2091 0.5249 0.8251
vn -0.0701 0.5256 0.8478
vn -0.3414 0.5263 0.7787
vn -0.5756 0.5269 0.6254
vn -0.7472 0.5273 0.4045
vn -0.8379 0.5276 0.1399
vn -0.8379 0.5276 -0.1398
vn -0.6038 0.7270 -0.3268
vn -0.4653 0.7266 -0.5055
vn -0.2762 0.7259 -0.6299
vn -0.0568 0.7252 -0.6862
vn 0.1693 0.7244 -0.6682
vn 0.3775 0.7237 -0.5777
vn 0.5451 0.7232 -0.4242
vn 0.6536 0.7228 -0.2244
vn 0.6912 0.7227 -0.0000
vn 0.6536 0.7228 0.2244
vn 0.5451 0.7232 0.4242
vn 0.3775 0.7237 0.5777
vn 0.1693 0.7244 0.6682
vn -0.0568 0.7252 0.6862
vn -0.2762 0.7259 0.6299
vn -0.4653 0.7266 0.5055
vn -0.6038 0.7270 0.3268
vn -0.6770 0.7273 0.1130
vn -0.6770 0.7273 -0.1130
vn -0.6631 0.6569 -0.3589
vn -0.5109 0.6564 -0.5551
vn -0.3032 0.6557 -0.6914
vn -0.0624 0.6549 -0.7531
vn 0.1857 0.6541 -0.7333
vn 0.4141 0.6533 -0.6338
vn 0.5979 0.6527 -0.4653
vn 0.7169 0.6523 -0.2461
vn 0.7581 0.6522 0.0000
vn 0.7169 0.6523 0.2461
vn 0.5979 0.6527 0.4653
vn 0.4141 0.6533 0.6338
vn 0.1857 0.6541 0.7333
vn -0.0624 0.6549 0.7531
vn -0.3032 0.6557 0.6914
vn -0.5109 0.6564 0.5551
vn -0.6631 0.6569 0.3589
vn -0.7435 0.6572 0.1241
vn -0.7435 0.6572 -0.1241
vn -0.7591 0.5051 -0.4108
vn -0.5847 0.5046 -0.6352
vn -0.3470 0.5039 -0.7910
vn -0.0714 0.5031 -0.8613
vn 0.2123 0.5023 -0.8382
vn 0.4732 0.5016 -0.7242
vn 0.6830 0.5010 -0.5316
vn 0.8188 0.5006 -0.2811
vn 0.8658 0.5005 0.0000
vn 0.8188 0.5006 0.2811
vn 0.6830 0.5010 0.5316
vn 0.4732 0.5016 0.7242
vn 0.2123 0.5023 0.8382
vn -0.0714 0.5031 0.8613
vn -0.3470 0.5039 0.7910
vn -0.5847 0.5046 0.6352
vn -0.7591 0.5051 0.4108
vn -0.8512 0.5053 0.1420
vn -0.8512 0.5053 -0.1420
vn -0.2656 0.7502 -0.6055
vn -0.0546 0.7497 -0.6595
vn 0.1626 0.7492 -0.6421
vn 0.3626 0.7487 -0.5549
vn 0.5235 0.7483 -0.4074
vn 0.6277 0.7481 -0.2155
vn 0.6637 0.7480 0.0000
vn 0.6277 0.7481 0.2155
vn 0.5235 0.7483 0.4074
vn 0.3626 0.7487 0.5549
vn 0.1626 0.7492 0.6421
vn -0.0546 0.7497 0.6595
vn -0.2656 0.7502 0.6055
vn -0.4475 0.7506 0.4861
vn -0.5808 0.7510 0.3143
vn -0.6512 0.7511 0.1087
vn -0.6512 0.7511 -0.1087
vn -0.3131 0.6264 -0.7138
vn -0.0644 0.6260 -0.7771
vn 0.1915 0.6256 -0.7563
vn 0.4269 0.6252 -0.6534
vn 0.6161 0.6249 -0.4795
vn 0.7386 0.6247 -0.2536
vn 0.7809 0.6246 -0.0000
vn 0.7386 0.6247 0.2536
vn 0.6161 0.6249 0.4795
vn 0.4269 0.6252 0.6534
vn 0.1915 0.6256 0.7563
vn -0.0644 0.6260 0.7771
vn -0.3131 0.6264 0.7138
vn -0.5277 0.6268 0.5733
vn -0.6851 0.6271 0.3707
vn -0.7682 0.6272 0.1282
vn -0.7682 0.6272 -0.1282
vn -0.7165 0.5798 -0.3878
vn -0.5519 0.5795 -0.5997
vn -0.3274 0.5789 -0.7467
vn -0.0672 0.5783 -0.8130
vn 0.2005 0.5777 -0.7912
vn 0.4468 0.5771 -0.6836
vn 0.6448 0.5767 -0.5017
vn 0.7729 0.5764 -0.2653
vn 0.8173 0.5763 -0.0000
vn 0.7729 0.5764 0.2653
vn 0.6448 0.5767 0.5017
vn 0.4468 0.5771 0.6836
vn 0.2005 0.5777 0.7912
vn -0.0672 0.5783 0.8130
vn -0.3274 0.5789 0.7467
vn -0.5519 0.5795 0.5997
vn -0.7165 0.5798 0.3878
vn -0.8035 0.5800 0.1341
vn -0.8035 0.5800 -0.1341
vn -0.6551 0.6672 -0.3545
vn -0.5047 0.6668 -0.5483
vn -0.2995 0.6662 -0.6830
vn -0.0616 0.6655 -0.7439
vn 0.1834 0.6648 -0.7242
vn 0.4089 0.6641 -0.6259
vn 0.5904 0.6636 -0.4595
vn 0.7078 0.6633 -0.2430
vn 0.7485 0.6631 0.0000
vn 0.7078 0.6633 0.2430
vn 0.5904 0.6636 0.4595
vn 0.4089 0.6641 0.6259
vn 0.1834 0.6648 0.7242
vn -0.0616 0.6655 0.7439
vn -0.2995 0.6662 0.6830
vn -0.5047 0.6668 0.5483
vn -0.6551 0.6672 0.3545
vn -0.7345 0.6675 0.1226
vn -0.7345 0.6675 -0.1226
vn -0.6669 0.1741 -0.7245
vn -0.4688 -0.7219 -0.5090
# 494 vertex normals

vt 0.5793 0.7570 0.0000
vt 0.5823 0.7534 0.0000
vt 0.6164 0.7775 0.0000
vt 0.6139 0.7813 0.0000
vt 0.6537 0.7963 0.0000
vt 0.6516 0.8004 0.0000
vt 0.6929 0.8112 0.0000
vt 0.6909 0.8154 0.0000
vt 0.6850 0.2192 0.0000
vt 0.6866 0.2236 0.0000
vt 0.6478 0.2389 0.0000
vt 0.6461 0.2346 0.0000
vt 0.6120 0.2592 0.0000
vt 0.6099 0.2551 0.0000
vt 0.5796 0.2843 0.0000
vt 0.5770 0.2804 0.0000
vt 0.5511 0.3134 0.0000
vt 0.5480 0.3099 0.0000
vt 0.5267 0.3460 0.0000
vt 0.5232 0.3429 0.0000
vt 0.5069 0.3813 0.0000
vt 0.5030 0.3787 0.0000
vt 0.4917 0.4188 0.0000
vt 0.4875 0.4168 0.0000
vt 0.4814 0.4579 0.0000
vt 0.4770 0.4565 0.0000
vt 0.4761 0.4980 0.0000
vt 0.4715 0.4973 0.0000
vt 0.4759 0.5386 0.0000
vt 0.4713 0.5385 0.0000
vt 0.4810 0.5789 0.0000
vt 0.4764 0.5795 0.0000
vt 0.4912 0.6184 0.0000
vt 0.4867 0.6196 0.0000
vt 0.5065 0.6563 0.0000
vt 0.5023 0.6582 0.0000
vt 0.5270 0.6920 0.0000
vt 0.5231 0.6945 0.0000
vt 0.8057 0.5622 0.0000
vt 0.7838 0.6259 0.0000
vt 0.7895 0.5922 0.0000
vt 0.7895 0.6596 0.0000
vt 0.8309 0.7128 0.0000
vt 0.8057 0.6897 0.0000
vt 0.9579 0.7023 0.0000
vt 0.9293 0.7210 0.0000
vt 0.8962 0.7294 0.0000
vt 0.8621 0.7265 0.0000
vt 0.8962 0.5225 0.0000
vt 0.9900 0.6088 0.0000
vt 0.9900 0.6430 0.0000
vt 0.9789 0.6753 0.0000
vt 0.9579 0.5496 0.0000
vt 0.9789 0.5765 0.0000
vt 0.9293 0.5309 0.0000
vt 0.8621 0.5253 0.0000
vt 0.8309 0.5390 0.0000
vt 0.3910 0.5461 0.0000
vt 0.3860 0.1322 0.0000
vt 0.4086 0.1319 0.0000
vt 0.4145 0.5458 0.0000
vt 0.4192 0.9889 0.0000
vt 0.4382 0.5455 0.0000
vt 0.4431 0.9885 0.0000
vt 0.4312 0.1316 0.0000
vt 0.4536 0.1313 0.0000
vt 0.4619 0.5451 0.0000
vt 0.0100 0.9882 0.0000
vt 0.0153 0.5451 0.0000
vt 0.0390 0.5454 0.0000
vt 0.0339 0.9885 0.0000
vt 0.0461 0.1316 0.0000
vt 0.0686 0.1319 0.0000
vt 0.0626 0.5458 0.0000
vt 0.0578 0.9889 0.0000
vt 0.0862 0.5461 0.0000
vt 0.0818 0.9891 0.0000
vt 0.0912 0.1322 0.0000
vt 0.1138 0.1324 0.0000
vt 0.1097 0.5463 0.0000
vt 0.1365 0.1326 0.0000
vt 0.1331 0.5465 0.0000
vt 0.1299 0.9896 0.0000
vt 0.1566 0.5467 0.0000
vt 0.1541 0.9898 0.0000
vt 0.1591 0.1328 0.0000
vt 0.1818 0.1329 0.0000
vt 0.1800 0.5468 0.0000
vt 0.1782 0.9899 0.0000
vt 0.2034 0.5468 0.0000
vt 0.2023 0.9900 0.0000
vt 0.2045 0.1329 0.0000
vt 0.2272 0.1330 0.0000
vt 0.2269 0.5469 0.0000
vt 0.2265 0.9900 0.0000
vt 0.2503 0.5469 0.0000
vt 0.2506 0.9900 0.0000
vt 0.2499 0.1330 0.0000
vt 0.2727 0.1329 0.0000
vt 0.2737 0.5468 0.0000
vt 0.2748 0.9900 0.0000
vt 0.2971 0.5468 0.0000
vt 0.2989 0.9899 0.0000
vt 0.2954 0.1329 0.0000
vt 0.3180 0.1328 0.0000
vt 0.3205 0.5466 0.0000
vt 0.3230 0.9898 0.0000
vt 0.3440 0.5465 0.0000
vt 0.3471 0.9896 0.0000
vt 0.3407 0.1326 0.0000
vt 0.3634 0.1324 0.0000
vt 0.3675 0.5463 0.0000
vt 0.3712 0.9894 0.0000
vt 0.3952 0.9891 0.0000
vt 0.7616 0.4808 0.0000
vt 0.7509 0.4779 0.0000
vt 0.7588 0.4484 0.0000
vt 0.7698 0.4504 0.0000
vt 0.7423 0.4747 0.0000
vt 0.7349 0.4720 0.0000
vt 0.7422 0.4440 0.0000
vt 0.7498 0.4460 0.0000
vt 0.7477 0.4153 0.0000
vt 0.7555 0.4167 0.0000
vt 0.7906 0.4898 0.0000
vt 0.7665 0.4816 0.0000
vt 0.7748 0.4509 0.0000
vt 0.7996 0.4573 0.0000
vt 0.4669 0.9882 0.0000
vt 0.0237 0.1313 0.0000
vt 0.1059 0.9894 0.0000
vt 0.7139 0.4667 0.0000
vt 0.7207 0.4405 0.0000
vt 0.7258 0.4136 0.0000
vt 0.7293 0.3862 0.0000
vt 0.7512 0.3863 0.0000
vt 0.7309 0.3585 0.0000
vt 0.7529 0.3570 0.0000
vt 0.7308 0.3307 0.0000
vt 0.7526 0.3277 0.0000
vt 0.7504 0.2983 0.0000
vt 0.7288 0.3029 0.0000
vt 0.7462 0.2692 0.0000
vt 0.7251 0.2753 0.0000
vt 0.7196 0.2479 0.0000
vt 0.7403 0.2404 0.0000
vt 0.7124 0.2211 0.0000
vt 0.7325 0.2120 0.0000
vt 0.7035 0.1948 0.0000
vt 0.7229 0.1843 0.0000
vt 0.6930 0.1692 0.0000
vt 0.7116 0.1572 0.0000
vt 0.6809 0.1447 0.0000
vt 0.6986 0.1310 0.0000
vt 0.6672 0.1219 0.0000
vt 0.6834 0.1061 0.0000
vt 0.6512 0.1024 0.0000
vt 0.6653 0.0830 0.0000
vt 0.6642 0.5952 0.0000
vt 0.6524 0.5762 0.0000
vt 0.6697 0.5600 0.0000
vt 0.6847 0.5748 0.0000
vt 0.6836 0.5393 0.0000
vt 0.7012 0.5511 0.0000
vt 0.6955 0.5164 0.0000
vt 0.7147 0.5258 0.0000
vt 0.7055 0.4921 0.0000
vt 0.7258 0.4994 0.0000
vt 0.7591 0.3871 0.0000
vt 0.7608 0.3572 0.0000
vt 0.7605 0.3273 0.0000
vt 0.7582 0.2974 0.0000
vt 0.7540 0.2678 0.0000
vt 0.7479 0.2384 0.0000
vt 0.7399 0.2095 0.0000
vt 0.7302 0.1812 0.0000
vt 0.7186 0.1536 0.0000
vt 0.7052 0.1268 0.0000
vt 0.6896 0.1012 0.0000
vt 0.6719 0.0770 0.0000
vt 0.6698 0.6019 0.0000
vt 0.6904 0.5800 0.0000
vt 0.7073 0.5557 0.0000
vt 0.7212 0.5298 0.0000
vt 0.7328 0.5028 0.0000
vt 0.8159 0.5000 0.0000
vt 0.8015 0.4950 0.0000
vt 0.8108 0.4619 0.0000
vt 0.8255 0.4660 0.0000
vt 0.7647 0.4184 0.0000
vt 0.7685 0.3881 0.0000
vt 0.7702 0.3575 0.0000
vt 0.7699 0.3269 0.0000
vt 0.7676 0.2964 0.0000
vt 0.7632 0.2661 0.0000
vt 0.7569 0.2361 0.0000
vt 0.7487 0.2066 0.0000
vt 0.7387 0.1777 0.0000
vt 0.7269 0.1495 0.0000
vt 0.7132 0.1221 0.0000
vt 0.6976 0.0959 0.0000
vt 0.6806 0.0709 0.0000
vt 0.6780 0.6088 0.0000
vt 0.6979 0.5857 0.0000
vt 0.7148 0.5610 0.0000
vt 0.7290 0.5345 0.0000
vt 0.7410 0.5067 0.0000
vt 0.7758 0.4196 0.0000
vt 0.7797 0.3884 0.0000
vt 0.7814 0.3571 0.0000
vt 0.7811 0.3257 0.0000
vt 0.7786 0.2944 0.0000
vt 0.7741 0.2634 0.0000
vt 0.7675 0.2327 0.0000
vt 0.7590 0.2025 0.0000
vt 0.7486 0.1728 0.0000
vt 0.7364 0.1439 0.0000
vt 0.7225 0.1159 0.0000
vt 0.7072 0.0892 0.0000
vt 0.6911 0.0639 0.0000
vt 0.6888 0.6151 0.0000
vt 0.7077 0.5921 0.0000
vt 0.7243 0.5666 0.0000
vt 0.7388 0.5392 0.0000
vt 0.7512 0.5104 0.0000
vt 0.7809 0.4197 0.0000
vt 0.7848 0.3882 0.0000
vt 0.7865 0.3565 0.0000
vt 0.7861 0.3248 0.0000
vt 0.7835 0.2932 0.0000
vt 0.7789 0.2618 0.0000
vt 0.7722 0.2308 0.0000
vt 0.7635 0.2003 0.0000
vt 0.7529 0.1703 0.0000
vt 0.7404 0.1411 0.0000
vt 0.7264 0.1129 0.0000
vt 0.7111 0.0856 0.0000
vt 0.6949 0.0595 0.0000
vt 0.6930 0.6187 0.0000
vt 0.7119 0.5953 0.0000
vt 0.7287 0.5690 0.0000
vt 0.7434 0.5409 0.0000
vt 0.7560 0.5117 0.0000
vt 0.8061 0.4244 0.0000
vt 0.8103 0.3912 0.0000
vt 0.8122 0.3578 0.0000
vt 0.8117 0.3244 0.0000
vt 0.8090 0.2911 0.0000
vt 0.8040 0.2581 0.0000
vt 0.7968 0.2254 0.0000
vt 0.7875 0.1933 0.0000
vt 0.7761 0.1617 0.0000
vt 0.7628 0.1307 0.0000
vt 0.7481 0.1001 0.0000
vt 0.7326 0.0694 0.0000
vt 0.7167 0.0377 0.0000
vt 0.7107 0.6400 0.0000
vt 0.7314 0.6122 0.0000
vt 0.7495 0.5828 0.0000
vt 0.7655 0.5526 0.0000
vt 0.7793 0.5215 0.0000
vt 0.7954 0.4921 0.0000
vt 0.8045 0.4594 0.0000
vt 0.8112 0.4262 0.0000
vt 0.8155 0.3926 0.0000
vt 0.8174 0.3589 0.0000
vt 0.8170 0.3252 0.0000
vt 0.8143 0.2915 0.0000
vt 0.8093 0.2582 0.0000
vt 0.8021 0.2252 0.0000
vt 0.7926 0.1927 0.0000
vt 0.7811 0.1608 0.0000
vt 0.7677 0.1294 0.0000
vt 0.7527 0.0982 0.0000
vt 0.7370 0.0668 0.0000
vt 0.7218 0.0343 0.0000
vt 0.7147 0.6446 0.0000
vt 0.7353 0.6157 0.0000
vt 0.7536 0.5860 0.0000
vt 0.7699 0.5555 0.0000
vt 0.7839 0.5242 0.0000
vt 0.8176 0.4283 0.0000
vt 0.8220 0.3944 0.0000
vt 0.8241 0.3602 0.0000
vt 0.8237 0.3261 0.0000
vt 0.8210 0.2920 0.0000
vt 0.8160 0.2582 0.0000
vt 0.8087 0.2248 0.0000
vt 0.7992 0.1919 0.0000
vt 0.7875 0.1596 0.0000
vt 0.7739 0.1278 0.0000
vt 0.7588 0.0962 0.0000
vt 0.7430 0.0645 0.0000
vt 0.7289 0.0315 0.0000
vt 0.7208 0.6494 0.0000
vt 0.7406 0.6196 0.0000
vt 0.7591 0.5897 0.0000
vt 0.7756 0.5590 0.0000
vt 0.7898 0.5274 0.0000
vt 0.8325 0.4315 0.0000
vt 0.8371 0.3966 0.0000
vt 0.8392 0.3615 0.0000
vt 0.8389 0.3264 0.0000
vt 0.8362 0.2914 0.0000
vt 0.8311 0.2567 0.0000
vt 0.8236 0.2224 0.0000
vt 0.8139 0.1886 0.0000
vt 0.8019 0.1555 0.0000
vt 0.7880 0.1230 0.0000
vt 0.7726 0.0912 0.0000
vt 0.7568 0.0601 0.0000
vt 0.7444 0.0285 0.0000
vt 0.7362 0.6564 0.0000
vt 0.7545 0.6267 0.0000
vt 0.7729 0.5967 0.0000
vt 0.7896 0.5655 0.0000
vt 0.8040 0.5332 0.0000
vt 0.6136 0.6290 0.0000
vt 0.6211 0.6233 0.0000
vt 0.6355 0.6435 0.0000
vt 0.6287 0.6501 0.0000
vt 0.5590 0.6699 0.0000
vt 0.5674 0.6644 0.0000
vt 0.5878 0.6915 0.0000
vt 0.5805 0.6982 0.0000
vt 0.6321 0.6174 0.0000
vt 0.6415 0.6122 0.0000
vt 0.6546 0.6302 0.0000
vt 0.6458 0.6365 0.0000
vt 0.6699 0.6466 0.0000
vt 0.6619 0.6537 0.0000
vt 0.6870 0.6612 0.0000
vt 0.6799 0.6691 0.0000
vt 0.7056 0.6740 0.0000
vt 0.6997 0.6827 0.0000
vt 0.7252 0.6851 0.0000
vt 0.7207 0.6951 0.0000
vt 0.7148 0.3303 0.0000
vt 0.7202 0.3398 0.0000
vt 0.7027 0.3538 0.0000
vt 0.6958 0.3459 0.0000
vt 0.6860 0.3696 0.0000
vt 0.6779 0.3623 0.0000
vt 0.6699 0.3862 0.0000
vt 0.6611 0.3794 0.0000
vt 0.6552 0.4036 0.0000
vt 0.6460 0.3975 0.0000
vt 0.6425 0.4221 0.0000
vt 0.6327 0.4169 0.0000
vt 0.6319 0.4418 0.0000
vt 0.6217 0.4375 0.0000
vt 0.6237 0.4625 0.0000
vt 0.6131 0.4593 0.0000
vt 0.6180 0.4840 0.0000
vt 0.6072 0.4820 0.0000
vt 0.6150 0.5060 0.0000
vt 0.6041 0.5053 0.0000
vt 0.6148 0.5282 0.0000
vt 0.6039 0.5288 0.0000
vt 0.6174 0.5503 0.0000
vt 0.6066 0.5521 0.0000
vt 0.6228 0.5719 0.0000
vt 0.6123 0.5749 0.0000
vt 0.6309 0.5926 0.0000
vt 0.6208 0.5968 0.0000
vt 0.6278 0.6194 0.0000
vt 0.6418 0.6389 0.0000
vt 0.6582 0.6565 0.0000
vt 0.6766 0.6722 0.0000
vt 0.6967 0.6860 0.0000
vt 0.7179 0.6988 0.0000
vt 0.7121 0.3264 0.0000
vt 0.6929 0.3427 0.0000
vt 0.6746 0.3591 0.0000
vt 0.6576 0.3762 0.0000
vt 0.6422 0.3945 0.0000
vt 0.6288 0.4143 0.0000
vt 0.6176 0.4354 0.0000
vt 0.6088 0.4576 0.0000
vt 0.6027 0.4808 0.0000
vt 0.5995 0.5046 0.0000
vt 0.5993 0.5286 0.0000
vt 0.6020 0.5525 0.0000
vt 0.6078 0.5758 0.0000
vt 0.6164 0.5982 0.0000
vt 0.6524 0.6618 0.0000
vt 0.6712 0.6778 0.0000
vt 0.6916 0.6914 0.0000
vt 0.7124 0.7035 0.0000
vt 0.7059 0.3215 0.0000
vt 0.6872 0.3378 0.0000
vt 0.6688 0.3539 0.0000
vt 0.6515 0.3711 0.0000
vt 0.6358 0.3899 0.0000
vt 0.6219 0.4103 0.0000
vt 0.6103 0.4321 0.0000
vt 0.6013 0.4553 0.0000
vt 0.5950 0.4794 0.0000
vt 0.5917 0.5041 0.0000
vt 0.5915 0.5291 0.0000
vt 0.5943 0.5538 0.0000
vt 0.6003 0.5781 0.0000
vt 0.6093 0.6013 0.0000
vt 0.6462 0.6690 0.0000
vt 0.6657 0.6854 0.0000
vt 0.6864 0.6989 0.0000
vt 0.7078 0.7098 0.0000
vt 0.6988 0.3165 0.0000
vt 0.6803 0.3320 0.0000
vt 0.6616 0.3478 0.0000
vt 0.6439 0.3654 0.0000
vt 0.6277 0.3849 0.0000
vt 0.6133 0.4062 0.0000
vt 0.6014 0.4291 0.0000
vt 0.5920 0.4533 0.0000
vt 0.5856 0.4786 0.0000
vt 0.5823 0.5045 0.0000
vt 0.5822 0.5306 0.0000
vt 0.5853 0.5565 0.0000
vt 0.5917 0.5818 0.0000
vt 0.6012 0.6061 0.0000
vt 0.6065 0.6353 0.0000
vt 0.6224 0.6572 0.0000
vt 0.6407 0.6767 0.0000
vt 0.6610 0.6936 0.0000
vt 0.6828 0.7074 0.0000
vt 0.7061 0.7173 0.0000
vt 0.6939 0.3107 0.0000
vt 0.6745 0.3254 0.0000
vt 0.6551 0.3415 0.0000
vt 0.6366 0.3598 0.0000
vt 0.6197 0.3802 0.0000
vt 0.6048 0.4025 0.0000
vt 0.5924 0.4265 0.0000
vt 0.5828 0.4519 0.0000
vt 0.5763 0.4783 0.0000
vt 0.5730 0.5054 0.0000
vt 0.5731 0.5327 0.0000
vt 0.5766 0.5597 0.0000
vt 0.5834 0.5861 0.0000
vt 0.5934 0.6114 0.0000
vt 0.5931 0.6459 0.0000
vt 0.6104 0.6695 0.0000
vt 0.6305 0.6906 0.0000
vt 0.6530 0.7087 0.0000
vt 0.6780 0.7234 0.0000
vt 0.7059 0.7325 0.0000
vt 0.6913 0.2977 0.0000
vt 0.6677 0.3116 0.0000
vt 0.6454 0.3286 0.0000
vt 0.6248 0.3483 0.0000
vt 0.6063 0.3703 0.0000
vt 0.5901 0.3945 0.0000
vt 0.5767 0.4205 0.0000
vt 0.5664 0.4480 0.0000
vt 0.5595 0.4765 0.0000
vt 0.5561 0.5058 0.0000
vt 0.5563 0.5352 0.0000
vt 0.5602 0.5645 0.0000
vt 0.5678 0.5929 0.0000
vt 0.5788 0.6202 0.0000
vt 0.5806 0.6550 0.0000
vt 0.5994 0.6802 0.0000
vt 0.6213 0.7028 0.0000
vt 0.6463 0.7223 0.0000
vt 0.6743 0.7376 0.0000
vt 0.7052 0.7467 0.0000
vt 0.6914 0.2852 0.0000
vt 0.6636 0.2983 0.0000
vt 0.6383 0.3160 0.0000
vt 0.6155 0.3368 0.0000
vt 0.5951 0.3604 0.0000
vt 0.5775 0.3862 0.0000
vt 0.5630 0.4140 0.0000
vt 0.5519 0.4434 0.0000
vt 0.5445 0.4739 0.0000
vt 0.5409 0.5052 0.0000
vt 0.5411 0.5367 0.0000
vt 0.5453 0.5679 0.0000
vt 0.5534 0.5983 0.0000
vt 0.5652 0.6275 0.0000
vt 0.5752 0.6588 0.0000
vt 0.5947 0.6848 0.0000
vt 0.6175 0.7081 0.0000
vt 0.6435 0.7280 0.0000
vt 0.6727 0.7436 0.0000
vt 0.7047 0.7529 0.0000
vt 0.6919 0.2794 0.0000
vt 0.6624 0.2922 0.0000
vt 0.6358 0.3101 0.0000
vt 0.6119 0.3315 0.0000
vt 0.5906 0.3556 0.0000
vt 0.5723 0.3822 0.0000
vt 0.5572 0.4108 0.0000
vt 0.5458 0.4410 0.0000
vt 0.5381 0.4724 0.0000
vt 0.5343 0.5046 0.0000
vt 0.5346 0.5370 0.0000
vt 0.5389 0.5691 0.0000
vt 0.5471 0.6004 0.0000
vt 0.5593 0.6305 0.0000
vt 0.6119 0.7158 0.0000
vt 0.6394 0.7364 0.0000
vt 0.6702 0.7525 0.0000
vt 0.7034 0.7623 0.0000
vt 0.6914 0.2707 0.0000
vt 0.6603 0.2834 0.0000
vt 0.6319 0.3017 0.0000
vt 0.6064 0.3237 0.0000
vt 0.5839 0.3488 0.0000
vt 0.5646 0.3764 0.0000
vt 0.5488 0.4061 0.0000
vt 0.5367 0.4376 0.0000
vt 0.5287 0.4703 0.0000
vt 0.5247 0.5037 0.0000
vt 0.5249 0.5374 0.0000
vt 0.5293 0.5709 0.0000
vt 0.5380 0.6035 0.0000
vt 0.5507 0.6349 0.0000
vt 0.6058 0.7235 0.0000
vt 0.6349 0.7449 0.0000
vt 0.6672 0.7616 0.0000
vt 0.7024 0.7722 0.0000
vt 0.6919 0.2614 0.0000
vt 0.6583 0.2742 0.0000
vt 0.6282 0.2929 0.0000
vt 0.6011 0.3156 0.0000
vt 0.5772 0.3415 0.0000
vt 0.5568 0.3701 0.0000
vt 0.5402 0.4010 0.0000
vt 0.5275 0.4337 0.0000
vt 0.5190 0.4677 0.0000
vt 0.5147 0.5025 0.0000
vt 0.5149 0.5376 0.0000
vt 0.5194 0.5725 0.0000
vt 0.5283 0.6065 0.0000
vt 0.5416 0.6392 0.0000
vt 0.5401 0.6831 0.0000
vt 0.5639 0.7139 0.0000
vt 0.5920 0.7412 0.0000
vt 0.6240 0.7642 0.0000
vt 0.6593 0.7822 0.0000
vt 0.6964 0.7950 0.0000
vt 0.6877 0.2397 0.0000
vt 0.6519 0.2536 0.0000
vt 0.6185 0.2733 0.0000
vt 0.5882 0.2974 0.0000
vt 0.5615 0.3252 0.0000
vt 0.5388 0.3562 0.0000
vt 0.5203 0.3897 0.0000
vt 0.5062 0.4252 0.0000
vt 0.4967 0.4622 0.0000
vt 0.4919 0.5002 0.0000
vt 0.4919 0.5385 0.0000
vt 0.4967 0.5765 0.0000
vt 0.5064 0.6137 0.0000
vt 0.5209 0.6494 0.0000
vt 0.5313 0.6893 0.0000
vt 0.5562 0.7214 0.0000
vt 0.5856 0.7496 0.0000
vt 0.6190 0.7733 0.0000
vt 0.6557 0.7919 0.0000
vt 0.6945 0.8062 0.0000
vt 0.6872 0.2289 0.0000
vt 0.6492 0.2437 0.0000
vt 0.6140 0.2639 0.0000
vt 0.5822 0.2887 0.0000
vt 0.5543 0.3174 0.0000
vt 0.5305 0.3494 0.0000
vt 0.5111 0.3842 0.0000
vt 0.4963 0.4211 0.0000
vt 0.4863 0.4595 0.0000
vt 0.4812 0.4990 0.0000
vt 0.4811 0.5388 0.0000
vt 0.4860 0.5783 0.0000
vt 0.4961 0.6171 0.0000
vt 0.5112 0.6543 0.0000
vt 0.5523 0.7247 0.0000
vt 0.5489 0.7277 0.0000
vt 0.9372 0.8011 0.0000
vt 0.9509 0.8411 0.0000
vt 0.8759 0.9796 0.0000
vt 0.7929 0.7378 0.0000
vt 0.8759 0.7447 0.0000
vt 0.6961 0.8622 0.0000
vt 0.7232 0.7834 0.0000
vt 0.8350 0.9900 0.0000
vt 0.7031 0.9038 0.0000
vt 0.7929 0.9865 0.0000
vt 0.7542 0.9696 0.0000
vt 0.9509 0.8833 0.0000
vt 0.9372 0.9232 0.0000
vt 0.9113 0.9565 0.0000
vt 0.9113 0.7678 0.0000
vt 0.8350 0.7343 0.0000
vt 0.7542 0.7548 0.0000
vt 0.7031 0.8205 0.0000
vt 0.7232 0.9410 0.0000
# 598 texture coords

g Pillar_7
usemtl Pillar_7
s 1
f 1/1/1 2/2/2 3/3/3 
f 3/3/3 4/4/4 1/1/1 
f 4/4/4 3/3/3 5/5/5 
f 5/5/5 6/6/6 4/4/4 
f 6/6/6 5/5/5 7/7/7 
f 7/7/7 8/8/8 6/6/6 
f 8/9/8 7/10/7 9/11/9 
f 9/11/9 10/12/10 8/9/8 
f 10/12/10 9/11/9 11/13/11 
f 11/13/11 12/14/12 10/12/10 
f 12/14/12 11/13/11 13/15/13 
f 13/15/13 14/16/14 12/14/12 
f 14/16/14 13/15/13 15/17/15 
f 15/17/15 16/18/16 14/16/14 
f 16/18/16 15/17/15 17/19/17 
f 17/19/17 18/20/18 16/18/16 
f 18/20/18 17/19/17 19/21/19 
f 19/21/19 20/22/20 18/20/18 
f 20/22/20 19/21/19 21/23/21 
f 21/23/21 22/24/22 20/22/20 
f 22/24/22 21/23/21 23/25/23 
f 23/25/23 24/26/24 22/24/22 
f 24/26/24 23/25/23 25/27/25 
f 25/27/25 26/28/26 24/26/24 
f 26/28/26 25/27/25 27/29/27 
f 27/29/27 28/30/28 26/28/26 
f 28/30/28 27/29/27 29/31/29 
f 29/31/29 30/32/30 28/30/28 
f 30/32/30 29/31/29 31/33/31 
f 31/33/31 32/34/32 30/32/30 
f 32/34/32 31/33/31 33/35/33 
f 33/35/33 34/36/34 32/34/32 
f 34/36/34 33/35/33 35/37/35 
f 35/37/35 36/38/36 34/36/34 
f 37/39/37 38/40/38 39/41/39 
f 37/39/37 40/42/40 38/40/38 
f 41/43/41 42/44/42 40/42/40 
f 43/45/43 44/46/44 45/47/45 
f 46/48/46 41/43/41 40/42/40 
f 47/49/47 46/48/46 40/42/40 
f 37/39/37 47/49/47 40/42/40 
f 43/45/43 45/47/45 46/48/46 
f 48/50/48 43/45/43 46/48/46 
f 47/49/47 48/50/48 46/48/46 
f 49/51/49 50/52/50 43/45/43 
f 48/50/48 49/51/49 43/45/43 
f 51/53/51 52/54/52 48/50/48 
f 47/49/47 51/53/51 48/50/48 
f 47/49/47 53/55/53 51/53/51 
f 37/39/37 54/56/54 47/49/47 
f 37/39/37 55/57/55 54/56/54 
f 56/58/56 57/59/57 58/60/58 
f 58/60/58 59/61/59 56/58/56 
f 60/62/60 59/61/59 61/63/61 
f 61/63/61 62/64/62 60/62/60 
f 61/63/61 63/65/63 64/66/64 
f 64/66/64 65/67/65 61/63/61 
f 66/68/66 65/69/65 67/70/67 
f 67/70/67 68/71/68 66/68/66 
f 67/70/67 69/72/69 70/73/70 
f 70/73/70 71/74/71 67/70/67 
f 72/75/72 71/74/71 73/76/73 
f 73/76/73 74/77/74 72/75/72 
f 73/76/73 75/78/75 76/79/76 
f 76/79/76 77/80/77 73/76/73 
f 77/80/77 76/79/76 78/81/78 
f 78/81/78 79/82/79 77/80/77 
f 80/83/80 79/82/79 81/84/81 
f 81/84/81 82/85/82 80/83/80 
f 81/84/81 83/86/83 84/87/84 
f 84/87/84 85/88/85 81/84/81 
f 86/89/86 85/88/85 87/90/87 
f 87/90/87 88/91/88 86/89/86 
f 87/90/87 89/92/89 90/93/90 
f 90/93/90 91/94/91 87/90/87 
f 92/95/92 91/94/91 93/96/93 
f 93/96/93 94/97/94 92/95/92 
f 93/96/93 95/98/95 96/99/96 
f 96/99/96 97/100/97 93/96/93 
f 98/101/98 97/100/97 99/102/99 
f 99/102/99 100/103/100 98/101/98 
f 99/102/99 101/104/101 102/105/102 
f 102/105/102 103/106/103 99/102/99 
f 104/107/104 103/106/103 105/108/105 
f 105/108/105 106/109/106 104/107/104 
f 105/108/105 107/110/107 108/111/108 
f 108/111/108 109/112/109 105/108/105 
f 110/113/110 109/112/109 56/58/56 
f 56/58/56 111/114/111 110/113/110 
f 112/115/112 113/116/113 114/117/114 
f 114/117/114 115/118/115 112/115/112 
f 116/119/116 117/120/117 118/121/118 
f 118/121/118 119/122/119 116/119/116 
f 119/122/119 118/121/118 120/123/120 
f 120/123/120 121/124/121 119/122/119 
f 122/125/122 123/126/123 124/127/124 
f 124/127/124 125/128/125 122/125/122 
f 111/114/111 56/58/56 59/61/59 
f 59/61/59 60/62/60 111/114/111 
f 63/65/63 61/63/61 59/61/59 
f 59/61/59 58/60/58 63/65/63 
f 62/64/62 61/63/61 65/67/65 
f 65/67/65 66/129/66 62/64/62 
f 69/72/69 67/70/67 65/69/65 
f 65/69/65 64/130/64 69/72/69 
f 68/71/68 67/70/67 71/74/71 
f 71/74/71 72/75/72 68/71/68 
f 75/78/75 73/76/73 71/74/71 
f 71/74/71 70/73/70 75/78/75 
f 74/77/74 73/76/73 77/80/77 
f 77/80/77 126/131/126 74/77/74 
f 126/131/126 77/80/77 79/82/79 
f 79/82/79 80/83/80 126/131/126 
f 83/86/83 81/84/81 79/82/79 
f 79/82/79 78/81/78 83/86/83 
f 82/85/82 81/84/81 85/88/85 
f 85/88/85 86/89/86 82/85/82 
f 89/92/89 87/90/87 85/88/85 
f 85/88/85 84/87/84 89/92/89 
f 88/91/88 87/90/87 91/94/91 
f 91/94/91 92/95/92 88/91/88 
f 95/98/95 93/96/93 91/94/91 
f 91/94/91 90/93/90 95/98/95 
f 94/97/94 93/96/93 97/100/97 
f 97/100/97 98/101/98 94/97/94 
f 101/104/101 99/102/99 97/100/97 
f 97/100/97 96/99/96 101/104/101 
f 100/103/100 99/102/99 103/106/103 
f 103/106/103 104/107/104 100/103/100 
f 107/110/107 105/108/105 103/106/103 
f 103/106/103 102/105/102 107/110/107 
f 106/109/106 105/108/105 109/112/109 
f 109/112/109 110/113/110 106/109/106 
f 57/59/57 56/58/56 109/112/109 
f 109/112/109 108/111/108 57/59/57 
f 117/120/117 80/132/80 82/133/82 
f 82/133/82 118/121/118 117/120/117 
f 118/121/118 82/133/82 86/134/86 
f 86/134/86 120/123/120 118/121/118 
f 120/123/120 86/134/86 88/135/88 
f 88/135/88 127/136/127 120/123/120 
f 127/136/127 88/135/88 92/137/92 
f 92/137/92 128/138/128 127/136/127 
f 128/138/128 92/137/92 94/139/94 
f 94/139/94 129/140/129 128/138/128 
f 130/141/130 129/140/129 94/139/94 
f 94/139/94 98/142/98 130/141/130 
f 131/143/131 130/141/130 98/142/98 
f 98/142/98 100/144/100 131/143/131 
f 131/143/131 100/144/100 104/145/104 
f 104/145/104 132/146/132 131/143/131 
f 132/146/132 104/145/104 106/147/106 
f 106/147/106 133/148/133 132/146/132 
f 133/148/133 106/147/106 110/149/110 
f 110/149/110 134/150/134 133/148/133 
f 134/150/134 110/149/110 111/151/111 
f 111/151/111 135/152/135 134/150/134 
f 135/152/135 111/151/111 60/153/60 
f 60/153/60 136/154/136 135/152/135 
f 136/154/136 60/153/60 62/155/62 
f 62/155/62 137/156/137 136/154/136 
f 137/156/137 62/155/62 66/157/66 
f 66/157/66 138/158/138 137/156/137 
f 138/159/138 66/160/66 68/161/68 
f 68/161/68 139/162/139 138/159/138 
f 72/163/72 140/164/140 139/162/139 
f 139/162/139 68/161/68 72/163/72 
f 74/165/74 141/166/141 140/164/140 
f 140/164/140 72/163/72 74/165/74 
f 141/166/141 74/165/74 126/167/126 
f 126/167/126 142/168/142 141/166/141 
f 142/168/142 126/167/126 80/132/80 
f 80/132/80 117/120/117 142/168/142 
f 121/124/121 120/123/120 127/136/127 
f 127/136/127 143/169/143 121/124/121 
f 143/169/143 127/136/127 128/138/128 
f 128/138/128 144/170/144 143/169/143 
f 144/170/144 128/138/128 129/140/129 
f 129/140/129 145/171/145 144/170/144 
f 145/171/145 129/140/129 130/141/130 
f 130/141/130 146/172/146 145/171/145 
f 146/172/146 130/141/130 131/143/131 
f 131/143/131 147/173/147 146/172/146 
f 147/173/147 131/143/131 132/146/132 
f 132/146/132 148/174/148 147/173/147 
f 148/174/148 132/146/132 133/148/133 
f 133/148/133 149/175/149 148/174/148 
f 149/175/149 133/148/133 134/150/134 
f 134/150/134 150/176/150 149/175/149 
f 150/176/150 134/150/134 135/152/135 
f 135/152/135 151/177/151 150/176/150 
f 151/177/151 135/152/135 136/154/136 
f 136/154/136 152/178/152 151/177/151 
f 152/178/152 136/154/136 137/156/137 
f 137/156/137 153/179/153 152/178/152 
f 153/179/153 137/156/137 138/158/138 
f 138/158/138 154/180/154 153/179/153 
f 154/181/154 138/159/138 139/162/139 
f 139/162/139 155/182/155 154/181/154 
f 155/182/155 139/162/139 140/164/140 
f 140/164/140 156/183/156 155/182/155 
f 156/183/156 140/164/140 141/166/141 
f 141/166/141 157/184/157 156/183/156 
f 157/184/157 141/166/141 142/168/142 
f 142/168/142 158/185/158 157/184/157 
f 158/185/158 142/168/142 117/120/117 
f 117/120/117 116/119/116 158/185/158 
f 46/186/46 159/187/159 160/188/160 
f 160/188/160 41/189/41 46/186/46 
f 113/116/113 116/119/116 119/122/119 
f 119/122/119 114/117/114 113/116/113 
f 114/117/114 119/122/119 121/124/121 
f 121/124/121 161/190/161 114/117/114 
f 161/190/161 121/124/121 143/169/143 
f 143/169/143 162/191/162 161/190/161 
f 162/191/162 143/169/143 144/170/144 
f 144/170/144 163/192/163 162/191/162 
f 163/192/163 144/170/144 145/171/145 
f 145/171/145 164/193/164 163/192/163 
f 164/193/164 145/171/145 146/172/146 
f 146/172/146 165/194/165 164/193/164 
f 165/194/165 146/172/146 147/173/147 
f 147/173/147 166/195/166 165/194/165 
f 166/195/166 147/173/147 148/174/148 
f 148/174/148 167/196/167 166/195/166 
f 167/196/167 148/174/148 149/175/149 
f 149/175/149 168/197/168 167/196/167 
f 168/197/168 149/175/149 150/176/150 
f 150/176/150 169/198/169 168/197/168 
f 169/198/169 150/176/150 151/177/151 
f 151/177/151 170/199/170 169/198/169 
f 170/199/170 151/177/151 152/178/152 
f 152/178/152 171/200/171 170/199/170 
f 171/200/171 152/178/152 153/179/153 
f 153/179/153 172/201/172 171/200/171 
f 172/201/172 153/179/153 154/180/154 
f 154/180/154 173/202/173 172/201/172 
f 173/203/173 154/181/154 155/182/155 
f 155/182/155 174/204/174 173/203/173 
f 174/204/174 155/182/155 156/183/156 
f 156/183/156 175/205/175 174/204/174 
f 175/205/175 156/183/156 157/184/157 
f 157/184/157 176/206/176 175/205/175 
f 176/206/176 157/184/157 158/185/158 
f 158/185/158 177/207/177 176/206/176 
f 177/207/177 158/185/158 116/119/116 
f 116/119/116 113/116/113 177/207/177 
f 115/118/115 114/117/114 161/190/161 
f 161/190/161 178/208/178 115/118/115 
f 178/208/178 161/190/161 162/191/162 
f 162/191/162 179/209/179 178/208/178 
f 179/209/179 162/191/162 163/192/163 
f 163/192/163 180/210/180 179/209/179 
f 180/210/180 163/192/163 164/193/164 
f 164/193/164 181/211/181 180/210/180 
f 181/211/181 164/193/164 165/194/165 
f 165/194/165 182/212/182 181/211/181 
f 182/212/182 165/194/165 166/195/166 
f 166/195/166 183/213/183 182/212/182 
f 183/213/183 166/195/166 167/196/167 
f 167/196/167 184/214/184 183/213/183 
f 184/214/184 167/196/167 168/197/168 
f 168/197/168 185/215/185 184/214/184 
f 185/215/185 168/197/168 169/198/169 
f 169/198/169 186/216/186 185/215/185 
f 186/216/186 169/198/169 170/199/170 
f 170/199/170 187/217/187 186/216/186 
f 187/217/187 170/199/170 171/200/171 
f 171/200/171 188/218/188 187/217/187 
f 188/218/188 171/200/171 172/201/172 
f 172/201/172 189/219/189 188/218/188 
f 189/219/189 172/201/172 173/202/173 
f 173/202/173 190/220/190 189/219/189 
f 190/221/190 173/203/173 174/204/174 
f 174/204/174 191/222/191 190/221/190 
f 191/222/191 174/204/174 175/205/175 
f 175/205/175 192/223/192 191/222/191 
f 192/223/192 175/205/175 176/206/176 
f 176/206/176 193/224/193 192/223/192 
f 193/224/193 176/206/176 177/207/177 
f 177/207/177 194/225/194 193/224/193 
f 194/225/194 177/207/177 113/116/113 
f 113/116/113 112/115/112 194/225/194 
f 123/126/123 112/115/112 115/118/115 
f 115/118/115 124/127/124 123/126/123 
f 124/127/124 115/118/115 178/208/178 
f 178/208/178 195/226/195 124/127/124 
f 195/226/195 178/208/178 179/209/179 
f 179/209/179 196/227/196 195/226/195 
f 196/227/196 179/209/179 180/210/180 
f 180/210/180 197/228/197 196/227/196 
f 197/228/197 180/210/180 181/211/181 
f 181/211/181 198/229/198 197/228/197 
f 198/229/198 181/211/181 182/212/182 
f 182/212/182 199/230/199 198/229/198 
f 199/230/199 182/212/182 183/213/183 
f 183/213/183 200/231/200 199/230/199 
f 200/231/200 183/213/183 184/214/184 
f 184/214/184 201/232/201 200/231/200 
f 201/232/201 184/214/184 185/215/185 
f 185/215/185 202/233/202 201/232/201 
f 202/233/202 185/215/185 186/216/186 
f 186/216/186 203/234/203 202/233/202 
f 203/234/203 186/216/186 187/217/187 
f 187/217/187 204/235/204 203/234/203 
f 204/235/204 187/217/187 188/218/188 
f 188/218/188 205/236/205 204/235/204 
f 205/236/205 188/218/188 189/219/189 
f 189/219/189 206/237/206 205/236/205 
f 206/237/206 189/219/189 190/220/190 
f 190/220/190 207/238/207 206/237/206 
f 207/239/207 190/221/190 191/222/191 
f 191/222/191 208/240/208 207/239/207 
f 208/240/208 191/222/191 192/223/192 
f 192/223/192 209/241/209 208/240/208 
f 209/241/209 192/223/192 193/224/193 
f 193/224/193 210/242/210 209/241/209 
f 210/242/210 193/224/193 194/225/194 
f 194/225/194 211/243/211 210/242/210 
f 211/243/211 194/225/194 112/115/112 
f 112/115/112 123/126/123 211/243/211 
f 125/128/125 124/127/124 195/226/195 
f 195/226/195 212/244/212 125/128/125 
f 212/244/212 195/226/195 196/227/196 
f 196/227/196 213/245/213 212/244/212 
f 213/245/213 196/227/196 197/228/197 
f 197/228/197 214/246/214 213/245/213 
f 214/246/214 197/228/197 198/229/198 
f 198/229/198 215/247/215 214/246/214 
f 215/247/215 198/229/198 199/230/199 
f 199/230/199 216/248/216 215/247/215 
f 216/248/216 199/230/199 200/231/200 
f 200/231/200 217/249/217 216/248/216 
f 217/249/217 200/231/200 201/232/201 
f 201/232/201 218/250/218 217/249/217 
f 218/250/218 201/232/201 202/233/202 
f 202/233/202 219/251/219 218/250/218 
f 219/251/219 202/233/202 203/234/203 
f 203/234/203 220/252/220 219/251/219 
f 220/252/220 203/234/203 204/235/204 
f 204/235/204 221/253/221 220/252/220 
f 221/253/221 204/235/204 205/236/205 
f 205/236/205 222/254/222 221/253/221 
f 222/254/222 205/236/205 206/237/206 
f 206/237/206 223/255/223 222/254/222 
f 223/255/223 206/237/206 207/238/207 
f 207/238/207 224/256/224 223/255/223 
f 224/257/224 207/239/207 208/240/208 
f 208/240/208 225/258/225 224/257/224 
f 225/258/225 208/240/208 209/241/209 
f 209/241/209 226/259/226 225/258/225 
f 226/259/226 209/241/209 210/242/210 
f 210/242/210 227/260/227 226/259/226 
f 227/260/227 210/242/210 211/243/211 
f 211/243/211 228/261/228 227/260/227 
f 228/261/228 211/243/211 123/126/123 
f 123/126/123 122/125/122 228/261/228 
f 229/262/229 122/125/122 125/128/125 
f 125/128/125 230/263/230 229/262/229 
f 230/263/230 125/128/125 212/244/212 
f 212/244/212 231/264/231 230/263/230 
f 231/264/231 212/244/212 213/245/213 
f 213/245/213 232/265/232 231/264/231 
f 232/265/232 213/245/213 214/246/214 
f 214/246/214 233/266/233 232/265/232 
f 233/266/233 214/246/214 215/247/215 
f 215/247/215 234/267/234 233/266/233 
f 234/267/234 215/247/215 216/248/216 
f 216/248/216 235/268/235 234/267/234 
f 235/268/235 216/248/216 217/249/217 
f 217/249/217 236/269/236 235/268/235 
f 236/269/236 217/249/217 218/250/218 
f 218/250/218 237/270/237 236/269/236 
f 237/270/237 218/250/218 219/251/219 
f 219/251/219 238/271/238 237/270/237 
f 238/271/238 219/251/219 220/252/220 
f 220/252/220 239/272/239 238/271/238 
f 239/272/239 220/252/220 221/253/221 
f 221/253/221 240/273/240 239/272/239 
f 240/273/240 221/253/221 222/254/222 
f 222/254/222 241/274/241 240/273/240 
f 241/274/241 222/254/222 223/255/223 
f 223/255/223 242/275/242 241/274/241 
f 242/275/242 223/255/223 224/256/224 
f 224/256/224 243/276/243 242/275/242 
f 243/277/243 224/257/224 225/258/225 
f 225/258/225 244/278/244 243/277/243 
f 244/278/244 225/258/225 226/259/226 
f 226/259/226 245/279/245 244/278/244 
f 245/279/245 226/259/226 227/260/227 
f 227/260/227 246/280/246 245/279/245 
f 246/280/246 227/260/227 228/261/228 
f 228/261/228 247/281/247 246/280/246 
f 247/281/247 228/261/228 122/125/122 
f 122/125/122 229/262/229 247/281/247 
f 159/187/159 229/262/229 230/263/230 
f 230/263/230 160/188/160 159/187/159 
f 160/188/160 230/263/230 231/264/231 
f 231/264/231 248/282/248 160/188/160 
f 248/282/248 231/264/231 232/265/232 
f 232/265/232 249/283/249 248/282/248 
f 249/283/249 232/265/232 233/266/233 
f 233/266/233 250/284/250 249/283/249 
f 250/284/250 233/266/233 234/267/234 
f 234/267/234 251/285/251 250/284/250 
f 251/285/251 234/267/234 235/268/235 
f 235/268/235 252/286/252 251/285/251 
f 252/286/252 235/268/235 236/269/236 
f 236/269/236 253/287/253 252/286/252 
f 253/287/253 236/269/236 237/270/237 
f 237/270/237 254/288/254 253/287/253 
f 254/288/254 237/270/237 238/271/238 
f 238/271/238 255/289/255 254/288/254 
f 255/289/255 238/271/238 239/272/239 
f 239/272/239 256/290/256 255/289/255 
f 256/290/256 239/272/239 240/273/240 
f 240/273/240 257/291/257 256/290/256 
f 257/291/257 240/273/240 241/274/241 
f 241/274/241 258/292/258 257/291/257 
f 258/292/258 241/274/241 242/275/242 
f 242/275/242 259/293/259 258/292/258 
f 259/293/259 242/275/242 243/276/243 
f 243/276/243 260/294/260 259/293/259 
f 260/295/260 243/277/243 244/278/244 
f 244/278/244 261/296/261 260/295/260 
f 261/296/261 244/278/244 245/279/245 
f 245/279/245 262/297/262 261/296/261 
f 262/297/262 245/279/245 246/280/246 
f 246/280/246 263/298/263 262/297/262 
f 263/298/263 246/280/246 247/281/247 
f 247/281/247 264/299/264 263/298/263 
f 264/299/264 247/281/247 229/262/229 
f 229/262/229 159/187/159 264/299/264 
f 41/189/41 160/188/160 248/282/248 
f 248/282/248 42/300/42 41/189/41 
f 42/300/42 248/282/248 249/283/249 
f 249/283/249 40/301/40 42/300/42 
f 40/301/40 249/283/249 250/284/250 
f 250/284/250 38/302/38 40/301/40 
f 38/302/38 250/284/250 251/285/251 
f 251/285/251 39/303/39 38/302/38 
f 39/303/39 251/285/251 252/286/252 
f 252/286/252 37/304/37 39/303/39 
f 37/304/37 252/286/252 253/287/253 
f 253/287/253 55/305/55 37/304/37 
f 55/305/55 253/287/253 254/288/254 
f 254/288/254 54/306/54 55/305/55 
f 54/306/54 254/288/254 255/289/255 
f 255/289/255 47/307/47 54/306/54 
f 47/307/47 255/289/255 256/290/256 
f 256/290/256 53/308/53 47/307/47 
f 53/308/53 256/290/256 257/291/257 
f 257/291/257 51/309/51 53/308/53 
f 51/309/51 257/291/257 258/292/258 
f 258/292/258 52/310/52 51/309/51 
f 52/310/52 258/292/258 259/293/259 
f 259/293/259 48/311/48 52/310/52 
f 48/311/48 259/293/259 260/294/260 
f 260/294/260 49/312/49 48/311/48 
f 49/313/49 260/295/260 261/296/261 
f 261/296/261 50/314/50 49/313/49 
f 50/314/50 261/296/261 262/297/262 
f 262/297/262 43/315/43 50/314/50 
f 43/315/43 262/297/262 263/298/263 
f 263/298/263 44/316/44 43/315/43 
f 44/316/44 263/298/263 264/299/264 
f 264/299/264 45/317/45 44/316/44 
f 45/317/45 264/299/264 159/187/159 
f 159/187/159 46/186/46 45/317/45 
f 265/318/265 266/319/266 267/320/267 
f 267/320/267 268/321/268 265/318/265 
f 269/322/269 270/323/270 271/324/271 
f 271/324/271 272/325/272 269/322/269 
f 273/326/273 78/327/78 76/328/76 
f 76/328/76 274/329/274 273/326/273 
f 274/329/274 76/328/76 75/330/75 
f 75/330/75 275/331/275 274/329/274 
f 275/331/275 75/330/75 70/332/70 
f 70/332/70 276/333/276 275/331/275 
f 276/333/276 70/332/70 69/334/69 
f 69/334/69 277/335/277 276/333/276 
f 277/335/277 69/334/69 64/336/64 
f 64/336/64 278/337/278 277/335/277 
f 278/338/278 64/339/64 63/340/63 
f 63/340/63 279/341/279 278/338/278 
f 279/341/279 63/340/63 58/342/58 
f 58/342/58 280/343/280 279/341/279 
f 280/343/280 58/342/58 57/344/57 
f 57/344/57 281/345/281 280/343/280 
f 281/345/281 57/344/57 108/346/108 
f 108/346/108 282/347/282 281/345/281 
f 282/347/282 108/346/108 107/348/107 
f 107/348/107 283/349/283 282/347/282 
f 283/349/283 107/348/107 102/350/102 
f 102/350/102 284/351/284 283/349/283 
f 284/351/284 102/350/102 101/352/101 
f 101/352/101 285/353/285 284/351/284 
f 285/353/285 101/352/101 96/354/96 
f 96/354/96 286/355/286 285/353/285 
f 286/355/286 96/354/96 95/356/95 
f 95/356/95 287/357/287 286/355/286 
f 287/357/287 95/356/95 90/358/90 
f 90/358/90 288/359/288 287/357/287 
f 288/359/288 90/358/90 89/360/89 
f 89/360/89 289/361/289 288/359/288 
f 289/361/289 89/360/89 84/362/84 
f 84/362/84 290/363/290 289/361/289 
f 290/363/290 84/362/84 83/364/83 
f 83/364/83 291/365/291 290/363/290 
f 291/365/291 83/364/83 78/327/78 
f 78/327/78 273/326/273 291/365/291 
f 292/366/292 273/326/273 274/329/274 
f 274/329/274 293/367/293 292/366/292 
f 293/367/293 274/329/274 275/331/275 
f 275/331/275 294/368/294 293/367/293 
f 294/368/294 275/331/275 276/333/276 
f 276/333/276 295/369/295 294/368/294 
f 295/369/295 276/333/276 277/335/277 
f 277/335/277 296/370/296 295/369/295 
f 296/370/296 277/335/277 278/337/278 
f 278/337/278 297/371/297 296/370/296 
f 297/372/297 278/338/278 279/341/279 
f 279/341/279 298/373/298 297/372/297 
f 298/373/298 279/341/279 280/343/280 
f 280/343/280 299/374/299 298/373/298 
f 299/374/299 280/343/280 281/345/281 
f 281/345/281 300/375/300 299/374/299 
f 300/375/300 281/345/281 282/347/282 
f 282/347/282 301/376/301 300/375/300 
f 301/376/301 282/347/282 283/349/283 
f 283/349/283 302/377/302 301/376/301 
f 302/377/302 283/349/283 284/351/284 
f 284/351/284 303/378/303 302/377/302 
f 303/378/303 284/351/284 285/353/285 
f 285/353/285 304/379/304 303/378/303 
f 304/379/304 285/353/285 286/355/286 
f 286/355/286 305/380/305 304/379/304 
f 305/380/305 286/355/286 287/357/287 
f 287/357/287 306/381/306 305/380/305 
f 306/381/306 287/357/287 288/359/288 
f 288/359/288 307/382/307 306/381/306 
f 307/382/307 288/359/288 289/361/289 
f 289/361/289 308/383/308 307/382/307 
f 308/383/308 289/361/289 290/363/290 
f 290/363/290 309/384/309 308/383/308 
f 309/384/309 290/363/290 291/365/291 
f 291/365/291 310/385/310 309/384/309 
f 310/385/310 291/365/291 273/326/273 
f 273/326/273 292/366/292 310/385/310 
f 266/319/266 292/366/292 293/367/293 
f 293/367/293 267/320/267 266/319/266 
f 267/320/267 293/367/293 294/368/294 
f 294/368/294 311/386/311 267/320/267 
f 311/386/311 294/368/294 295/369/295 
f 295/369/295 312/387/312 311/386/311 
f 312/387/312 295/369/295 296/370/296 
f 296/370/296 313/388/313 312/387/312 
f 313/388/313 296/370/296 297/371/297 
f 297/371/297 314/389/314 313/388/313 
f 314/390/314 297/372/297 298/373/298 
f 298/373/298 315/391/315 314/390/314 
f 315/391/315 298/373/298 299/374/299 
f 299/374/299 316/392/316 315/391/315 
f 316/392/316 299/374/299 300/375/300 
f 300/375/300 317/393/317 316/392/316 
f 317/393/317 300/375/300 301/376/301 
f 301/376/301 318/394/318 317/393/317 
f 318/394/318 301/376/301 302/377/302 
f 302/377/302 319/395/319 318/394/318 
f 319/395/319 302/377/302 303/378/303 
f 303/378/303 320/396/320 319/395/319 
f 320/396/320 303/378/303 304/379/304 
f 304/379/304 321/397/321 320/396/320 
f 321/397/321 304/379/304 305/380/305 
f 305/380/305 322/398/322 321/397/321 
f 322/398/322 305/380/305 306/381/306 
f 306/381/306 323/399/323 322/398/322 
f 323/399/323 306/381/306 307/382/307 
f 307/382/307 324/400/324 323/399/323 
f 324/400/324 307/382/307 308/383/308 
f 308/383/308 325/401/325 324/400/324 
f 325/401/325 308/383/308 309/384/309 
f 309/384/309 326/402/326 325/401/325 
f 326/402/326 309/384/309 310/385/310 
f 310/385/310 327/403/327 326/402/326 
f 327/403/327 310/385/310 292/366/292 
f 292/366/292 266/319/266 327/403/327 
f 268/321/268 267/320/267 311/386/311 
f 311/386/311 328/404/328 268/321/268 
f 328/404/328 311/386/311 312/387/312 
f 312/387/312 329/405/329 328/404/328 
f 329/405/329 312/387/312 313/388/313 
f 313/388/313 330/406/330 329/405/329 
f 330/406/330 313/388/313 314/389/314 
f 314/389/314 331/407/331 330/406/330 
f 331/408/331 314/390/314 315/391/315 
f 315/391/315 332/409/332 331/408/331 
f 332/409/332 315/391/315 316/392/316 
f 316/392/316 333/410/333 332/409/332 
f 333/410/333 316/392/316 317/393/317 
f 317/393/317 334/411/334 333/410/333 
f 334/411/334 317/393/317 318/394/318 
f 318/394/318 335/412/335 334/411/334 
f 335/412/335 318/394/318 319/395/319 
f 319/395/319 336/413/336 335/412/335 
f 336/413/336 319/395/319 320/396/320 
f 320/396/320 337/414/337 336/413/336 
f 337/414/337 320/396/320 321/397/321 
f 321/397/321 338/415/338 337/414/337 
f 338/415/338 321/397/321 322/398/322 
f 322/398/322 339/416/339 338/415/338 
f 339/416/339 322/398/322 323/399/323 
f 323/399/323 340/417/340 339/416/339 
f 340/417/340 323/399/323 324/400/324 
f 324/400/324 341/418/341 340/417/340 
f 341/418/341 324/400/324 325/401/325 
f 325/401/325 342/419/342 341/418/341 
f 342/419/342 325/401/325 326/402/326 
f 326/402/326 343/420/343 342/419/342 
f 343/420/343 326/402/326 327/403/327 
f 327/403/327 344/421/344 343/420/343 
f 344/421/344 327/403/327 266/319/266 
f 266/319/266 265/318/265 344/421/344 
f 345/422/345 265/318/265 268/321/268 
f 268/321/268 346/423/346 345/422/345 
f 346/423/346 268/321/268 328/404/328 
f 328/404/328 347/424/347 346/423/346 
f 347/424/347 328/404/328 329/405/329 
f 329/405/329 348/425/348 347/424/347 
f 348/425/348 329/405/329 330/406/330 
f 330/406/330 349/426/349 348/425/348 
f 349/426/349 330/406/330 331/407/331 
f 331/407/331 350/427/350 349/426/349 
f 350/428/350 331/408/331 332/409/332 
f 332/409/332 351/429/351 350/428/350 
f 351/429/351 332/409/332 333/410/333 
f 333/410/333 352/430/352 351/429/351 
f 352/430/352 333/410/333 334/411/334 
f 334/411/334 353/431/353 352/430/352 
f 353/431/353 334/411/334 335/412/335 
f 335/412/335 354/432/354 353/431/353 
f 354/432/354 335/412/335 336/413/336 
f 336/413/336 355/433/355 354/432/354 
f 355/433/355 336/413/336 337/414/337 
f 337/414/337 356/434/356 355/433/355 
f 356/434/356 337/414/337 338/415/338 
f 338/415/338 357/435/357 356/434/356 
f 357/435/357 338/415/338 339/416/339 
f 339/416/339 358/436/358 357/435/357 
f 358/436/358 339/416/339 340/417/340 
f 340/417/340 359/437/359 358/436/358 
f 359/437/359 340/417/340 341/418/341 
f 341/418/341 360/438/360 359/437/359 
f 360/438/360 341/418/341 342/419/342 
f 342/419/342 361/439/361 360/438/360 
f 361/439/361 342/419/342 343/420/343 
f 343/420/343 362/440/362 361/439/361 
f 362/440/362 343/420/343 344/421/344 
f 344/421/344 363/441/363 362/440/362 
f 363/441/363 344/421/344 265/318/265 
f 265/318/265 345/422/345 363/441/363 
f 364/442/364 345/422/345 346/423/346 
f 346/423/346 365/443/365 364/442/364 
f 365/443/365 346/423/346 347/424/347 
f 347/424/347 366/444/366 365/443/365 
f 366/444/366 347/424/347 348/425/348 
f 348/425/348 367/445/367 366/444/366 
f 367/445/367 348/425/348 349/426/349 
f 349/426/349 368/446/368 367/445/367 
f 368/446/368 349/426/349 350/427/350 
f 350/427/350 369/447/369 368/446/368 
f 369/448/369 350/428/350 351/429/351 
f 351/429/351 370/449/370 369/448/369 
f 370/449/370 351/429/351 352/430/352 
f 352/430/352 371/450/371 370/449/370 
f 371/450/371 352/430/352 353/431/353 
f 353/431/353 372/451/372 371/450/371 
f 372/451/372 353/431/353 354/432/354 
f 354/432/354 373/452/373 372/451/372 
f 373/452/373 354/432/354 355/433/355 
f 355/433/355 374/453/374 373/452/373 
f 374/453/374 355/433/355 356/434/356 
f 356/434/356 375/454/375 374/453/374 
f 375/454/375 356/434/356 357/435/357 
f 357/435/357 376/455/376 375/454/375 
f 376/455/376 357/435/357 358/436/358 
f 358/436/358 377/456/377 376/455/376 
f 377/456/377 358/436/358 359/437/359 
f 359/437/359 378/457/378 377/456/377 
f 378/457/378 359/437/359 360/438/360 
f 360/438/360 379/458/379 378/457/378 
f 379/458/379 360/438/360 361/439/361 
f 361/439/361 380/459/380 379/458/379 
f 380/459/380 361/439/361 362/440/362 
f 362/440/362 381/460/381 380/459/380 
f 381/460/381 362/440/362 363/441/363 
f 363/441/363 382/461/382 381/460/381 
f 382/461/382 363/441/363 345/422/345 
f 345/422/345 364/442/364 382/461/382 
f 383/462/383 364/442/364 365/443/365 
f 365/443/365 384/463/384 383/462/383 
f 384/463/384 365/443/365 366/444/366 
f 366/444/366 385/464/385 384/463/384 
f 385/464/385 366/444/366 367/445/367 
f 367/445/367 386/465/386 385/464/385 
f 386/465/386 367/445/367 368/446/368 
f 368/446/368 387/466/387 386/465/386 
f 387/466/387 368/446/368 369/447/369 
f 369/447/369 388/467/388 387/466/387 
f 388/468/388 369/448/369 370/449/370 
f 370/449/370 389/469/389 388/468/388 
f 389/469/389 370/449/370 371/450/371 
f 371/450/371 390/470/390 389/469/389 
f 390/470/390 371/450/371 372/451/372 
f 372/451/372 391/471/391 390/470/390 
f 391/471/391 372/451/372 373/452/373 
f 373/452/373 392/472/392 391/471/391 
f 392/472/392 373/452/373 374/453/374 
f 374/453/374 393/473/393 392/472/392 
f 393/473/393 374/453/374 375/454/375 
f 375/454/375 394/474/394 393/473/393 
f 394/474/394 375/454/375 376/455/376 
f 376/455/376 395/475/395 394/474/394 
f 395/475/395 376/455/376 377/456/377 
f 377/456/377 396/476/396 395/475/395 
f 396/476/396 377/456/377 378/457/378 
f 378/457/378 397/477/397 396/476/396 
f 397/477/397 378/457/378 379/458/379 
f 379/458/379 398/478/398 397/477/397 
f 398/478/398 379/458/379 380/459/380 
f 380/459/380 399/479/399 398/478/398 
f 399/479/399 380/459/380 381/460/381 
f 381/460/381 400/480/400 399/479/399 
f 400/480/400 381/460/381 382/461/382 
f 382/461/382 401/481/401 400/480/400 
f 401/481/401 382/461/382 364/442/364 
f 364/442/364 383/462/383 401/481/401 
f 402/482/402 383/462/383 384/463/384 
f 384/463/384 403/483/403 402/482/402 
f 403/483/403 384/463/384 385/464/385 
f 385/464/385 404/484/404 403/483/403 
f 404/484/404 385/464/385 386/465/386 
f 386/465/386 405/485/405 404/484/404 
f 405/485/405 386/465/386 387/466/387 
f 387/466/387 406/486/406 405/485/405 
f 406/486/406 387/466/387 388/467/388 
f 388/467/388 407/487/407 406/486/406 
f 407/488/407 388/468/388 389/469/389 
f 389/469/389 408/489/408 407/488/407 
f 408/489/408 389/469/389 390/470/390 
f 390/470/390 409/490/409 408/489/408 
f 409/490/409 390/470/390 391/471/391 
f 391/471/391 410/491/410 409/490/409 
f 410/491/410 391/471/391 392/472/392 
f 392/472/392 411/492/411 410/491/410 
f 411/492/411 392/472/392 393/473/393 
f 393/473/393 412/493/412 411/492/411 
f 412/493/412 393/473/393 394/474/394 
f 394/474/394 413/494/413 412/493/412 
f 413/494/413 394/474/394 395/475/395 
f 395/475/395 414/495/414 413/494/413 
f 414/495/414 395/475/395 396/476/396 
f 396/476/396 415/496/415 414/495/414 
f 415/496/415 396/476/396 397/477/397 
f 397/477/397 416/497/416 415/496/415 
f 416/497/416 397/477/397 398/478/398 
f 398/478/398 417/498/417 416/497/416 
f 417/498/417 398/478/398 399/479/399 
f 399/479/399 418/499/418 417/498/417 
f 418/499/418 399/479/399 400/480/400 
f 400/480/400 419/500/419 418/499/418 
f 419/500/419 400/480/400 401/481/401 
f 401/481/401 420/501/420 419/500/419 
f 420/501/420 401/481/401 383/462/383 
f 383/462/383 402/482/402 420/501/420 
f 270/323/270 402/482/402 403/483/403 
f 403/483/403 271/324/271 270/323/270 
f 271/324/271 403/483/403 404/484/404 
f 404/484/404 421/502/421 271/324/271 
f 421/502/421 404/484/404 405/485/405 
f 405/485/405 422/503/422 421/502/421 
f 422/503/422 405/485/405 406/486/406 
f 406/486/406 423/504/423 422/503/422 
f 423/504/423 406/486/406 407/487/407 
f 407/487/407 424/505/424 423/504/423 
f 424/506/424 407/488/407 408/489/408 
f 408/489/408 425/507/425 424/506/424 
f 425/507/425 408/489/408 409/490/409 
f 409/490/409 426/508/426 425/507/425 
f 426/508/426 409/490/409 410/491/410 
f 410/491/410 427/509/427 426/508/426 
f 427/509/427 410/491/410 411/492/411 
f 411/492/411 428/510/428 427/509/427 
f 428/510/428 411/492/411 412/493/412 
f 412/493/412 429/511/429 428/510/428 
f 429/511/429 412/493/412 413/494/413 
f 413/494/413 430/512/430 429/511/429 
f 430/512/430 413/494/413 414/495/414 
f 414/495/414 431/513/431 430/512/430 
f 431/513/431 414/495/414 415/496/415 
f 415/496/415 432/514/432 431/513/431 
f 432/514/432 415/496/415 416/497/416 
f 416/497/416 433/515/433 432/514/432 
f 433/515/433 416/497/416 417/498/417 
f 417/498/417 434/516/434 433/515/433 
f 434/516/434 417/498/417 418/499/418 
f 418/499/418 435/517/435 434/516/434 
f 435/517/435 418/499/418 419/500/419 
f 419/500/419 436/518/436 435/517/435 
f 436/518/436 419/500/419 420/501/420 
f 420/501/420 437/519/437 436/518/436 
f 437/519/437 420/501/420 402/482/402 
f 402/482/402 270/323/270 437/519/437 
f 272/325/272 271/324/271 421/502/421 
f 421/502/421 438/520/438 272/325/272 
f 438/520/438 421/502/421 422/503/422 
f 422/503/422 439/521/439 438/520/438 
f 439/521/439 422/503/422 423/504/423 
f 423/504/423 440/522/440 439/521/439 
f 440/522/440 423/504/423 424/505/424 
f 424/505/424 441/523/441 440/522/440 
f 441/524/441 424/506/424 425/507/425 
f 425/507/425 442/525/442 441/524/441 
f 442/525/442 425/507/425 426/508/426 
f 426/508/426 443/526/443 442/525/442 
f 443/526/443 426/508/426 427/509/427 
f 427/509/427 444/527/444 443/526/443 
f 444/527/444 427/509/427 428/510/428 
f 428/510/428 445/528/445 444/527/444 
f 445/528/445 428/510/428 429/511/429 
f 429/511/429 446/529/446 445/528/445 
f 446/529/446 429/511/429 430/512/430 
f 430/512/430 447/530/447 446/529/446 
f 447/530/447 430/512/430 431/513/431 
f 431/513/431 448/531/448 447/530/447 
f 448/531/448 431/513/431 432/514/432 
f 432/514/432 449/532/449 448/531/448 
f 449/532/449 432/514/432 433/515/433 
f 433/515/433 450/533/450 449/532/449 
f 450/533/450 433/515/433 434/516/434 
f 434/516/434 451/534/451 450/533/450 
f 451/534/451 434/516/434 435/517/435 
f 435/517/435 452/535/452 451/534/451 
f 452/535/452 435/517/435 436/518/436 
f 436/518/436 453/536/453 452/535/452 
f 453/536/453 436/518/436 437/519/437 
f 437/519/437 454/537/454 453/536/453 
f 454/537/454 437/519/437 270/323/270 
f 270/323/270 269/322/269 454/537/454 
f 455/538/455 269/322/269 272/325/272 
f 272/325/272 456/539/456 455/538/455 
f 456/539/456 272/325/272 438/520/438 
f 438/520/438 457/540/457 456/539/456 
f 457/540/457 438/520/438 439/521/439 
f 439/521/439 458/541/458 457/540/457 
f 458/541/458 439/521/439 440/522/440 
f 440/522/440 459/542/459 458/541/458 
f 459/542/459 440/522/440 441/523/441 
f 441/523/441 460/543/460 459/542/459 
f 460/544/460 441/524/441 442/525/442 
f 442/525/442 461/545/461 460/544/460 
f 461/545/461 442/525/442 443/526/443 
f 443/526/443 462/546/462 461/545/461 
f 462/546/462 443/526/443 444/527/444 
f 444/527/444 463/547/463 462/546/462 
f 463/547/463 444/527/444 445/528/445 
f 445/528/445 464/548/464 463/547/463 
f 464/548/464 445/528/445 446/529/446 
f 446/529/446 465/549/465 464/548/464 
f 465/549/465 446/529/446 447/530/447 
f 447/530/447 466/550/466 465/549/465 
f 466/550/466 447/530/447 448/531/448 
f 448/531/448 467/551/467 466/550/466 
f 467/551/467 448/531/448 449/532/449 
f 449/532/449 468/552/468 467/551/467 
f 468/552/468 449/532/449 450/533/450 
f 450/533/450 469/553/469 468/552/468 
f 469/553/469 450/533/450 451/534/451 
f 451/534/451 470/554/470 469/553/469 
f 470/554/470 451/534/451 452/535/452 
f 452/535/452 471/555/471 470/554/470 
f 471/555/471 452/535/452 453/536/453 
f 453/536/453 472/556/472 471/555/471 
f 472/556/472 453/536/453 454/537/454 
f 454/537/454 473/557/473 472/556/472 
f 473/557/473 454/537/454 269/322/269 
f 269/322/269 455/538/455 473/557/473 
f 474/558/474 455/538/455 456/539/456 
f 456/539/456 475/559/475 474/558/474 
f 475/559/475 456/539/456 457/540/457 
f 457/540/457 476/560/476 475/559/475 
f 476/560/476 457/540/457 458/541/458 
f 458/541/458 477/561/477 476/560/476 
f 477/561/477 458/541/458 459/542/459 
f 459/542/459 478/562/478 477/561/477 
f 478/562/478 459/542/459 460/543/460 
f 460/543/460 479/563/479 478/562/478 
f 479/564/479 460/544/460 461/545/461 
f 461/545/461 480/565/480 479/564/479 
f 480/565/480 461/545/461 462/546/462 
f 462/546/462 481/566/481 480/565/480 
f 481/566/481 462/546/462 463/547/463 
f 463/547/463 482/567/482 481/566/481 
f 482/567/482 463/547/463 464/548/464 
f 464/548/464 483/568/483 482/567/482 
f 483/568/483 464/548/464 465/549/465 
f 465/549/465 484/569/484 483/568/483 
f 484/569/484 465/549/465 466/550/466 
f 466/550/466 485/570/485 484/569/484 
f 485/570/485 466/550/466 467/551/467 
f 467/551/467 486/571/486 485/570/485 
f 486/571/486 467/551/467 468/552/468 
f 468/552/468 487/572/487 486/571/486 
f 487/572/487 468/552/468 469/553/469 
f 469/553/469 488/573/488 487/572/487 
f 488/573/488 469/553/469 470/554/470 
f 470/554/470 489/574/489 488/573/488 
f 489/574/489 470/554/470 471/555/471 
f 471/555/471 490/575/490 489/574/489 
f 490/575/490 471/555/471 472/556/472 
f 472/556/472 491/576/491 490/575/490 
f 491/576/491 472/556/472 473/557/473 
f 473/557/473 492/577/492 491/576/491 
f 492/577/492 473/557/473 455/538/455 
f 455/538/455 474/558/474 492/577/492 
f 35/37/35 474/558/474 475/559/475 
f 475/559/475 493/578/493 35/37/35 
f 493/578/493 475/559/475 476/560/476 
f 476/560/476 2/2/2 493/578/493 
f 2/2/2 476/560/476 477/561/477 
f 477/561/477 3/3/3 2/2/2 
f 3/3/3 477/561/477 478/562/478 
f 478/562/478 5/5/5 3/3/3 
f 5/5/5 478/562/478 479/563/479 
f 479/563/479 7/7/7 5/5/5 
f 7/10/7 479/564/479 480/565/480 
f 480/565/480 9/11/9 7/10/7 
f 9/11/9 480/565/480 481/566/481 
f 481/566/481 11/13/11 9/11/9 
f 11/13/11 481/566/481 482/567/482 
f 482/567/482 13/15/13 11/13/11 
f 13/15/13 482/567/482 483/568/483 
f 483/568/483 15/17/15 13/15/13 
f 15/17/15 483/568/483 484/569/484 
f 484/569/484 17/19/17 15/17/15 
f 17/19/17 484/569/484 485/570/485 
f 485/570/485 19/21/19 17/19/17 
f 19/21/19 485/570/485 486/571/486 
f 486/571/486 21/23/21 19/21/19 
f 21/23/21 486/571/486 487/572/487 
f 487/572/487 23/25/23 21/23/21 
f 23/25/23 487/572/487 488/573/488 
f 488/573/488 25/27/25 23/25/23 
f 25/27/25 488/573/488 489/574/489 
f 489/574/489 27/29/27 25/27/25 
f 27/29/27 489/574/489 490/575/490 
f 490/575/490 29/31/29 27/29/27 
f 29/31/29 490/575/490 491/576/491 
f 491/576/491 31/33/31 29/31/29 
f 31/33/31 491/576/491 492/577/492 
f 492/577/492 33/35/33 31/33/31 
f 33/35/33 492/577/492 474/558/474 
f 474/558/474 35/37/35 33/35/33 
f 36/38/36 35/37/35 493/578/493 
f 493/578/493 494/579/494 36/38/36 
f 494/579/494 493/578/493 2/2/2 
f 2/2/2 1/1/1 494/579/494 
f 22/580/22 24/581/24 32/582/32 
f 14/583/14 18/584/18 32/582/32 
f 6/585/6 10/586/10 34/587/34 
f 4/588/4 6/585/6 34/587/34 
f 36/589/36 494/590/494 34/587/34 
f 24/581/24 26/591/26 28/592/28 
f 494/590/494 4/588/4 34/587/34 
f 14/583/14 32/582/32 34/587/34 
f 10/586/10 14/583/14 34/587/34 
f 28/592/28 30/593/30 32/582/32 
f 24/581/24 28/592/28 32/582/32 
f 18/584/18 22/580/22 32/582/32 
f 18/584/18 20/594/20 22/580/22 
f 14/583/14 16/595/16 18/584/18 
f 10/586/10 12/596/12 14/583/14 
f 6/585/6 8/597/8 10/586/10 
f 494/590/494 1/598/1 4/588/4 
# 984 faces

