# 3ds Max Wavefront OBJ Exporter v0.97b - (c)2007 guruware
# File Created: 16.12.2018 21:05:16

mtllib Pillar_3.mtl

#
# object Pillar_3
#

v  -110.0945 3.2980 113.5388
v  -111.5466 -0.7746 111.9971
v  111.5466 -0.7746 111.9971
v  110.0945 3.2980 113.5388
v  -110.0945 20.8404 113.5388
v  110.0945 20.8404 113.5388
v  -110.0945 24.9129 109.4661
v  110.0945 24.9129 109.4661
v  114.1670 3.2980 109.4661
v  114.1670 20.8404 109.4661
v  111.5466 -0.7746 -111.9971
v  114.1670 3.2980 -109.4661
v  114.1670 20.8404 -109.4661
v  110.0945 24.9129 -109.4661
v  110.0945 3.2980 -113.5388
v  110.0945 20.8404 -113.5388
v  -111.5466 -0.7746 -111.9971
v  -110.0945 3.2980 -113.5388
v  -110.0945 20.8404 -113.5388
v  -110.0945 24.9129 -109.4661
v  -114.1670 3.2980 -109.4661
v  -114.1670 20.8404 -109.4661
v  -114.1670 3.2980 109.4661
v  -114.1670 20.8404 109.4661
v  -89.4994 299.3836 -89.1943
v  -89.4994 299.3836 89.1943
v  89.4994 299.3836 89.1943
v  89.4994 299.5516 -89.1943
v  -103.7885 24.9129 103.1602
v  103.7885 24.9129 103.1602
v  103.7885 25.2616 -103.1602
v  -103.7885 24.9129 -103.1602
v  -99.8195 29.6850 99.5405
v  99.8195 29.6850 99.5405
v  99.8195 29.6850 -99.5405
v  -99.8195 29.6850 -99.5405
v  -93.7305 33.0596 93.4685
v  93.7305 33.0596 93.4685
v  93.7305 33.0596 -93.4685
v  -93.7305 33.0596 -93.4685
v  -91.0123 38.2237 90.7580
v  91.0123 38.2237 90.7580
v  91.5178 38.1076 -91.0051
v  -91.0123 38.2237 -91.7912
v  90.4628 54.6214 91.3593
v  76.5673 53.3071 91.9122
v  92.3561 53.4838 77.3256
v  -89.8259 54.6214 -91.1384
v  -76.1966 53.9082 -91.9710
v  -91.5055 234.4519 -76.8233
v  -91.0123 246.0709 -90.7580
v  -91.0798 233.2179 -90.1911
v  -93.5006 248.1120 93.2463
v  -91.0123 246.0709 90.7580
v  91.0123 246.0709 90.7580
v  93.5006 248.1120 93.2463
v  91.0123 246.0709 -90.7580
v  93.5006 248.1120 -93.2463
v  -93.5006 248.1120 -93.2463
v  -96.8666 253.2173 96.6031
v  96.8666 253.2173 96.6031
v  96.8666 253.2173 -96.6031
v  -96.8666 253.2173 -96.6031
v  -103.0661 257.2565 102.7857
v  103.0661 257.2565 102.7857
v  103.0661 257.2565 -102.7857
v  -103.0661 257.2565 -102.7857
v  -108.0822 261.3810 107.7882
v  108.0822 261.3810 107.7882
v  108.0822 261.3810 -107.7882
v  -108.0822 261.3810 -107.7882
v  -109.7036 263.9204 109.4051
v  109.7036 263.9204 109.4051
v  109.7036 263.9204 -109.4051
v  -109.7036 263.9204 -109.4051
v  -110.6852 266.2553 110.3841
v  110.6852 266.2553 110.3841
v  110.6852 266.2553 -110.3841
v  -110.6852 266.2553 -110.3841
v  -112.3454 267.1757 112.0398
v  112.3454 267.1757 112.0398
v  112.3454 267.1757 -112.0398
v  -112.3454 267.1757 -112.0398
v  -113.5812 269.4424 113.2722
v  113.5812 269.4424 113.2722
v  113.5812 269.4424 -113.2722
v  -113.5812 269.4424 -113.2722
v  -113.5812 272.7318 113.2722
v  113.5812 272.7318 113.2722
v  113.5812 272.7318 -113.2722
v  -113.5812 272.7318 -113.2722
v  -112.5390 274.9985 112.2266
v  112.5390 274.9985 112.2266
v  112.5390 274.9985 -112.2266
v  -112.4305 274.9985 -112.3313
v  -110.4598 277.0778 110.1474
v  110.4598 277.0778 110.1474
v  110.4598 277.0778 -110.1474
v  -110.5378 277.2419 -110.3389
v  -94.1472 277.3980 93.8396
v  94.1472 277.3980 93.8396
v  94.1472 277.3980 -93.8396
v  -94.1472 277.3980 -93.8396
v  -89.1772 295.5829 92.9949
v  -91.7088 295.8710 90.6682
v  91.7598 295.5829 -90.8379
v  93.5246 295.8532 -87.8775
v  -91.0031 295.5829 -91.3669
v  -87.8206 295.5829 -93.3561
v  -93.5652 295.8193 88.0706
v  87.2577 295.5829 92.9949
v  91.1278 295.5829 90.9882
v  -93.3000 295.5829 -89.2897
v  89.2901 295.5829 -93.2703
v  93.3000 295.5829 88.5587
v  77.3770 233.0211 91.6850
v  89.5449 233.2179 90.9419
v  92.3612 233.2179 -77.9161
v  90.8141 233.2179 -89.5566
v  79.7338 233.6571 -92.5896
v  -91.0123 54.6214 -76.8981
v  -77.1827 231.7662 91.8104
v  -90.4580 233.2179 89.9299
v  -90.9482 54.6214 90.2095
v  -77.7649 54.6214 92.3599
v  91.9948 233.2179 79.5246
v  90.4660 54.6214 -90.1879
v  75.6364 54.3438 -91.2638
v  -91.5232 54.6214 78.6321
v  91.8268 54.2059 -76.9177
v  -92.4937 234.1412 77.4249
v  -78.9116 230.2512 72.5483
v  -78.8758 230.4561 -71.6768
v  -78.9116 56.5860 -72.6366
v  -78.9116 56.5860 72.6455
v  78.7412 229.4930 -69.7758
v  78.7412 229.2019 71.3795
v  78.8644 57.7577 71.1786
v  78.8531 57.4501 -70.4854
v  -75.4784 233.1958 -91.9476
v  72.4386 229.6540 78.6525
v  -73.0146 228.9031 78.8107
v  -72.5252 56.3409 78.8548
v  72.2581 56.1954 79.4761
v  -72.6434 230.6839 -79.5942
v  71.2902 230.6815 -79.3321
v  71.8131 56.6450 -79.3392
v  -71.2870 55.8112 -79.7285
v  71.8046 56.4747 -89.0561
v  73.7064 230.6553 -89.2336
v  -72.0316 56.0493 -89.2754
v  -71.9874 231.0681 -89.3642
v  89.9916 230.3318 73.3310
v  88.3411 56.1395 72.9548
v  89.0240 56.8911 -72.4566
v  88.7251 230.8165 -72.2964
v  -72.8611 229.2823 87.5852
v  -73.3351 56.8878 88.9100
v  72.3783 55.7782 89.1489
v  72.7399 231.0185 89.0191
v  -88.2847 56.5860 -72.6366
v  -88.8868 230.8891 -71.8969
v  -89.6434 57.3673 73.6890
v  -88.9037 231.2535 73.0777
# 164 vertices

vn -0.3365 -0.1228 0.9336
vn -0.4716 -0.6981 0.5387
vn 0.4716 -0.6981 0.5387
vn 0.3365 -0.1228 0.9336
vn -0.3416 0.3416 0.8756
vn 0.3416 0.3416 0.8756
vn -0.3416 0.8756 0.3416
vn 0.3416 0.8756 0.3416
vn 0.9258 -0.2080 0.3156
vn 0.8756 0.3416 0.3416
vn 0.4716 -0.6981 -0.5387
vn 0.9258 -0.2080 -0.3156
vn 0.8756 0.3416 -0.3416
vn 0.3482 0.8704 -0.3480
vn 0.3365 -0.1228 -0.9336
vn 0.3416 0.3416 -0.8756
vn -0.4716 -0.6981 -0.5387
vn -0.3365 -0.1228 -0.9336
vn -0.3416 0.3416 -0.8756
vn -0.3418 0.8755 -0.3416
vn -0.9258 -0.2080 -0.3156
vn -0.8756 0.3416 -0.3416
vn -0.9258 -0.2080 0.3156
vn -0.8756 0.3416 0.3416
vn -0.3505 0.8717 -0.3425
vn -0.3272 0.8768 0.3523
vn 0.3580 0.8566 0.3715
vn 0.3419 0.8735 -0.3465
vn -0.1319 0.9828 0.1292
vn 0.1319 0.9828 0.1294
vn 0.1463 0.9789 -0.1423
vn -0.1325 0.9828 -0.1282
vn -0.3995 0.8149 0.4200
vn 0.3990 0.8150 0.4202
vn 0.3847 0.8287 -0.4065
vn -0.3995 0.8149 -0.4200
vn -0.3597 0.8608 0.3602
vn 0.3597 0.8608 0.3602
vn 0.3689 0.8515 -0.3727
vn -0.3841 0.8459 -0.3700
vn -0.6681 0.3475 0.6579
vn 0.6659 0.3372 0.6655
vn 0.6739 0.3377 -0.6571
vn -0.6410 0.3124 -0.7011
vn 0.6664 -0.0019 0.7456
vn -0.0834 0.0546 0.9950
vn 0.9936 0.0836 -0.0766
vn -0.6932 0.0390 -0.7197
vn 0.0801 0.0880 -0.9929
vn -0.9965 -0.0537 0.0640
vn -0.5567 -0.6206 -0.5522
vn -0.7404 -0.0137 -0.6721
vn -0.4684 -0.7488 0.4689
vn -0.5523 -0.6191 0.5584
vn 0.5548 -0.6215 0.5530
vn 0.4684 -0.7488 0.4689
vn 0.5629 -0.6093 -0.5585
vn 0.4684 -0.7488 -0.4689
vn -0.4684 -0.7488 -0.4689
vn -0.3662 -0.8552 0.3667
vn 0.3662 -0.8552 0.3667
vn 0.3662 -0.8552 -0.3667
vn -0.3662 -0.8552 -0.3667
vn -0.3386 -0.8776 0.3392
vn 0.3386 -0.8776 0.3392
vn 0.3386 -0.8776 -0.3392
vn -0.3386 -0.8776 -0.3392
vn -0.4741 -0.7417 0.4745
vn 0.4741 -0.7417 0.4745
vn 0.4741 -0.7417 -0.4745
vn -0.4741 -0.7417 -0.4745
vn -0.5798 -0.5721 0.5801
vn 0.5798 -0.5721 0.5801
vn 0.5798 -0.5721 -0.5801
vn -0.5798 -0.5721 -0.5801
vn -0.3793 -0.8438 0.3797
vn 0.3793 -0.8438 0.3797
vn 0.3793 -0.8438 -0.3797
vn -0.3793 -0.8438 -0.3797
vn -0.4739 -0.7419 0.4743
vn 0.4739 -0.7419 0.4743
vn 0.4739 -0.7419 -0.4743
vn -0.4739 -0.7419 -0.4743
vn -0.6779 -0.2849 0.6777
vn 0.6779 -0.2849 0.6777
vn 0.6779 -0.2849 -0.6777
vn -0.6779 -0.2849 -0.6777
vn -0.6837 0.2548 0.6838
vn 0.6837 0.2547 0.6839
vn 0.6837 0.2547 -0.6839
vn -0.6886 0.2555 -0.6787
vn -0.5364 0.6522 0.5357
vn 0.5362 0.6523 0.5357
vn 0.5363 0.6523 -0.5357
vn -0.5305 0.6339 -0.5629
vn -0.3023 0.9038 0.3029
vn 0.3026 0.9038 0.3026
vn 0.3029 0.9037 -0.3025
vn -0.3352 0.8847 -0.3239
vn -0.2915 0.9103 0.2939
vn 0.2897 0.9121 0.2902
vn 0.2954 0.9091 -0.2939
vn -0.2915 0.9122 -0.2880
vn -0.2724 0.3959 0.8770
vn -0.6760 0.4132 0.6101
vn 0.7182 0.3862 -0.5788
vn 0.8891 0.4099 -0.2036
vn -0.5525 0.3930 -0.7350
vn -0.1964 0.4041 -0.8934
vn -0.8823 0.4150 0.2219
vn 0.1628 0.3927 0.9051
vn 0.5675 0.3771 0.7320
vn -0.8563 0.4013 -0.3251
vn 0.2975 0.3981 -0.8677
vn 0.8762 0.3968 0.2738
vn -0.0746 -0.0518 0.9959
vn 0.6367 -0.0277 0.7706
vn 0.9968 -0.0544 0.0580
vn 0.7582 -0.0405 -0.6507
vn 0.0114 -0.0373 -0.9992
vn -0.9927 0.0956 0.0731
vn 0.0823 -0.1009 0.9915
vn -0.7041 -0.0400 0.7090
vn -0.7485 0.0146 0.6630
vn 0.0568 0.0736 0.9957
vn 0.9991 -0.0332 0.0245
vn 0.6938 0.0404 -0.7190
vn -0.0610 0.0835 -0.9946
vn -0.9982 0.0417 -0.0436
vn 0.9947 0.0851 0.0571
vn -0.9965 -0.0604 -0.0577
vn -0.6172 -0.5490 -0.5637
vn -0.5947 -0.5662 0.5707
vn -0.5770 0.5759 0.5791
vn -0.5814 0.6043 -0.5448
vn 0.6738 -0.5475 0.4962
vn 0.6478 -0.5517 -0.5253
vn 0.6683 0.5313 -0.5206
vn 0.6394 0.5701 0.5159
vn 0.0672 -0.0647 -0.9956
vn -0.5729 -0.5379 0.6184
vn 0.5859 -0.5619 0.5839
vn 0.5498 0.5977 0.5835
vn -0.5765 0.5663 0.5890
vn 0.6035 -0.5596 -0.5680
vn -0.5016 -0.5885 -0.6341
vn -0.5804 0.5691 -0.5825
vn 0.5513 0.5910 -0.5889
vn -0.4676 0.6128 -0.6370
vn -0.4529 -0.5733 -0.6828
vn 0.4908 0.6290 -0.6029
vn 0.5059 -0.6423 -0.5757
vn 0.7845 -0.4984 -0.3689
vn 0.6027 0.6145 -0.5090
vn 0.6838 0.5608 0.4668
vn 0.6434 -0.6211 0.4474
vn 0.5514 -0.6727 0.4934
vn 0.5306 0.6490 0.5452
vn -0.4814 0.6195 0.6200
vn -0.4334 -0.6500 0.6242
vn -0.5708 0.6616 0.4863
vn -0.7094 -0.5378 0.4556
vn -0.7385 0.5147 -0.4355
vn -0.6036 -0.6108 -0.5124
# 164 vertex normals

vt 0.0161 0.9900 0.0000
vt 0.0155 0.9854 0.0000
vt 0.2697 0.9854 0.0000
vt 0.2691 0.9900 0.0000
vt 0.0165 0.4455 0.0000
vt 0.0165 0.4255 0.0000
vt 0.2668 0.4255 0.0000
vt 0.2668 0.4454 0.0000
vt 0.0165 0.4520 0.0000
vt 0.2668 0.4520 0.0000
vt 0.2749 0.9837 0.0000
vt 0.7993 0.1914 0.0000
vt 0.8192 0.1914 0.0000
vt 0.8192 0.1980 0.0000
vt 0.7993 0.1980 0.0000
vt 0.2724 0.4487 0.0000
vt 0.2694 0.7303 0.0000
vt 0.2745 0.7320 0.0000
vt 0.8192 0.4467 0.0000
vt 0.7992 0.4467 0.0000
vt 0.7927 0.1980 0.0000
vt 0.7927 0.4467 0.0000
vt 0.2688 0.7257 0.0000
vt 0.5036 0.4569 0.0000
vt 0.5036 0.4369 0.0000
vt 0.5101 0.4369 0.0000
vt 0.5101 0.4569 0.0000
vt 0.7960 0.4524 0.0000
vt 0.0151 0.7303 0.0000
vt 0.0158 0.7257 0.0000
vt 0.7603 0.4370 0.0000
vt 0.7603 0.4569 0.0000
vt 0.5101 0.4634 0.0000
vt 0.7603 0.4635 0.0000
vt 0.0100 0.7320 0.0000
vt 0.3059 0.1804 0.0000
vt 0.3258 0.1804 0.0000
vt 0.3258 0.1869 0.0000
vt 0.3059 0.1869 0.0000
vt 0.7659 0.4602 0.0000
vt 0.0103 0.9837 0.0000
vt 0.3258 0.4357 0.0000
vt 0.3059 0.4357 0.0000
vt 0.2993 0.1869 0.0000
vt 0.2993 0.4357 0.0000
vt 0.0100 0.4454 0.0000
vt 0.0100 0.4255 0.0000
vt 0.3026 0.4413 0.0000
vt 0.4959 0.7085 0.0000
vt 0.2920 0.7080 0.0000
vt 0.2917 0.5033 0.0000
vt 0.4957 0.5039 0.0000
vt 0.0237 0.4592 0.0000
vt 0.2596 0.4591 0.0000
vt 0.7856 0.2051 0.0000
vt 0.7855 0.4395 0.0000
vt 0.5173 0.4706 0.0000
vt 0.7531 0.4706 0.0000
vt 0.2922 0.1941 0.0000
vt 0.2922 0.4285 0.0000
vt 0.0282 0.4660 0.0000
vt 0.2551 0.4659 0.0000
vt 0.7785 0.2092 0.0000
vt 0.7788 0.4354 0.0000
vt 0.5218 0.4771 0.0000
vt 0.7486 0.4774 0.0000
vt 0.2851 0.1982 0.0000
vt 0.2851 0.4244 0.0000
vt 0.0351 0.4738 0.0000
vt 0.2482 0.4738 0.0000
vt 0.7706 0.2161 0.0000
vt 0.7708 0.4285 0.0000
vt 0.5287 0.4850 0.0000
vt 0.7417 0.4853 0.0000
vt 0.2772 0.2051 0.0000
vt 0.2772 0.4175 0.0000
vt 0.0382 0.4805 0.0000
vt 0.2451 0.4805 0.0000
vt 0.7640 0.2192 0.0000
vt 0.7646 0.4258 0.0000
vt 0.5312 0.4914 0.0000
vt 0.7386 0.4915 0.0000
vt 0.2706 0.4144 0.0000
vt 0.2705 0.2070 0.0000
vt 0.2445 0.4991 0.0000
vt 0.2287 0.4977 0.0000
vt 0.7466 0.2345 0.0000
vt 0.7454 0.2184 0.0000
vt 0.7373 0.5102 0.0000
vt 0.7218 0.5093 0.0000
vt 0.0475 0.2242 0.0000
vt 0.0342 0.2084 0.0000
vt 0.0489 0.2090 0.0000
vt 0.0328 0.1528 0.0000
vt 0.0356 0.1491 0.0000
vt 0.2425 0.1491 0.0000
vt 0.2453 0.1528 0.0000
vt 0.8796 0.2577 0.0000
vt 0.8759 0.2549 0.0000
vt 0.8759 0.0487 0.0000
vt 0.8796 0.0458 0.0000
vt 0.9772 0.2876 0.0000
vt 0.9809 0.2904 0.0000
vt 0.9809 0.4972 0.0000
vt 0.9772 0.5001 0.0000
vt 0.8311 0.5001 0.0000
vt 0.8275 0.4973 0.0000
vt 0.8275 0.2910 0.0000
vt 0.8312 0.2882 0.0000
vt 0.0290 0.1597 0.0000
vt 0.2491 0.1597 0.0000
vt 0.8866 0.2616 0.0000
vt 0.8866 0.0420 0.0000
vt 0.9703 0.2838 0.0000
vt 0.9703 0.5039 0.0000
vt 0.8381 0.5039 0.0000
vt 0.8381 0.2844 0.0000
vt 0.0219 0.1681 0.0000
vt 0.2562 0.1681 0.0000
vt 0.8950 0.2686 0.0000
vt 0.8950 0.0350 0.0000
vt 0.9619 0.2767 0.0000
vt 0.9619 0.5109 0.0000
vt 0.8465 0.5110 0.0000
vt 0.8465 0.2774 0.0000
vt 0.0162 0.1755 0.0000
vt 0.2619 0.1755 0.0000
vt 0.9023 0.2743 0.0000
vt 0.9023 0.0293 0.0000
vt 0.9545 0.2710 0.0000
vt 0.9546 0.5166 0.0000
vt 0.8539 0.5166 0.0000
vt 0.8539 0.2717 0.0000
vt 0.0144 0.1789 0.0000
vt 0.2637 0.1789 0.0000
vt 0.9058 0.2761 0.0000
vt 0.9058 0.0275 0.0000
vt 0.9511 0.2692 0.0000
vt 0.9511 0.5185 0.0000
vt 0.8573 0.5185 0.0000
vt 0.8573 0.2699 0.0000
vt 0.0133 0.1818 0.0000
vt 0.2648 0.1818 0.0000
vt 0.9086 0.2772 0.0000
vt 0.9086 0.0264 0.0000
vt 0.9482 0.2681 0.0000
vt 0.9483 0.5196 0.0000
vt 0.8602 0.5196 0.0000
vt 0.8602 0.2687 0.0000
vt 0.0114 0.1839 0.0000
vt 0.2667 0.1839 0.0000
vt 0.9108 0.2791 0.0000
vt 0.9108 0.0245 0.0000
vt 0.9461 0.2662 0.0000
vt 0.9461 0.5215 0.0000
vt 0.8623 0.5215 0.0000
vt 0.8624 0.2669 0.0000
vt 0.0100 0.1869 0.0000
vt 0.2681 0.1869 0.0000
vt 0.9137 0.2805 0.0000
vt 0.9137 0.0231 0.0000
vt 0.9431 0.2648 0.0000
vt 0.9432 0.5229 0.0000
vt 0.8652 0.5229 0.0000
vt 0.8653 0.2655 0.0000
vt 0.0100 0.1906 0.0000
vt 0.2681 0.1906 0.0000
vt 0.9175 0.2805 0.0000
vt 0.9175 0.0231 0.0000
vt 0.9394 0.2648 0.0000
vt 0.9394 0.5229 0.0000
vt 0.8690 0.5229 0.0000
vt 0.8690 0.2655 0.0000
vt 0.0112 0.1934 0.0000
vt 0.2669 0.1934 0.0000
vt 0.9203 0.2793 0.0000
vt 0.9203 0.0243 0.0000
vt 0.9366 0.2660 0.0000
vt 0.9366 0.5216 0.0000
vt 0.8719 0.5218 0.0000
vt 0.8719 0.2667 0.0000
vt 0.0135 0.1968 0.0000
vt 0.2646 0.1968 0.0000
vt 0.9236 0.2769 0.0000
vt 0.9236 0.0266 0.0000
vt 0.9332 0.2683 0.0000
vt 0.9332 0.5194 0.0000
vt 0.8752 0.5195 0.0000
vt 0.8752 0.2690 0.0000
vt 0.5310 0.7580 0.0000
vt 0.5125 0.7395 0.0000
vt 0.7635 0.7395 0.0000
vt 0.7450 0.7580 0.0000
vt 0.7635 0.9898 0.0000
vt 0.7450 0.9712 0.0000
vt 0.5124 0.9900 0.0000
vt 0.5310 0.9713 0.0000
vt 0.2860 0.7070 0.0000
vt 0.2876 0.7106 0.0000
vt 0.2661 0.7148 0.0000
vt 0.5023 0.4776 0.0000
vt 0.4975 0.4985 0.0000
vt 0.4936 0.4979 0.0000
vt 0.5221 0.7148 0.0000
vt 0.5011 0.7101 0.0000
vt 0.5021 0.7059 0.0000
vt 0.2854 0.7342 0.0000
vt 0.2905 0.7129 0.0000
vt 0.2940 0.7140 0.0000
vt 0.2858 0.5064 0.0000
vt 0.2868 0.5015 0.0000
vt 0.2656 0.4973 0.0000
vt 0.4986 0.7133 0.0000
vt 0.4953 0.7146 0.0000
vt 0.5030 0.7344 0.0000
vt 0.5021 0.5049 0.0000
vt 0.5008 0.5012 0.0000
vt 0.5219 0.4969 0.0000
vt 0.2931 0.4973 0.0000
vt 0.2895 0.4985 0.0000
vt 0.2850 0.4774 0.0000
vt 0.2294 0.7019 0.0000
vt 0.2433 0.7021 0.0000
vt 0.2449 0.7168 0.0000
vt 0.5428 0.4106 0.0000
vt 0.5428 0.4239 0.0000
vt 0.5281 0.4252 0.0000
vt 0.5319 0.7278 0.0000
vt 0.5317 0.7131 0.0000
vt 0.5447 0.7136 0.0000
vt 0.2518 0.2077 0.0000
vt 0.2519 0.2239 0.0000
vt 0.0537 0.7004 0.0000
vt 0.0385 0.7020 0.0000
vt 0.0381 0.4991 0.0000
vt 0.0533 0.4991 0.0000
vt 0.5425 0.2317 0.0000
vt 0.5425 0.2184 0.0000
vt 0.5323 0.5102 0.0000
vt 0.5492 0.5099 0.0000
vt 0.2520 0.4006 0.0000
vt 0.2520 0.4138 0.0000
vt 0.7462 0.4098 0.0000
vt 0.0481 0.3994 0.0000
vt 0.0491 0.4138 0.0000
vt 0.0345 0.4146 0.0000
vt 0.5278 0.2189 0.0000
vt 0.4648 0.9732 0.0000
vt 0.3009 0.9736 0.0000
vt 0.2996 0.7760 0.0000
vt 0.4647 0.7758 0.0000
vt 0.7457 0.4250 0.0000
vt 0.7648 0.7107 0.0000
vt 0.7650 0.5503 0.0000
vt 0.9598 0.5505 0.0000
vt 0.9602 0.7114 0.0000
vt 0.0380 0.7167 0.0000
vt 0.7210 0.7130 0.0000
vt 0.7387 0.7277 0.0000
vt 0.3496 0.1921 0.0000
vt 0.3508 0.0269 0.0000
vt 0.5469 0.0278 0.0000
vt 0.5467 0.1923 0.0000
vt 0.7388 0.7131 0.0000
vt 0.9553 0.9746 0.0000
vt 0.7918 0.9737 0.0000
vt 0.7923 0.7759 0.0000
vt 0.9549 0.7759 0.0000
vt 0.7762 0.7733 0.0000
vt 0.7812 0.7757 0.0000
vt 0.7802 0.9736 0.0000
vt 0.7724 0.9771 0.0000
vt 0.7923 0.7649 0.0000
vt 0.7880 0.7614 0.0000
vt 0.9605 0.7611 0.0000
vt 0.9558 0.7650 0.0000
vt 0.9658 0.7761 0.0000
vt 0.9714 0.7737 0.0000
vt 0.9714 0.9774 0.0000
vt 0.9665 0.9750 0.0000
vt 0.7890 0.9849 0.0000
vt 0.9545 0.9857 0.0000
vt 0.9585 0.9895 0.0000
vt 0.7821 0.9900 0.0000
vt 0.7637 0.5373 0.0000
vt 0.7605 0.5299 0.0000
vt 0.9647 0.5328 0.0000
vt 0.9617 0.5395 0.0000
vt 0.9707 0.5484 0.0000
vt 0.9762 0.5434 0.0000
vt 0.9763 0.7187 0.0000
vt 0.9718 0.7136 0.0000
vt 0.9609 0.7232 0.0000
vt 0.9639 0.7292 0.0000
vt 0.7605 0.7300 0.0000
vt 0.7632 0.7224 0.0000
vt 0.7533 0.7135 0.0000
vt 0.7484 0.7200 0.0000
vt 0.7481 0.5411 0.0000
vt 0.7522 0.5481 0.0000
vt 0.3504 0.0169 0.0000
vt 0.3476 0.0100 0.0000
vt 0.5489 0.0100 0.0000
vt 0.5463 0.0164 0.0000
vt 0.5583 0.0270 0.0000
vt 0.5631 0.0220 0.0000
vt 0.5618 0.1973 0.0000
vt 0.5577 0.1925 0.0000
vt 0.5472 0.2033 0.0000
vt 0.5500 0.2090 0.0000
vt 0.3458 0.2100 0.0000
vt 0.3481 0.2039 0.0000
vt 0.3377 0.1924 0.0000
vt 0.3339 0.1976 0.0000
vt 0.3353 0.0220 0.0000
vt 0.3408 0.0269 0.0000
vt 0.2832 0.7739 0.0000
vt 0.2890 0.7761 0.0000
vt 0.2896 0.9741 0.0000
vt 0.2832 0.9782 0.0000
vt 0.2996 0.7654 0.0000
vt 0.2947 0.7616 0.0000
vt 0.4715 0.7598 0.0000
vt 0.4659 0.7636 0.0000
vt 0.4770 0.7767 0.0000
vt 0.4830 0.7736 0.0000
vt 0.4826 0.9776 0.0000
vt 0.4762 0.9743 0.0000
vt 0.4654 0.9846 0.0000
vt 0.4704 0.9898 0.0000
vt 0.2951 0.9900 0.0000
vt 0.3007 0.9850 0.0000
# 332 texture coords

g Pillar_3
usemtl Pillar_3
s 1
f 1/1/1 2/2/2 3/3/3 
f 3/3/3 4/4/4 1/1/1 
f 5/5/5 1/6/1 4/7/4 
f 4/7/4 6/8/6 5/5/5 
f 7/9/7 5/5/5 6/8/6 
f 6/8/6 8/10/8 7/9/7 
f 9/11/9 4/4/4 3/3/3 
f 6/12/6 4/13/4 9/14/9 
f 9/14/9 10/15/10 6/12/6 
f 10/16/10 8/10/8 6/8/6 
f 9/11/9 3/3/3 11/17/11 
f 11/17/11 12/18/12 9/11/9 
f 10/15/10 9/14/9 12/19/12 
f 12/19/12 13/20/13 10/15/10 
f 8/21/8 10/15/10 13/20/13 
f 13/20/13 14/22/14 8/21/8 
f 15/23/15 12/18/12 11/17/11 
f 13/24/13 12/25/12 15/26/15 
f 15/26/15 16/27/16 13/24/13 
f 16/28/16 14/22/14 13/20/13 
f 15/23/15 11/17/11 17/29/17 
f 17/29/17 18/30/18 15/23/15 
f 16/27/16 15/26/15 18/31/18 
f 18/31/18 19/32/19 16/27/16 
f 14/33/14 16/27/16 19/32/19 
f 19/32/19 20/34/20 14/33/14 
f 21/35/21 18/30/18 17/29/17 
f 19/36/19 18/37/18 21/38/21 
f 21/38/21 22/39/22 19/36/19 
f 22/40/22 20/34/20 19/32/19 
f 21/35/21 17/29/17 2/2/2 
f 2/2/2 23/41/23 21/35/21 
f 22/39/22 21/38/21 23/42/23 
f 23/42/23 24/43/24 22/39/22 
f 20/44/20 22/39/22 24/43/24 
f 24/43/24 7/45/7 20/44/20 
f 1/1/1 23/41/23 2/2/2 
f 24/46/24 23/47/23 1/6/1 
f 1/6/1 5/5/5 24/46/24 
f 5/48/5 7/45/7 24/43/24 
f 25/49/25 26/50/26 27/51/27 
f 27/51/27 28/52/28 25/49/25 
f 3/3/3 2/2/2 17/29/17 
f 17/29/17 11/17/11 3/3/3 
f 29/53/29 7/9/7 8/10/8 
f 8/10/8 30/54/30 29/53/29 
f 30/55/30 8/21/8 14/22/14 
f 14/22/14 31/56/31 30/55/30 
f 31/57/31 14/33/14 20/34/20 
f 20/34/20 32/58/32 31/57/31 
f 32/59/32 20/44/20 7/45/7 
f 7/45/7 29/60/29 32/59/32 
f 33/61/33 29/53/29 30/54/30 
f 30/54/30 34/62/34 33/61/33 
f 34/63/34 30/55/30 31/56/31 
f 31/56/31 35/64/35 34/63/34 
f 35/65/35 31/57/31 32/58/32 
f 32/58/32 36/66/36 35/65/35 
f 36/67/36 32/59/32 29/60/29 
f 29/60/29 33/68/33 36/67/36 
f 37/69/37 33/61/33 34/62/34 
f 34/62/34 38/70/38 37/69/37 
f 38/71/38 34/63/34 35/64/35 
f 35/64/35 39/72/39 38/71/38 
f 39/73/39 35/65/35 36/66/36 
f 36/66/36 40/74/40 39/73/39 
f 40/75/40 36/67/36 33/68/33 
f 33/68/33 37/76/37 40/75/40 
f 41/77/41 37/69/37 38/70/38 
f 38/70/38 42/78/42 41/77/41 
f 42/79/42 38/71/38 39/72/39 
f 39/72/39 43/80/43 42/79/42 
f 43/81/43 39/73/39 40/74/40 
f 40/74/40 44/82/44 43/81/43 
f 41/83/41 44/84/44 40/75/40 
f 40/75/40 37/76/37 41/83/41 
f 42/78/42 45/85/45 46/86/46 
f 47/87/47 45/88/45 42/79/42 
f 44/82/44 48/89/48 49/90/49 
f 50/91/50 51/92/51 52/93/52 
f 53/94/53 54/95/54 55/96/55 
f 55/96/55 56/97/56 53/94/53 
f 56/98/56 55/99/55 57/100/57 
f 57/100/57 58/101/58 56/98/56 
f 58/102/58 57/103/57 51/104/51 
f 51/104/51 59/105/59 58/102/58 
f 59/106/59 51/107/51 54/108/54 
f 54/108/54 53/109/53 59/106/59 
f 60/110/60 53/94/53 56/97/56 
f 56/97/56 61/111/61 60/110/60 
f 61/112/61 56/98/56 58/101/58 
f 58/101/58 62/113/62 61/112/61 
f 62/114/62 58/102/58 59/105/59 
f 59/105/59 63/115/63 62/114/62 
f 63/116/63 59/106/59 53/109/53 
f 53/109/53 60/117/60 63/116/63 
f 64/118/64 60/110/60 61/111/61 
f 61/111/61 65/119/65 64/118/64 
f 65/120/65 61/112/61 62/113/62 
f 62/113/62 66/121/66 65/120/65 
f 66/122/66 62/114/62 63/115/63 
f 63/115/63 67/123/67 66/122/66 
f 67/124/67 63/116/63 60/117/60 
f 60/117/60 64/125/64 67/124/67 
f 68/126/68 64/118/64 65/119/65 
f 65/119/65 69/127/69 68/126/68 
f 69/128/69 65/120/65 66/121/66 
f 66/121/66 70/129/70 69/128/69 
f 70/130/70 66/122/66 67/123/67 
f 67/123/67 71/131/71 70/130/70 
f 71/132/71 67/124/67 64/125/64 
f 64/125/64 68/133/68 71/132/71 
f 72/134/72 68/126/68 69/127/69 
f 69/127/69 73/135/73 72/134/72 
f 73/136/73 69/128/69 70/129/70 
f 70/129/70 74/137/74 73/136/73 
f 74/138/74 70/130/70 71/131/71 
f 71/131/71 75/139/75 74/138/74 
f 75/140/75 71/132/71 68/133/68 
f 68/133/68 72/141/72 75/140/75 
f 76/142/76 72/134/72 73/135/73 
f 73/135/73 77/143/77 76/142/76 
f 77/144/77 73/136/73 74/137/74 
f 74/137/74 78/145/78 77/144/77 
f 78/146/78 74/138/74 75/139/75 
f 75/139/75 79/147/79 78/146/78 
f 79/148/79 75/140/75 72/141/72 
f 72/141/72 76/149/76 79/148/79 
f 80/150/80 76/142/76 77/143/77 
f 77/143/77 81/151/81 80/150/80 
f 81/152/81 77/144/77 78/145/78 
f 78/145/78 82/153/82 81/152/81 
f 82/154/82 78/146/78 79/147/79 
f 79/147/79 83/155/83 82/154/82 
f 83/156/83 79/148/79 76/149/76 
f 76/149/76 80/157/80 83/156/83 
f 84/158/84 80/150/80 81/151/81 
f 81/151/81 85/159/85 84/158/84 
f 85/160/85 81/152/81 82/153/82 
f 82/153/82 86/161/86 85/160/85 
f 86/162/86 82/154/82 83/155/83 
f 83/155/83 87/163/87 86/162/86 
f 87/164/87 83/156/83 80/157/80 
f 80/157/80 84/165/84 87/164/87 
f 88/166/88 84/158/84 85/159/85 
f 85/159/85 89/167/89 88/166/88 
f 89/168/89 85/160/85 86/161/86 
f 86/161/86 90/169/90 89/168/89 
f 90/170/90 86/162/86 87/163/87 
f 87/163/87 91/171/91 90/170/90 
f 91/172/91 87/164/87 84/165/84 
f 84/165/84 88/173/88 91/172/91 
f 92/174/92 88/166/88 89/167/89 
f 89/167/89 93/175/93 92/174/92 
f 93/176/93 89/168/89 90/169/90 
f 90/169/90 94/177/94 93/176/93 
f 94/178/94 90/170/90 91/171/91 
f 91/171/91 95/179/95 94/178/94 
f 95/180/95 91/172/91 88/173/88 
f 88/173/88 92/181/92 95/180/95 
f 96/182/96 92/174/92 93/175/93 
f 93/175/93 97/183/97 96/182/96 
f 97/184/97 93/176/93 94/177/94 
f 94/177/94 98/185/98 97/184/97 
f 98/186/98 94/178/94 95/179/95 
f 95/179/95 99/187/99 98/186/98 
f 99/188/99 95/180/95 92/181/92 
f 92/181/92 96/189/96 99/188/99 
f 100/190/100 96/191/96 97/192/97 
f 97/192/97 101/193/101 100/190/100 
f 101/193/101 97/192/97 98/194/98 
f 98/194/98 102/195/102 101/193/101 
f 102/195/102 98/194/98 99/196/99 
f 99/196/99 103/197/103 102/195/102 
f 103/197/103 99/196/99 96/191/96 
f 96/191/96 100/190/100 103/197/103 
f 104/198/104 105/199/105 100/200/100 
f 102/201/102 106/202/106 107/203/107 
f 103/204/103 108/205/108 109/206/109 
f 100/207/100 105/208/105 110/209/110 
f 104/198/104 26/50/26 105/199/105 
f 107/203/107 106/202/106 28/52/28 
f 109/206/109 108/205/108 25/49/25 
f 110/209/110 105/208/105 26/50/26 
f 111/210/111 112/211/112 27/51/27 
f 101/212/101 112/211/112 111/210/111 
f 25/49/25 108/213/108 113/214/113 
f 113/214/113 108/213/108 103/215/103 
f 110/209/110 26/50/26 25/49/25 
f 25/49/25 113/214/113 110/209/110 
f 103/215/103 100/207/100 110/209/110 
f 110/209/110 113/214/113 103/215/103 
f 114/216/114 106/217/106 102/218/102 
f 28/52/28 106/217/106 114/216/114 
f 109/206/109 25/49/25 28/52/28 
f 28/52/28 114/216/114 109/206/109 
f 102/218/102 103/204/103 109/206/109 
f 109/206/109 114/216/114 102/218/102 
f 115/219/115 112/220/112 101/221/101 
f 27/51/27 112/220/112 115/219/115 
f 28/52/28 27/51/27 115/219/115 
f 115/219/115 107/203/107 28/52/28 
f 107/203/107 115/219/115 101/221/101 
f 101/221/101 102/201/102 107/203/107 
f 111/210/111 104/198/104 100/200/100 
f 100/200/100 101/212/101 111/210/111 
f 26/50/26 104/198/104 111/210/111 
f 111/210/111 27/51/27 26/50/26 
f 116/222/116 117/223/117 55/224/55 
f 118/225/118 119/226/119 57/227/57 
f 57/228/57 119/229/119 120/230/120 
f 52/93/52 48/231/48 121/232/121 
f 121/232/121 50/91/50 52/93/52 
f 122/233/122 123/234/123 124/235/124 
f 124/235/124 125/236/125 122/233/122 
f 126/237/126 117/238/117 45/88/45 
f 45/88/45 47/87/47 126/237/126 
f 119/229/119 127/239/127 128/240/128 
f 128/240/128 120/230/120 119/229/119 
f 129/241/129 41/83/41 124/242/124 
f 130/243/130 47/87/47 42/79/42 
f 42/79/42 43/80/43 130/243/130 
f 131/244/131 123/245/123 54/246/54 
f 118/225/118 57/227/57 55/247/55 
f 55/247/55 126/237/126 118/225/118 
f 121/232/121 48/231/48 44/84/44 
f 132/248/132 133/249/133 134/250/134 
f 134/250/134 135/251/135 132/248/132 
f 119/226/119 118/225/118 130/243/130 
f 130/243/130 127/252/127 119/226/119 
f 43/80/43 127/252/127 130/243/130 
f 50/91/50 131/244/131 54/246/54 
f 54/246/54 51/92/51 50/91/50 
f 55/247/55 117/238/117 126/237/126 
f 41/83/41 129/241/129 121/232/121 
f 121/232/121 44/84/44 41/83/41 
f 136/253/136 137/254/137 138/255/138 
f 138/255/138 139/256/139 136/253/136 
f 129/241/129 124/242/124 123/245/123 
f 123/245/123 131/244/131 129/241/129 
f 46/86/46 125/236/125 41/77/41 
f 41/77/41 42/78/42 46/86/46 
f 128/240/128 127/239/127 43/81/43 
f 54/257/54 123/234/123 122/233/122 
f 140/258/140 51/259/51 57/228/57 
f 57/228/57 120/230/120 140/258/140 
f 141/260/141 142/261/142 143/262/143 
f 143/262/143 144/263/144 141/260/141 
f 52/264/52 140/258/140 49/90/49 
f 49/90/49 48/89/48 52/264/52 
f 125/236/125 124/235/124 41/77/41 
f 44/82/44 49/90/49 128/240/128 
f 128/240/128 43/81/43 44/82/44 
f 55/224/55 54/257/54 122/233/122 
f 122/233/122 116/222/116 55/224/55 
f 140/258/140 52/264/52 51/259/51 
f 145/265/145 146/266/146 147/267/147 
f 147/267/147 148/268/148 145/265/145 
f 45/85/45 117/223/117 116/222/116 
f 116/222/116 46/86/46 45/85/45 
f 128/269/128 149/270/149 150/271/150 
f 150/271/150 120/272/120 128/269/128 
f 149/273/149 128/274/128 49/275/49 
f 49/275/49 151/276/151 149/273/149 
f 151/277/151 49/278/49 140/279/140 
f 140/279/140 152/280/152 151/277/151 
f 150/281/150 152/282/152 140/283/140 
f 140/283/140 120/284/120 150/281/150 
f 146/266/146 150/271/150 149/270/149 
f 149/270/149 147/267/147 146/266/146 
f 148/268/148 147/267/147 149/273/149 
f 149/273/149 151/276/151 148/268/148 
f 148/268/148 151/277/151 152/280/152 
f 152/280/152 145/265/145 148/268/148 
f 146/266/146 145/265/145 152/282/152 
f 152/282/152 150/281/150 146/266/146 
f 153/285/153 126/286/126 47/287/47 
f 47/287/47 154/288/154 153/285/153 
f 154/289/154 47/290/47 130/291/130 
f 130/291/130 155/292/155 154/289/154 
f 155/293/155 130/294/130 118/295/118 
f 118/295/118 156/296/156 155/293/155 
f 156/297/156 118/298/118 126/299/126 
f 126/299/126 153/300/153 156/297/156 
f 137/254/137 153/285/153 154/288/154 
f 154/288/154 138/255/138 137/254/137 
f 138/255/138 154/289/154 155/292/155 
f 155/292/155 139/256/139 138/255/138 
f 139/256/139 155/293/155 156/296/156 
f 156/296/156 136/253/136 139/256/139 
f 136/253/136 156/297/156 153/300/153 
f 153/300/153 137/254/137 136/253/136 
f 157/301/157 122/302/122 125/303/125 
f 125/303/125 158/304/158 157/301/157 
f 158/305/158 125/306/125 46/307/46 
f 46/307/46 159/308/159 158/305/158 
f 159/309/159 46/310/46 116/311/116 
f 116/311/116 160/312/160 159/309/159 
f 160/313/160 116/314/116 122/315/122 
f 122/315/122 157/316/157 160/313/160 
f 142/261/142 157/301/157 158/304/158 
f 158/304/158 143/262/143 142/261/142 
f 143/262/143 158/305/158 159/308/159 
f 159/308/159 144/263/144 143/262/143 
f 141/260/141 144/263/144 159/309/159 
f 159/309/159 160/312/160 141/260/141 
f 141/260/141 160/313/160 157/316/157 
f 157/316/157 142/261/142 141/260/141 
f 121/317/121 161/318/161 162/319/162 
f 162/319/162 50/320/50 121/317/121 
f 161/321/161 121/322/121 129/323/129 
f 129/323/129 163/324/163 161/321/161 
f 163/325/163 129/326/129 131/327/131 
f 131/327/131 164/328/164 163/325/163 
f 164/329/164 131/330/131 50/331/50 
f 50/331/50 162/332/162 164/329/164 
f 133/249/133 162/319/162 161/318/161 
f 161/318/161 134/250/134 133/249/133 
f 135/251/135 134/250/134 161/321/161 
f 161/321/161 163/324/163 135/251/135 
f 132/248/132 135/251/135 163/325/163 
f 163/325/163 164/328/164 132/248/132 
f 132/248/132 164/329/164 162/332/162 
f 162/332/162 133/249/133 132/248/132 
# 324 faces

