# 3ds Max Wavefront OBJ Exporter v0.97b - (c)2007 guruware
# File Created: 12.07.2020 14:36:44

mtllib EnvDesign.mtl

#
# object Plane001
#

v  -161.0771 2.1668 149.7994
v  -161.0771 0.0000 162.8531
v  -148.1249 0.0000 162.8531
v  -148.1249 0.0000 149.7994
v  -135.1726 0.0000 162.8531
v  -135.1726 0.0000 149.7994
v  -122.2204 0.0000 162.8531
v  -122.2204 4.0143 149.7994
v  -109.2681 0.0000 162.8531
v  -109.2681 0.0000 149.7994
v  -96.3159 0.0000 162.8531
v  -96.3159 0.0000 149.7994
v  -83.3636 0.0000 162.8531
v  -83.3636 -1.3036 149.7994
v  -70.4114 0.0000 162.8531
v  -70.4114 0.0000 149.7994
v  -57.4592 0.0000 162.8531
v  -57.4592 0.0000 149.7994
v  -44.5069 0.0000 162.8531
v  -44.5069 2.9494 149.7994
v  -31.5547 0.0000 162.8531
v  -31.5547 2.9494 149.7994
v  -18.6025 0.0000 162.8531
v  -18.6025 0.0000 149.7994
v  -5.6502 0.0000 162.8531
v  -5.6502 0.0000 149.7994
v  7.3020 0.0000 162.8531
v  7.3020 2.1133 149.7994
v  20.2543 0.0000 162.8531
v  20.2543 -1.4277 149.7994
v  33.2065 0.0000 162.8531
v  33.2065 -1.4277 149.7994
v  46.1588 0.0000 162.8531
v  46.1588 0.0000 149.7994
v  59.1110 0.0000 162.8531
v  59.1110 3.5403 149.7994
v  72.0632 0.0000 162.8531
v  72.0632 3.5403 149.7994
v  85.0155 0.0000 162.8531
v  85.0155 0.0000 149.7994
v  97.9677 0.0000 162.8531
v  97.9677 0.0000 149.7994
v  110.9200 0.0000 162.8531
v  110.9200 -1.6098 149.7994
v  123.8722 0.0000 162.8531
v  123.8722 1.1391 149.7994
v  136.8244 0.0000 162.8531
v  136.8244 1.1391 149.7994
v  149.7767 0.0000 162.8531
v  149.7767 -1.3831 149.7994
v  162.7289 0.0000 162.8531
v  162.7289 0.0000 149.7994
v  -161.0771 0.0000 136.7457
v  -148.1249 0.0000 136.7457
v  -135.1726 -2.2634 136.7457
v  -122.2204 0.0000 136.7457
v  -109.2681 4.0143 136.7457
v  -96.3159 0.0000 136.7457
v  -83.3636 0.0000 136.7457
v  -70.4114 0.0000 136.7457
v  -57.4592 0.0000 136.7457
v  -44.5069 2.9494 136.7457
v  -31.5547 2.9494 136.7457
v  -18.6025 0.0000 136.7457
v  -5.6502 0.0000 136.7457
v  7.3020 2.1133 136.7457
v  20.2543 -1.4277 136.7457
v  33.2065 -1.4277 136.7457
v  46.1588 3.5403 136.7457
v  59.1110 3.5403 136.7457
v  72.0632 -2.2869 136.7457
v  85.0155 0.0000 136.7457
v  97.9677 2.6866 136.7457
v  110.9200 0.0000 136.7457
v  123.8722 1.1391 136.7457
v  136.8244 0.0000 136.7457
v  149.7767 0.0000 136.7457
v  162.7289 0.0000 136.7457
v  -161.0771 0.0000 123.6920
v  -148.1249 2.9809 123.6920
v  -135.1726 0.0000 123.6920
v  -122.2204 0.0000 123.6920
v  -109.2681 0.0000 123.6920
v  -96.3159 0.0000 123.6920
v  -83.3636 0.0000 123.6920
v  -70.4114 0.0000 123.6920
v  -57.4592 0.0000 123.6920
v  -44.5069 0.0000 123.6920
v  -31.5547 0.0000 123.6920
v  -18.6025 0.0000 123.6920
v  -5.6502 0.0000 123.6920
v  7.3020 2.1133 123.6920
v  20.2543 0.0000 123.6920
v  33.2065 0.0000 123.6920
v  46.1588 3.0247 123.6920
v  59.1110 0.0000 123.6920
v  72.0632 0.0000 123.6920
v  85.0155 0.0000 123.6920
v  97.9677 2.6866 123.6919
v  110.9200 0.0000 123.6920
v  123.8722 0.0000 123.6920
v  136.8244 0.0000 123.6920
v  149.7767 0.0000 123.6920
v  162.7289 0.0000 123.6920
v  -161.0771 0.0000 110.6382
v  -148.1249 0.0000 110.6382
v  -135.1726 0.0000 110.6382
v  -122.2204 0.0000 110.6382
v  -109.2681 3.6604 110.6382
v  -96.3159 3.6604 110.6382
v  -83.3636 3.6604 110.6382
v  -70.4114 0.0000 110.6382
v  -57.4592 1.5507 110.6383
v  -44.5069 1.5507 110.6383
v  -31.5547 0.0000 110.6382
v  -18.6025 2.9967 110.6382
v  -5.6502 0.0000 110.6382
v  7.3020 0.0000 110.6382
v  20.2543 0.0000 110.6382
v  33.2065 0.0000 110.6382
v  46.1588 0.0000 110.6382
v  59.1110 0.0000 110.6382
v  72.0632 2.3955 110.6382
v  85.0155 0.0000 110.6382
v  97.9677 0.0000 110.6382
v  110.9200 0.0000 110.6382
v  123.8722 0.0000 110.6382
v  136.8244 0.0000 110.6382
v  149.7767 2.0164 110.6382
v  162.7289 0.0000 110.6382
v  -161.0771 0.0000 97.5845
v  -148.6861 1.5674 97.5845
v  -135.7339 1.5674 97.5845
v  -122.2204 0.0000 97.5845
v  -109.2681 3.6604 97.5845
v  -96.3159 3.6604 97.5845
v  -83.3636 3.6604 97.5845
v  -70.4114 0.0000 97.5845
v  -57.4592 1.5507 97.5845
v  -44.5069 1.5507 97.5845
v  -31.5547 0.0000 97.5845
v  -18.6025 0.0000 97.5845
v  -5.6502 0.0000 97.5845
v  7.3020 0.0000 97.5845
v  20.2543 0.0000 97.5845
v  33.2065 0.0000 97.5845
v  46.1588 0.0000 97.5845
v  59.1110 0.0000 97.5845
v  72.0632 0.0000 97.5845
v  85.0155 0.0000 97.5845
v  97.9677 2.7051 97.5845
v  110.9200 0.0000 97.5845
v  123.8722 0.0000 97.5845
v  136.8244 0.0000 97.5845
v  149.7767 2.0164 97.5845
v  162.7289 2.0164 97.5845
v  -161.0771 0.0000 84.5308
v  -148.6861 1.5674 84.5308
v  -135.7339 1.5674 84.5308
v  -122.2204 0.0000 84.5308
v  -109.2681 3.6604 84.5308
v  -96.3159 3.6604 84.5308
v  -83.3636 3.6604 84.5308
v  -70.4114 0.0000 84.5308
v  -57.4592 0.0000 84.5308
v  -44.5069 0.0000 84.5308
v  -31.5547 0.0000 84.5308
v  -18.6025 0.0000 84.5308
v  -5.6502 0.0000 84.5308
v  7.3020 0.0000 84.5308
v  20.2543 0.0000 84.5308
v  33.2065 0.0000 84.5308
v  46.1588 0.0000 84.5308
v  59.1110 0.0000 84.5308
v  72.0632 0.0000 84.5308
v  85.0155 0.0000 84.5308
v  97.9677 0.0000 84.5308
v  110.9200 0.0000 84.5308
v  123.8722 0.0000 84.5308
v  136.8244 0.0000 84.5308
v  149.7767 -4.4012 84.5308
v  162.7289 0.0000 84.5308
v  -161.0771 0.0000 71.4771
v  -148.1249 4.0796 71.4771
v  -135.1726 0.0000 71.4771
v  -122.2204 0.0000 71.4771
v  -109.2681 3.6604 71.4771
v  -96.3159 3.6604 71.4771
v  -83.3636 3.6604 71.4771
v  -70.4114 0.0000 71.4771
v  -57.4592 0.0000 71.4771
v  -44.5069 0.0000 71.4771
v  -31.5547 0.0000 71.4771
v  -18.6025 0.0000 71.4771
v  -5.6502 0.0000 71.4771
v  7.3020 0.0000 71.4771
v  20.2543 0.0000 71.4771
v  33.2065 0.0000 71.4771
v  46.1588 0.0000 71.4771
v  59.1110 0.0000 71.4771
v  72.0632 0.0000 71.4771
v  85.0155 0.0000 71.4771
v  97.9677 0.0000 71.4771
v  110.9200 0.0000 71.4771
v  123.8722 0.0000 71.4771
v  136.8244 0.0000 71.4771
v  149.7767 0.5299 71.4771
v  162.7289 0.0000 71.4771
v  -161.0771 0.0000 58.4234
v  -148.1249 0.0000 58.4234
v  -135.1726 0.0000 58.4234
v  -122.2204 0.0000 58.4234
v  -109.2681 0.0000 58.4234
v  -96.3159 0.0000 58.4234
v  -83.3636 0.0000 58.4234
v  -70.4114 0.0000 58.4234
v  -57.4592 0.0000 58.4234
v  -44.5069 0.0000 58.4234
v  -31.5547 0.0000 58.4234
v  -18.6025 0.0000 58.4234
v  -5.6502 0.0000 58.4234
v  7.3020 0.0000 58.4234
v  20.2543 0.0000 58.4234
v  33.2065 0.0000 58.4234
v  46.1588 0.0000 58.4234
v  59.1110 0.0000 58.4234
v  72.0632 2.9658 58.4234
v  85.0155 0.0000 58.4234
v  97.9677 0.0000 58.4234
v  110.9200 2.0680 58.4234
v  123.8722 0.0000 58.4234
v  136.8244 0.0000 58.4234
v  149.7767 0.0000 58.4234
v  162.7289 0.0000 58.4234
v  -161.0771 0.0000 45.3697
v  -148.1249 0.0000 45.3697
v  -135.1726 0.0000 45.3697
v  -122.2204 0.0000 45.3697
v  -109.2681 0.0000 45.3697
v  -96.3159 0.0000 45.3697
v  -83.3636 0.0000 45.3697
v  -70.4114 0.0000 45.3697
v  -57.4592 0.0000 45.3697
v  -44.5069 0.0000 45.3697
v  -31.5547 0.0000 45.3697
v  -18.6025 0.0000 45.3697
v  -5.6502 0.0000 45.3697
v  7.3020 0.0000 45.3697
v  20.2543 0.0000 45.3697
v  33.2065 0.0000 45.3697
v  46.1588 0.0000 45.3697
v  59.1110 0.0000 45.3697
v  72.0632 0.0000 45.3697
v  85.0155 0.0000 45.3697
v  97.9677 0.0000 45.3697
v  110.9200 0.0000 45.3697
v  123.8722 0.0000 45.3697
v  136.8244 3.6081 45.3697
v  149.7767 3.6081 45.3697
v  162.7289 0.0000 45.3697
v  -161.0771 1.0147 32.3159
v  -148.1249 0.0000 32.3159
v  -135.1726 0.0000 32.3159
v  -122.2204 2.4239 32.3159
v  -109.2681 2.4239 32.3159
v  -96.3159 0.0000 32.3159
v  -83.3636 0.0000 32.3159
v  -70.4114 0.0000 32.3159
v  -57.4592 0.0000 32.3159
v  -44.5069 0.0000 32.3159
v  -31.5547 0.0000 32.3159
v  -18.6025 0.0000 32.3159
v  -5.6502 0.0000 32.3159
v  7.3020 0.0000 32.3159
v  20.2543 0.0000 32.3159
v  33.2065 0.0000 32.3159
v  46.1588 0.0000 32.3159
v  59.1110 0.0000 32.3159
v  72.0632 0.0000 32.3159
v  85.0155 0.0000 32.3159
v  97.9677 0.0000 32.3159
v  110.9200 0.0000 32.3159
v  123.8722 0.0000 32.3159
v  136.8244 0.0000 32.3159
v  149.7767 0.0000 32.3159
v  162.7289 0.0000 32.3159
v  -161.0771 1.0147 19.2622
v  -148.1249 -2.1592 19.2622
v  -135.1726 1.4862 19.2622
v  -122.2204 0.0000 19.2622
v  -109.2681 0.0000 19.2622
v  -96.3159 0.0000 19.2622
v  -83.3636 0.0000 19.2622
v  -70.4114 0.0000 19.2622
v  -57.4592 0.0000 19.2622
v  -44.5069 0.0000 19.2622
v  -31.5547 0.0000 19.2622
v  -18.6025 0.0000 19.2622
v  -5.6502 0.0000 19.2622
v  7.3020 0.0000 19.2622
v  20.2543 0.0000 19.2622
v  33.2065 0.0000 19.2622
v  46.1588 0.0000 19.2622
v  59.1110 0.0000 19.2622
v  72.0632 2.1642 19.2622
v  85.0155 0.0000 19.2622
v  97.9677 0.0000 19.2622
v  110.9200 0.0000 19.2622
v  123.8722 3.2848 19.2622
v  136.8244 0.0000 19.2622
v  149.7767 0.0000 19.2622
v  162.7289 0.0000 19.2622
v  -161.0771 0.0000 6.2085
v  -148.1249 0.0000 6.2085
v  -135.1726 0.0000 6.2085
v  -122.2204 0.0000 6.2085
v  -109.2681 0.0000 6.2085
v  -96.3159 0.0000 6.2085
v  -83.3636 0.0000 6.2085
v  -70.4114 0.0000 6.2085
v  -57.4592 0.0000 6.2085
v  -44.5069 0.0000 6.2085
v  -31.5547 0.0000 6.2085
v  -18.6025 0.0000 6.2085
v  -5.6502 0.0000 6.2085
v  7.3020 0.0000 6.2085
v  20.2543 0.0000 6.2085
v  33.2065 0.0000 6.2085
v  46.1588 0.0000 6.2085
v  59.1110 0.0000 6.2085
v  72.0632 0.0000 6.2085
v  85.0155 0.0000 6.2085
v  97.9677 0.0000 6.2085
v  110.9200 0.0000 6.2085
v  123.8722 0.0000 6.2085
v  136.8244 1.6298 6.2085
v  149.7767 1.6298 6.2085
v  162.7289 0.0000 6.2085
v  -161.0771 0.0000 -6.8452
v  -148.1249 0.0000 -6.8452
v  -135.1726 -1.8739 -6.8452
v  -122.2204 0.0000 -6.8452
v  -109.2681 0.0000 -6.8452
v  -96.3159 0.0000 -6.8452
v  -83.3636 0.0000 -6.8452
v  -70.4114 0.0000 -6.8452
v  -57.4592 0.0000 -6.8452
v  -44.5069 0.0000 -6.8452
v  -31.5547 0.0000 -6.8452
v  -18.6025 0.0000 -6.8452
v  -5.6502 0.0000 -6.8452
v  7.3020 0.0000 -6.8452
v  20.2543 0.0000 -6.8452
v  33.2065 0.0000 -6.8452
v  46.1588 0.0000 -6.8452
v  59.1110 0.0000 -6.8452
v  72.0632 0.0000 -6.8452
v  85.0155 0.0000 -6.8452
v  97.9677 2.5701 -6.8452
v  110.9200 0.0000 -6.8452
v  123.8722 0.0000 -6.8452
v  136.8244 0.0000 -6.8452
v  149.7767 0.0000 -6.8452
v  162.7289 0.0000 -6.8452
v  -161.0771 0.0000 -19.8989
v  -148.1249 0.0000 -19.8989
v  -135.1726 0.0000 -19.8989
v  -122.2204 3.7674 -19.8989
v  -109.2681 0.0000 -19.8989
v  -96.3159 0.0000 -19.8989
v  -83.3636 0.0000 -19.8989
v  -70.4114 0.0000 -19.8989
v  -57.4592 0.0000 -19.8989
v  -44.5069 0.0000 -19.8989
v  -31.5547 0.0000 -19.8989
v  -18.6025 0.0000 -19.8989
v  -5.6502 0.0000 -19.8989
v  7.3020 0.0000 -19.8989
v  20.2543 0.0000 -19.8989
v  33.2065 0.0000 -19.8989
v  46.1588 0.0000 -19.8989
v  59.1110 0.0000 -19.8989
v  72.0632 0.0000 -19.8989
v  85.0155 0.0000 -19.8989
v  97.9677 0.0000 -19.8989
v  110.9200 0.0000 -19.8989
v  123.8722 0.0000 -19.8989
v  136.8244 0.0000 -19.8989
v  149.7767 0.0000 -19.8989
v  162.7289 0.0000 -19.8989
v  -161.0771 0.0000 -32.9526
v  -148.1249 0.0000 -32.9526
v  -135.1726 0.0000 -32.9526
v  -122.2204 0.0000 -32.9526
v  -109.2681 0.0000 -32.9526
v  -96.3159 0.0000 -32.9526
v  -83.3636 0.0000 -32.9526
v  -70.4114 0.0000 -32.9526
v  -57.4592 0.0000 -32.9526
v  -44.5069 0.0000 -32.9526
v  -31.5547 0.0000 -32.9526
v  -18.6025 0.0000 -32.9526
v  -5.6502 0.0000 -32.9526
v  7.3020 0.0000 -32.9526
v  20.2543 0.0000 -32.9526
v  33.2065 0.0000 -32.9526
v  46.1588 0.0000 -32.9526
v  59.1110 0.0000 -32.9526
v  72.0632 0.0000 -32.9526
v  85.0155 0.0000 -32.9526
v  97.9677 0.0000 -32.9526
v  110.9200 0.0000 -32.9526
v  123.8722 0.0000 -32.9526
v  136.8244 0.0000 -32.9526
v  149.7767 1.9369 -32.9526
v  162.7289 0.0000 -32.9526
v  -161.0771 0.0000 -46.0063
v  -148.1249 4.4721 -46.0063
v  -135.1726 2.3723 -46.0063
v  -122.2204 2.3723 -46.0063
v  -109.2681 0.0000 -46.0063
v  -96.3159 0.0000 -46.0063
v  -83.3636 0.0000 -46.0063
v  -70.4114 0.0000 -46.0063
v  -57.4592 0.0000 -46.0063
v  -44.5069 0.0000 -46.0063
v  -31.5547 0.0000 -46.0063
v  -18.6025 0.0000 -46.0063
v  -5.6502 0.0000 -46.0063
v  7.3020 0.0000 -46.0063
v  20.2543 0.0000 -46.0063
v  33.2065 0.0000 -46.0063
v  46.1588 0.0000 -46.0063
v  59.1110 0.0000 -46.0063
v  72.0632 0.0000 -46.0063
v  85.0155 0.0000 -46.0063
v  97.9677 0.0000 -46.0063
v  110.9200 0.0000 -46.0063
v  123.8722 -3.1098 -46.0063
v  136.8244 0.0000 -46.0063
v  149.7767 0.0000 -46.0063
v  162.7289 0.0000 -46.0063
v  -161.0771 0.0000 -59.0601
v  -148.1249 0.0000 -59.0601
v  -135.1726 0.0000 -59.0601
v  -122.2204 0.0000 -59.0601
v  -109.2681 0.0000 -59.0601
v  -96.3159 -2.8254 -59.0601
v  -83.3636 0.0000 -59.0601
v  -70.4114 0.0000 -59.0601
v  -57.4592 0.0000 -59.0601
v  -44.5069 0.0000 -59.0601
v  -31.5547 0.0000 -59.0601
v  -18.6025 0.0000 -59.0601
v  -5.6502 0.0000 -59.0601
v  7.3020 0.0000 -59.0601
v  20.2543 0.0000 -59.0601
v  33.2065 0.0000 -59.0601
v  46.1588 0.0000 -59.0601
v  59.1110 0.0000 -59.0601
v  72.0632 0.0000 -59.0601
v  85.0155 0.0000 -59.0601
v  97.9677 2.2059 -59.0601
v  110.9200 2.2059 -59.0601
v  123.8722 0.0000 -59.0601
v  136.8244 0.0000 -59.0601
v  149.7767 1.9144 -59.0601
v  162.7289 0.0000 -59.0601
v  -161.0771 0.0000 -72.1138
v  -148.1249 0.0000 -72.1138
v  -135.1726 0.0000 -72.1138
v  -122.2204 0.0000 -72.1138
v  -109.2681 0.0000 -72.1138
v  -96.3159 0.0000 -72.1138
v  -83.3636 0.0000 -72.1138
v  -70.4114 0.0000 -72.1138
v  -57.4592 0.0000 -72.1138
v  -44.5069 0.0000 -72.1138
v  -31.5547 0.0000 -72.1138
v  -18.6025 0.0000 -72.1138
v  -5.6502 0.0000 -72.1138
v  7.3020 0.0000 -72.1138
v  20.2543 0.0000 -72.1138
v  33.2065 -4.6615 -72.1138
v  46.1588 0.0000 -72.1138
v  59.1110 0.0000 -72.1138
v  72.0632 0.0000 -72.1138
v  85.0155 -2.1131 -72.1138
v  97.9677 0.0000 -72.1138
v  110.9200 0.0000 -72.1138
v  123.8722 0.0000 -72.1138
v  136.8244 0.0000 -72.1138
v  149.7767 0.0000 -72.1138
v  162.7289 0.0000 -72.1138
v  -161.0771 0.0000 -85.1675
v  -148.1249 2.4492 -85.1675
v  -135.1726 2.4492 -85.1675
v  -122.2204 0.0000 -85.1675
v  -109.2681 0.0000 -85.1675
v  -96.3159 0.0000 -85.1675
v  -83.3636 0.0000 -85.1675
v  -70.4114 4.3322 -85.1675
v  -57.4592 0.0000 -85.1675
v  -44.5069 0.0000 -85.1675
v  -31.5547 0.0000 -85.1675
v  -18.6025 0.0000 -85.1675
v  -5.6502 0.0000 -85.1675
v  7.3020 0.0000 -85.1675
v  20.2543 0.0000 -85.1675
v  33.2065 0.0000 -85.1675
v  46.1588 0.0000 -85.1675
v  59.1110 0.0000 -85.1675
v  72.0632 0.0000 -85.1675
v  85.0155 0.0000 -85.1675
v  97.9677 0.0000 -85.1675
v  110.9200 0.0000 -85.1675
v  123.8722 0.0000 -85.1675
v  136.8244 0.0000 -85.1675
v  149.7767 -1.8598 -85.1675
v  162.7289 0.0000 -85.1675
v  -161.0771 0.0000 -98.2212
v  -148.1249 0.0000 -98.2212
v  -135.1726 0.0000 -98.2212
v  -122.2204 0.0000 -98.2212
v  -109.2681 1.9744 -98.2212
v  -96.3159 1.9744 -98.2212
v  -83.3636 0.0000 -98.2212
v  -70.4114 0.0000 -98.2212
v  -57.4592 0.0000 -98.2212
v  -44.5069 0.0000 -98.2212
v  -31.5547 0.0000 -98.2212
v  -18.6025 2.2324 -98.2212
v  -5.6502 0.0000 -98.2212
v  7.3020 0.0000 -98.2212
v  20.2543 0.0000 -98.2212
v  33.2065 0.0000 -98.2212
v  46.1588 0.0000 -98.2212
v  59.1110 0.0000 -98.2212
v  72.0632 0.0000 -98.2212
v  85.0155 0.0000 -98.2212
v  97.9677 2.7480 -98.2212
v  110.9200 0.0000 -98.2212
v  123.8722 4.8709 -98.2212
v  136.8244 4.8709 -98.2212
v  149.7767 0.0000 -98.2212
v  162.7289 0.0000 -98.2212
v  -161.0771 0.0000 -111.2749
v  -148.1249 0.0000 -111.2749
v  -135.1726 0.0000 -111.2749
v  -122.2204 0.0000 -111.2749
v  -109.2681 0.0000 -111.2749
v  -96.3159 0.0000 -111.2749
v  -83.3636 0.0000 -111.2749
v  -70.4114 0.0000 -111.2749
v  -57.4592 0.0000 -111.2749
v  -44.5069 0.0000 -111.2749
v  -31.5547 0.0000 -111.2749
v  -18.6025 2.2324 -111.2749
v  -5.6502 0.0000 -111.2749
v  7.3020 0.0000 -111.2749
v  20.2543 0.0000 -111.2749
v  33.2065 0.0000 -111.2749
v  46.1588 0.0000 -111.2749
v  59.1110 0.0000 -111.2749
v  72.0632 0.0000 -111.2749
v  85.0155 0.0000 -111.2749
v  97.9677 2.7480 -111.2749
v  110.9200 0.0000 -111.2749
v  123.8722 0.0000 -111.2749
v  136.8244 0.0000 -111.2749
v  149.7767 0.0000 -111.2749
v  162.7289 0.0000 -111.2749
v  -161.0771 0.0000 -124.3286
v  -148.1249 2.0567 -124.3286
v  -135.1726 2.0567 -124.3286
v  -122.2204 0.0000 -124.3286
v  -109.2681 0.0000 -124.3286
v  -96.3159 0.0000 -124.3286
v  -83.3636 0.0000 -124.3286
v  -70.4114 0.0000 -124.3286
v  -57.4592 0.0000 -124.3286
v  -44.5069 0.0000 -124.3286
v  -31.5547 0.0000 -124.3286
v  -18.6025 0.0000 -124.3286
v  -5.6502 0.0000 -124.3286
v  7.3020 0.0000 -124.3286
v  20.2543 0.0000 -124.3286
v  33.2065 0.0000 -124.3286
v  46.1588 0.0000 -124.3286
v  59.1110 0.0000 -124.3286
v  72.0632 0.0000 -124.3286
v  85.0155 0.0000 -124.3286
v  97.9677 0.0000 -124.3286
v  110.9200 0.0000 -124.3286
v  123.8722 0.0000 -124.3286
v  136.8244 0.0000 -124.3286
v  149.7767 0.0000 -124.3286
v  162.7289 1.4796 -124.3286
v  -161.0771 0.0000 -137.3824
v  -148.1249 2.0567 -137.3824
v  -135.1726 2.0567 -137.3824
v  -122.2204 0.0000 -137.3824
v  -109.2681 0.0000 -137.3824
v  -96.3159 0.0000 -137.3824
v  -83.3636 0.0000 -137.3824
v  -70.4114 2.4709 -137.3824
v  -57.4592 0.0000 -137.3824
v  -44.5069 0.0000 -137.3824
v  -31.5547 0.0000 -137.3824
v  -18.6025 0.0000 -137.3824
v  -5.6502 0.0000 -137.3824
v  7.3020 0.0000 -137.3824
v  20.2543 0.0000 -137.3824
v  33.2065 2.7138 -137.3824
v  46.1588 0.0000 -137.3824
v  59.1110 0.0000 -137.3824
v  72.0632 0.0000 -137.3824
v  85.0155 3.6543 -137.3824
v  97.9677 0.0000 -137.3824
v  110.9200 0.0000 -137.3824
v  123.8722 2.5579 -137.3824
v  136.8244 0.0000 -137.3824
v  149.7767 2.1352 -137.3824
v  162.7289 1.4796 -137.3824
v  -161.0771 0.0000 -150.4360
v  -148.1249 0.0000 -150.4360
v  -135.1726 0.0000 -150.4360
v  -122.2204 2.8383 -150.4360
v  -109.2681 2.8383 -150.4360
v  -96.3159 0.0000 -150.4360
v  -83.3636 2.4709 -150.4360
v  -70.4114 2.4709 -150.4360
v  -57.4592 0.0000 -150.4360
v  -44.5069 0.0000 -150.4360
v  -31.5547 0.0000 -150.4360
v  -18.6025 3.6417 -150.4360
v  -5.6502 0.0000 -150.4360
v  7.3020 0.0000 -150.4360
v  20.2543 2.8643 -150.4360
v  33.2065 0.0000 -150.4360
v  46.1588 0.0000 -150.4360
v  59.1110 0.0000 -150.4360
v  72.0632 0.0000 -150.4360
v  85.0155 3.6543 -150.4360
v  97.9677 0.0000 -150.4360
v  110.9200 0.0000 -150.4360
v  123.8722 2.5579 -150.4360
v  136.8244 0.0000 -150.4360
v  149.7767 0.0000 -150.4360
v  162.7289 0.0000 -150.4360
v  -161.0771 0.0000 -163.4898
v  -148.1249 0.0000 -163.4898
v  -135.1726 0.0000 -163.4898
v  -122.2204 0.0000 -163.4898
v  -109.2681 0.0000 -163.4898
v  -96.3159 0.0000 -163.4898
v  -83.3636 0.0000 -163.4898
v  -70.4114 0.0000 -163.4898
v  -57.4592 0.0000 -163.4898
v  -44.5069 0.0000 -163.4898
v  -31.5547 0.0000 -163.4898
v  -18.6025 0.0000 -163.4898
v  -5.6502 0.0000 -163.4898
v  7.3020 0.0000 -163.4898
v  20.2543 0.0000 -163.4898
v  33.2065 0.0000 -163.4898
v  46.1588 0.0000 -163.4898
v  59.1110 0.0000 -163.4898
v  72.0632 0.0000 -163.4898
v  85.0155 0.0000 -163.4898
v  97.9677 0.0000 -163.4898
v  110.9200 0.0000 -163.4898
v  123.8722 0.0000 -163.4898
v  136.8244 0.0000 -163.4898
v  149.7767 -1.7606 -163.4898
v  162.7289 0.0000 -163.4898
# 676 vertices

vn 0.1241 0.9915 0.0400
vn 0.0823 0.9933 0.0816
vn 0.0000 1.0000 -0.0000
vn 0.0839 0.9965 -0.0010
vn -0.0760 0.9942 0.0762
vn -0.1340 0.9857 -0.1020
vn 0.0748 0.9723 0.2215
vn -0.0394 0.9984 0.0395
vn 0.1451 0.9789 0.1440
vn 0.0250 0.9994 -0.0251
vn 0.0377 0.9992 0.0125
vn -0.0250 0.9969 -0.0745
vn 0.0000 1.0000 0.0000
vn -0.0377 0.9992 -0.0125
vn -0.0562 0.9968 0.0563
vn -0.1117 0.9937 -0.0000
vn 0.0000 0.9754 0.2204
vn -0.0843 0.9930 0.0834
vn 0.0557 0.9846 0.1656
vn 0.1102 0.9879 0.1094
vn 0.0840 0.9961 0.0280
vn -0.0404 0.9984 0.0405
vn -0.0808 0.9967 -0.0000
vn 0.0677 0.9934 0.0927
vn 0.0712 0.9957 0.0591
vn 0.0000 0.9941 -0.1087
vn 0.1001 0.9947 -0.0213
vn -0.0273 0.9963 -0.0815
vn -0.0877 0.9959 -0.0215
vn -0.0672 0.9955 0.0674
vn -0.1412 0.9863 0.0858
vn 0.0000 0.9651 0.2618
vn -0.0460 0.9979 0.0448
vn 0.0664 0.9782 0.1970
vn 0.0796 0.9964 -0.0278
vn 0.0745 0.9955 0.0594
vn 0.0308 0.9990 -0.0309
vn 0.0720 0.9932 0.0913
vn -0.0527 0.9962 -0.0699
vn -0.0425 0.9991 0.0005
vn 0.0000 0.9962 0.0869
vn -0.0676 0.9977 0.0065
vn 0.0484 0.9981 0.0386
vn 0.0718 0.9971 0.0236
vn -0.0265 0.9965 -0.0790
vn 0.0320 0.9994 0.0105
vn -0.0798 0.9965 -0.0265
vn -0.0573 0.9980 -0.0253
vn 0.1141 0.9898 0.0847
vn -0.2091 0.9640 -0.1643
vn 0.0394 0.9984 -0.0395
vn 0.1126 0.9929 0.0377
vn 0.0125 0.9992 0.0373
vn -0.0125 0.9998 0.0125
vn -0.0840 0.9961 -0.0280
vn -0.1102 0.9879 -0.1094
vn 0.0843 0.9930 -0.0834
vn 0.1117 0.9937 -0.0000
vn 0.0393 0.9991 0.0134
vn 0.1323 0.9898 0.0537
vn -0.1644 0.9857 0.0366
vn -0.1214 0.9913 0.0514
vn 0.1253 0.9910 -0.0461
vn 0.0955 0.9909 -0.0947
vn -0.1343 0.9894 -0.0558
vn 0.0241 0.9969 0.0753
vn 0.0592 0.9964 0.0608
vn -0.0261 0.9995 -0.0172
vn 0.0330 0.9989 -0.0326
vn 0.0242 0.9993 0.0286
vn -0.0265 0.9993 0.0266
vn -0.1691 0.9840 -0.0564
vn 0.1063 0.9900 0.0925
vn -0.0564 0.9968 0.0565
vn -0.0386 0.9989 0.0253
vn 0.0386 0.9944 0.0987
vn 0.0344 0.9942 0.1021
vn -0.0149 0.9998 0.0149
vn 0.0000 0.9983 0.0591
vn -0.0131 0.9992 -0.0389
vn -0.0288 0.9962 -0.0825
vn 0.0567 0.9968 0.0563
vn -0.0607 0.9980 -0.0202
vn -0.0194 0.9980 -0.0597
vn 0.0944 0.9947 0.0408
vn -0.0865 0.9959 0.0256
vn -0.0447 0.9953 -0.0860
vn 0.0635 0.9947 -0.0811
vn 0.0784 0.9920 0.0992
vn -0.0986 0.9951 -0.0036
vn -0.0241 0.9969 -0.0753
vn 0.1021 0.9948 -0.0000
vn -0.0109 0.9994 -0.0326
vn -0.0084 0.9999 0.0084
vn 0.0192 0.9982 0.0573
vn -0.0305 0.9991 0.0309
vn -0.0284 0.9993 -0.0242
vn 0.0437 0.9989 0.0157
vn -0.1373 0.9905 -0.0000
vn -0.1038 0.9893 0.1027
vn 0.0000 0.9907 0.1363
vn 0.1346 0.9819 0.1336
vn 0.0437 0.9984 0.0348
vn -0.0448 0.9980 0.0443
vn 0.0593 0.9965 0.0589
vn -0.0406 0.9991 -0.0136
vn -0.0000 1.0000 -0.0000
vn 0.0853 0.9960 0.0284
vn -0.0202 0.9980 -0.0600
vn 0.0202 0.9996 -0.0203
vn -0.0286 0.9960 -0.0851
vn -0.0399 0.9979 -0.0519
vn 0.0429 0.9979 0.0489
vn 0.0002 1.0000 0.0005
vn 0.0256 0.9993 -0.0257
vn -0.0771 0.9970 -0.0000
vn -0.0008 0.9971 0.0764
vn 0.1146 0.9869 0.1137
vn -0.1255 0.9921 -0.0000
vn -0.0477 0.9979 0.0444
vn 0.0567 0.9967 0.0583
vn -0.0942 0.9954 0.0146
vn 0.1373 0.9905 -0.0000
vn 0.0929 0.9956 -0.0151
vn -0.0593 0.9965 -0.0589
vn 0.0448 0.9980 -0.0443
vn 0.0595 0.9982 -0.0000
vn -0.0284 0.9960 -0.0844
vn 0.0285 0.9992 -0.0286
vn -0.0228 0.9974 -0.0679
vn -0.0544 0.9973 -0.0488
vn 0.0772 0.9967 0.0257
vn -0.0164 0.9980 -0.0612
vn -0.1131 0.9763 -0.1846
vn 0.0386 0.9985 -0.0385
vn -0.1706 0.9843 0.0455
vn -0.0259 0.9980 0.0578
vn 0.0430 0.9981 -0.0452
vn -0.0799 0.9968 -0.0000
vn -0.0148 0.9989 -0.0442
vn 0.0000 0.9983 -0.0591
vn 0.0149 0.9998 -0.0149
vn -0.0257 0.9967 -0.0764
vn 0.0258 0.9993 -0.0259
vn 0.1177 0.9920 0.0462
vn -0.0097 0.9994 -0.0335
vn -0.2427 0.9573 -0.1569
vn -0.2272 0.9709 -0.0760
vn -0.0101 0.9992 -0.0382
vn 0.1134 0.9933 -0.0212
vn -0.0885 0.9949 -0.0493
vn -0.1346 0.9819 -0.1336
vn 0.0000 0.9907 -0.1363
vn 0.1038 0.9893 -0.1027
vn -0.0283 0.9992 0.0283
vn 0.0281 0.9961 0.0835
vn -0.0198 0.9996 0.0198
vn 0.0197 0.9981 0.0588
vn -0.0154 0.9999 -0.0051
vn 0.0401 0.9921 0.1190
vn -0.0525 0.9942 0.0937
vn -0.0382 0.9928 -0.1131
vn 0.0386 0.9985 -0.0387
vn -0.0344 0.9942 -0.1021
vn 0.0347 0.9988 -0.0348
vn -0.0844 0.9960 -0.0281
vn 0.0844 0.9960 0.0281
vn -0.0594 0.9980 -0.0198
vn 0.0253 0.9982 0.0543
vn 0.0000 0.9909 0.1344
vn 0.0289 0.9959 0.0856
vn 0.0102 0.9999 -0.0102
vn 0.0194 0.9996 0.0193
vn -0.0232 0.9995 0.0232
vn 0.0000 0.9958 0.0917
vn 0.0231 0.9974 0.0687
vn -0.0281 0.9961 -0.0835
vn 0.0283 0.9992 -0.0283
vn -0.0197 0.9981 -0.0588
vn -0.0821 0.9952 -0.0541
vn -0.1004 0.9945 -0.0307
vn 0.1004 0.9945 0.0307
vn 0.2027 0.9769 0.0677
vn 0.1190 0.9929 -0.0023
vn -0.0055 0.9993 -0.0375
vn -0.0553 0.9983 0.0195
vn -0.0689 0.9974 -0.0220
vn 0.0689 0.9974 0.0220
vn 0.0694 0.9973 0.0231
vn -0.0207 0.9996 0.0207
vn 0.0206 0.9979 0.0615
vn -0.0312 0.9990 0.0313
vn 0.0310 0.9953 0.0921
vn -0.0340 0.9943 -0.1007
vn 0.0000 0.9909 -0.1344
vn 0.0685 0.9953 -0.0686
vn 0.1800 0.9834 0.0213
vn -0.0029 0.9999 -0.0137
vn -0.0593 0.9981 -0.0194
vn 0.0200 0.9983 -0.0546
vn 0.0000 0.9958 -0.0917
vn 0.0232 0.9995 -0.0232
vn -0.0621 0.9979 -0.0207
vn 0.0621 0.9979 0.0207
vn -0.0931 0.9952 -0.0311
vn -0.0157 0.9998 0.0157
vn 0.0919 0.9915 0.0923
vn 0.0156 0.9988 0.0465
vn 0.0000 0.9992 -0.0388
vn 0.0484 0.9983 0.0336
vn -0.0528 0.9958 -0.0751
vn 0.0142 0.9998 -0.0143
vn -0.0206 0.9979 -0.0615
vn -0.0038 1.0000 0.0038
vn 0.0244 0.9971 0.0727
vn -0.0769 0.9913 -0.1065
vn -0.0151 0.9988 -0.0469
vn 0.0468 0.9988 0.0153
vn 0.0939 0.9951 0.0312
vn 0.0539 0.9984 0.0179
vn -0.0346 0.9988 0.0347
vn -0.0183 0.9960 0.0879
vn -0.0735 0.9970 -0.0245
vn 0.0735 0.9970 0.0245
vn -0.0156 0.9988 -0.0465
vn 0.0000 0.9981 -0.0621
vn 0.0312 0.9990 -0.0313
vn -0.0891 0.9959 0.0176
vn -0.0171 0.9997 0.0172
vn 0.1061 0.9937 0.0355
vn -0.0244 0.9971 -0.0727
vn 0.0245 0.9994 -0.0246
vn -0.0185 0.9997 0.0186
vn 0.0185 0.9983 0.0551
vn -0.0844 0.9928 0.0846
vn 0.0192 0.9892 0.1454
vn 0.0000 0.9960 0.0898
vn -0.0129 0.9992 -0.0378
vn 0.0357 0.9987 -0.0358
vn 0.0296 0.9991 -0.0297
vn -0.0294 0.9957 -0.0874
vn -0.0557 0.9983 -0.0185
vn 0.1113 0.9931 0.0370
vn -0.2472 0.9654 -0.0829
vn -0.0621 0.9979 -0.0180
vn 0.0611 0.9979 0.0200
vn 0.0675 0.9975 0.0216
vn 0.0950 0.9955 -0.0044
vn -0.0268 0.9965 -0.0797
vn -0.0211 0.9996 0.0211
vn 0.0000 0.9965 0.0836
vn 0.1093 0.9897 0.0921
vn -0.1067 0.9942 -0.0110
vn -0.0002 1.0000 -0.0006
vn 0.0371 0.9986 -0.0372
vn -0.0417 0.9915 -0.1232
vn 0.0193 0.9938 -0.1091
vn 0.0000 0.9960 -0.0898
vn 0.1033 0.9946 0.0041
vn -0.0806 0.9964 -0.0268
vn 0.0439 0.9981 -0.0440
vn -0.0433 0.9908 -0.1280
vn -0.0835 0.9932 -0.0811
vn -0.0629 0.9978 -0.0203
vn 0.0629 0.9978 0.0203
vn 0.0928 0.9898 0.1084
vn -0.0848 0.9963 0.0114
vn 0.1100 0.9933 0.0366
vn -0.0468 0.9978 0.0469
vn 0.0000 0.9957 0.0926
vn 0.0233 0.9973 0.0694
vn 0.0268 0.9965 0.0797
vn -0.0679 0.9954 0.0680
vn 0.0404 0.9920 0.1196
vn 0.1293 0.9907 0.0434
vn -0.1293 0.9907 -0.0434
vn 0.0607 0.9980 0.0202
vn -0.0000 1.0000 0.0000
vn -0.0817 0.9932 -0.0828
vn 0.0000 0.9965 -0.0836
vn 0.0211 0.9996 -0.0211
vn 0.0178 0.9997 -0.0178
vn -0.0360 0.9936 -0.1073
vn 0.0366 0.9987 -0.0367
vn -0.1399 0.9891 -0.0466
vn -0.0696 0.9973 -0.0222
vn 0.0696 0.9973 0.0222
vn 0.0513 0.9978 0.0424
vn 0.0000 0.9972 0.0750
vn 0.0188 0.9982 0.0562
vn -0.1209 0.9918 -0.0405
vn 0.1209 0.9918 0.0405
vn -0.0213 0.9995 0.0214
vn 0.0213 0.9978 0.0634
vn 0.0433 0.9908 0.1280
vn -0.0439 0.9981 0.0440
vn -0.0061 0.9962 0.0864
vn 0.0058 0.9952 0.0979
vn -0.0458 0.9979 0.0459
vn 0.0000 0.9841 0.1776
vn 0.0989 0.9836 0.1507
vn -0.1069 0.9936 -0.0355
vn -0.0233 0.9973 -0.0694
vn 0.0000 0.9957 -0.0926
vn -0.0334 0.9985 -0.0424
vn -0.0565 0.9982 -0.0183
vn 0.0565 0.9982 0.0183
vn 0.0568 0.9982 0.0189
vn -0.0404 0.9920 -0.1196
vn 0.0409 0.9983 -0.0410
vn -0.0852 0.9964 -0.0000
vn 0.0204 0.9978 0.0630
vn 0.0641 0.9977 0.0213
vn -0.1043 0.9945 -0.0000
vn 0.0246 0.9967 0.0769
vn -0.0565 0.9982 -0.0192
vn -0.1314 0.9906 -0.0379
vn 0.1314 0.9906 0.0379
vn 0.1521 0.9835 0.0984
vn -0.0356 0.9987 0.0357
vn -0.0393 0.9984 0.0394
vn 0.0000 0.9969 0.0781
vn 0.0196 0.9981 0.0585
vn -0.0188 0.9982 -0.0562
vn 0.0000 0.9972 -0.0750
vn 0.0189 0.9996 -0.0189
vn -0.0641 0.9977 -0.0213
vn -0.0204 0.9978 -0.0630
vn 0.0852 0.9964 -0.0000
vn -0.0784 0.9966 -0.0261
vn -0.0246 0.9967 -0.0769
vn 0.1043 0.9945 -0.0000
vn -0.0451 0.9901 -0.1332
vn 0.0000 0.9841 -0.1776
vn 0.0316 0.9990 -0.0317
vn 0.0000 0.9984 0.0564
vn -0.1568 0.9876 -0.0000
vn -0.0592 0.9965 0.0586
vn 0.0781 0.9939 0.0775
vn 0.0591 0.9981 0.0197
vn -0.0236 0.9994 0.0236
vn 0.0235 0.9973 0.0700
vn -0.0213 0.9978 -0.0634
vn 0.0213 0.9995 -0.0214
vn -0.0259 0.9993 0.0259
vn 0.0258 0.9967 0.0766
vn -0.0347 0.9988 0.0348
vn 0.0344 0.9942 0.1020
vn -0.0261 0.9966 -0.0776
vn 0.0018 1.0000 -0.0018
vn 0.0243 0.9971 0.0724
vn -0.0204 0.9996 0.0205
vn -0.0366 0.9975 0.0607
vn -0.0855 0.9959 0.0280
vn -0.1180 0.9922 -0.0393
vn -0.0781 0.9939 -0.0775
vn 0.0322 0.9990 -0.0315
vn 0.0778 0.9913 0.1060
vn 0.0269 0.9964 0.0800
vn -0.0709 0.9950 0.0701
vn 0.0224 0.9973 0.0695
vn 0.0707 0.9972 0.0235
vn -0.0346 0.9988 0.0346
vn 0.0343 0.9942 0.1016
vn -0.0273 0.9993 0.0274
vn -0.0508 0.9972 0.0554
vn 0.0775 0.9967 0.0258
vn -0.1371 0.9906 -0.0000
vn 0.0310 0.9945 0.1005
vn 0.1031 0.9941 0.0344
vn -0.0973 0.9953 -0.0000
vn 0.0231 0.9972 0.0718
vn 0.0119 0.9999 0.0040
vn -0.0420 0.9990 -0.0135
vn 0.0096 0.9998 -0.0155
vn -0.0196 0.9981 -0.0585
vn -0.0797 0.9914 -0.1041
vn -0.0604 0.9972 -0.0448
vn 0.0802 0.9965 0.0253
vn 0.0102 0.9999 0.0034
vn -0.0702 0.9973 -0.0224
vn 0.0473 0.9978 -0.0465
vn 0.0941 0.9956 -0.0000
vn -0.1027 0.9941 -0.0343
vn 0.1027 0.9941 0.0343
vn -0.0816 0.9963 -0.0272
vn 0.0563 0.9972 -0.0499
vn 0.0259 0.9993 -0.0259
vn -0.1031 0.9941 -0.0344
vn -0.0310 0.9945 -0.1005
vn 0.1371 0.9906 -0.0000
vn -0.0732 0.9970 -0.0244
vn -0.0231 0.9972 -0.0718
vn 0.1141 0.9933 -0.0169
vn -0.0371 0.9932 -0.1107
vn 0.0124 0.9975 -0.0688
vn -0.0537 0.9857 -0.1596
vn 0.0000 0.9772 -0.2125
vn 0.0541 0.9971 -0.0542
vn -0.0469 0.9891 -0.1396
vn 0.0000 0.9826 -0.1860
vn 0.0472 0.9978 -0.0473
vn -0.0682 0.9769 -0.2023
vn 0.0691 0.9952 -0.0693
vn -0.0541 0.9855 -0.1610
vn 0.0546 0.9970 -0.0547
vn -0.0684 0.9768 -0.2030
vn 0.0694 0.9952 -0.0695
vn -0.0485 0.9883 -0.1444
vn 0.1161 0.9920 -0.0489
vn -0.0329 0.9944 -0.1002
vn -0.0678 0.9954 -0.0672
# 412 vertex normals

vt 0.9595 0.0005 0.0000
vt 0.9995 0.0005 0.0000
vt 0.9995 0.0401 0.0000
vt 0.9595 0.0401 0.0000
vt 0.9995 0.0798 0.0000
vt 0.9595 0.0798 0.0000
vt 0.9995 0.1194 0.0000
vt 0.9595 0.1194 0.0000
vt 0.9995 0.1591 0.0000
vt 0.9595 0.1591 0.0000
vt 0.9995 0.1987 0.0000
vt 0.9595 0.1987 0.0000
vt 0.9995 0.2384 0.0000
vt 0.9595 0.2384 0.0000
vt 0.9995 0.2780 0.0000
vt 0.9595 0.2780 0.0000
vt 0.9995 0.3177 0.0000
vt 0.9595 0.3177 0.0000
vt 0.9995 0.3573 0.0000
vt 0.9595 0.3573 0.0000
vt 0.9995 0.3970 0.0000
vt 0.9595 0.3970 0.0000
vt 0.9995 0.4366 0.0000
vt 0.9595 0.4366 0.0000
vt 0.9995 0.4763 0.0000
vt 0.9595 0.4763 0.0000
vt 0.9995 0.5159 0.0000
vt 0.9595 0.5159 0.0000
vt 0.9995 0.5556 0.0000
vt 0.9595 0.5556 0.0000
vt 0.9995 0.5952 0.0000
vt 0.9595 0.5952 0.0000
vt 0.9995 0.6349 0.0000
vt 0.9595 0.6349 0.0000
vt 0.9995 0.6745 0.0000
vt 0.9595 0.6745 0.0000
vt 0.9995 0.7142 0.0000
vt 0.9595 0.7142 0.0000
vt 0.9995 0.7538 0.0000
vt 0.9595 0.7538 0.0000
vt 0.9995 0.7935 0.0000
vt 0.9595 0.7935 0.0000
vt 0.9995 0.8331 0.0000
vt 0.9595 0.8331 0.0000
vt 0.9995 0.8728 0.0000
vt 0.9595 0.8728 0.0000
vt 0.9995 0.9124 0.0000
vt 0.9595 0.9124 0.0000
vt 0.9995 0.9521 0.0000
vt 0.9595 0.9521 0.0000
vt 0.9995 0.9917 0.0000
vt 0.9595 0.9917 0.0000
vt 0.9196 0.0005 0.0000
vt 0.9196 0.0401 0.0000
vt 0.9196 0.0798 0.0000
vt 0.9196 0.1194 0.0000
vt 0.9196 0.1591 0.0000
vt 0.9196 0.1987 0.0000
vt 0.9196 0.2384 0.0000
vt 0.9196 0.2780 0.0000
vt 0.9196 0.3177 0.0000
vt 0.9196 0.3573 0.0000
vt 0.9196 0.3970 0.0000
vt 0.9196 0.4366 0.0000
vt 0.9196 0.4763 0.0000
vt 0.9196 0.5159 0.0000
vt 0.9196 0.5556 0.0000
vt 0.9196 0.5952 0.0000
vt 0.9196 0.6349 0.0000
vt 0.9196 0.6745 0.0000
vt 0.9196 0.7142 0.0000
vt 0.9196 0.7538 0.0000
vt 0.9196 0.7935 0.0000
vt 0.9196 0.8331 0.0000
vt 0.9196 0.8728 0.0000
vt 0.9196 0.9124 0.0000
vt 0.9196 0.9521 0.0000
vt 0.9196 0.9917 0.0000
vt 0.8796 0.0005 0.0000
vt 0.8796 0.0401 0.0000
vt 0.8796 0.0798 0.0000
vt 0.8796 0.1194 0.0000
vt 0.8796 0.1591 0.0000
vt 0.8796 0.1987 0.0000
vt 0.8796 0.2384 0.0000
vt 0.8796 0.2780 0.0000
vt 0.8796 0.3177 0.0000
vt 0.8796 0.3573 0.0000
vt 0.8796 0.3970 0.0000
vt 0.8796 0.4366 0.0000
vt 0.8796 0.4763 0.0000
vt 0.8796 0.5159 0.0000
vt 0.8796 0.5556 0.0000
vt 0.8796 0.5952 0.0000
vt 0.8796 0.6349 0.0000
vt 0.8796 0.6745 0.0000
vt 0.8796 0.7142 0.0000
vt 0.8796 0.7538 0.0000
vt 0.8796 0.7935 0.0000
vt 0.8796 0.8331 0.0000
vt 0.8796 0.8728 0.0000
vt 0.8796 0.9124 0.0000
vt 0.8796 0.9521 0.0000
vt 0.8796 0.9917 0.0000
vt 0.8397 0.0005 0.0000
vt 0.8397 0.0401 0.0000
vt 0.8397 0.0798 0.0000
vt 0.8397 0.1194 0.0000
vt 0.8397 0.1591 0.0000
vt 0.8397 0.1987 0.0000
vt 0.8397 0.2384 0.0000
vt 0.8397 0.2780 0.0000
vt 0.8397 0.3177 0.0000
vt 0.8397 0.3573 0.0000
vt 0.8397 0.3970 0.0000
vt 0.8397 0.4366 0.0000
vt 0.8397 0.4763 0.0000
vt 0.8397 0.5159 0.0000
vt 0.8397 0.5556 0.0000
vt 0.8397 0.5952 0.0000
vt 0.8397 0.6349 0.0000
vt 0.8397 0.6745 0.0000
vt 0.8397 0.7142 0.0000
vt 0.8397 0.7538 0.0000
vt 0.8397 0.7935 0.0000
vt 0.8397 0.8331 0.0000
vt 0.8397 0.8728 0.0000
vt 0.8397 0.9124 0.0000
vt 0.8397 0.9521 0.0000
vt 0.8397 0.9917 0.0000
vt 0.7997 0.0005 0.0000
vt 0.7997 0.0384 0.0000
vt 0.7997 0.0781 0.0000
vt 0.7997 0.1194 0.0000
vt 0.7997 0.1591 0.0000
vt 0.7997 0.1987 0.0000
vt 0.7997 0.2384 0.0000
vt 0.7997 0.2780 0.0000
vt 0.7997 0.3177 0.0000
vt 0.7997 0.3573 0.0000
vt 0.7997 0.3970 0.0000
vt 0.7997 0.4366 0.0000
vt 0.7997 0.4763 0.0000
vt 0.7997 0.5159 0.0000
vt 0.7997 0.5556 0.0000
vt 0.7997 0.5952 0.0000
vt 0.7997 0.6349 0.0000
vt 0.7997 0.6745 0.0000
vt 0.7997 0.7142 0.0000
vt 0.7997 0.7538 0.0000
vt 0.7997 0.7935 0.0000
vt 0.7997 0.8331 0.0000
vt 0.7997 0.8728 0.0000
vt 0.7997 0.9124 0.0000
vt 0.7997 0.9521 0.0000
vt 0.7997 0.9917 0.0000
vt 0.7597 0.0005 0.0000
vt 0.7597 0.0384 0.0000
vt 0.7597 0.0781 0.0000
vt 0.7597 0.1194 0.0000
vt 0.7597 0.1591 0.0000
vt 0.7597 0.1987 0.0000
vt 0.7597 0.2384 0.0000
vt 0.7597 0.2780 0.0000
vt 0.7597 0.3177 0.0000
vt 0.7597 0.3573 0.0000
vt 0.7597 0.3970 0.0000
vt 0.7597 0.4366 0.0000
vt 0.7597 0.4763 0.0000
vt 0.7597 0.5159 0.0000
vt 0.7597 0.5556 0.0000
vt 0.7597 0.5952 0.0000
vt 0.7597 0.6349 0.0000
vt 0.7597 0.6745 0.0000
vt 0.7597 0.7142 0.0000
vt 0.7597 0.7538 0.0000
vt 0.7597 0.7935 0.0000
vt 0.7597 0.8331 0.0000
vt 0.7597 0.8728 0.0000
vt 0.7597 0.9124 0.0000
vt 0.7597 0.9521 0.0000
vt 0.7597 0.9917 0.0000
vt 0.7198 0.0005 0.0000
vt 0.7198 0.0401 0.0000
vt 0.7198 0.0798 0.0000
vt 0.7198 0.1194 0.0000
vt 0.7198 0.1591 0.0000
vt 0.7198 0.1987 0.0000
vt 0.7198 0.2384 0.0000
vt 0.7198 0.2780 0.0000
vt 0.7198 0.3177 0.0000
vt 0.7198 0.3573 0.0000
vt 0.7198 0.3970 0.0000
vt 0.7198 0.4366 0.0000
vt 0.7198 0.4763 0.0000
vt 0.7198 0.5159 0.0000
vt 0.7198 0.5556 0.0000
vt 0.7198 0.5952 0.0000
vt 0.7198 0.6349 0.0000
vt 0.7198 0.6745 0.0000
vt 0.7198 0.7142 0.0000
vt 0.7198 0.7538 0.0000
vt 0.7198 0.7935 0.0000
vt 0.7198 0.8331 0.0000
vt 0.7198 0.8728 0.0000
vt 0.7198 0.9124 0.0000
vt 0.7198 0.9521 0.0000
vt 0.7198 0.9917 0.0000
vt 0.6798 0.0005 0.0000
vt 0.6798 0.0401 0.0000
vt 0.6798 0.0798 0.0000
vt 0.6798 0.1194 0.0000
vt 0.6798 0.1591 0.0000
vt 0.6798 0.1987 0.0000
vt 0.6798 0.2384 0.0000
vt 0.6798 0.2780 0.0000
vt 0.6798 0.3177 0.0000
vt 0.6798 0.3573 0.0000
vt 0.6798 0.3970 0.0000
vt 0.6798 0.4366 0.0000
vt 0.6798 0.4763 0.0000
vt 0.6798 0.5159 0.0000
vt 0.6798 0.5556 0.0000
vt 0.6798 0.5952 0.0000
vt 0.6798 0.6349 0.0000
vt 0.6798 0.6745 0.0000
vt 0.6798 0.7142 0.0000
vt 0.6798 0.7538 0.0000
vt 0.6798 0.7935 0.0000
vt 0.6798 0.8331 0.0000
vt 0.6798 0.8728 0.0000
vt 0.6798 0.9124 0.0000
vt 0.6798 0.9521 0.0000
vt 0.6798 0.9917 0.0000
vt 0.6399 0.0005 0.0000
vt 0.6399 0.0401 0.0000
vt 0.6399 0.0798 0.0000
vt 0.6399 0.1194 0.0000
vt 0.6399 0.1591 0.0000
vt 0.6399 0.1987 0.0000
vt 0.6399 0.2384 0.0000
vt 0.6399 0.2780 0.0000
vt 0.6399 0.3177 0.0000
vt 0.6399 0.3573 0.0000
vt 0.6399 0.3970 0.0000
vt 0.6399 0.4366 0.0000
vt 0.6399 0.4763 0.0000
vt 0.6399 0.5159 0.0000
vt 0.6399 0.5556 0.0000
vt 0.6399 0.5952 0.0000
vt 0.6399 0.6349 0.0000
vt 0.6399 0.6745 0.0000
vt 0.6399 0.7142 0.0000
vt 0.6399 0.7538 0.0000
vt 0.6399 0.7935 0.0000
vt 0.6399 0.8331 0.0000
vt 0.6399 0.8728 0.0000
vt 0.6399 0.9124 0.0000
vt 0.6399 0.9521 0.0000
vt 0.6399 0.9917 0.0000
vt 0.5999 0.0005 0.0000
vt 0.5999 0.0401 0.0000
vt 0.5999 0.0798 0.0000
vt 0.5999 0.1194 0.0000
vt 0.5999 0.1591 0.0000
vt 0.5999 0.1987 0.0000
vt 0.5999 0.2384 0.0000
vt 0.5999 0.2780 0.0000
vt 0.5999 0.3177 0.0000
vt 0.5999 0.3573 0.0000
vt 0.5999 0.3970 0.0000
vt 0.5999 0.4366 0.0000
vt 0.5999 0.4763 0.0000
vt 0.5999 0.5159 0.0000
vt 0.5999 0.5556 0.0000
vt 0.5999 0.5952 0.0000
vt 0.5999 0.6349 0.0000
vt 0.5999 0.6745 0.0000
vt 0.5999 0.7142 0.0000
vt 0.5999 0.7538 0.0000
vt 0.5999 0.7935 0.0000
vt 0.5999 0.8331 0.0000
vt 0.5999 0.8728 0.0000
vt 0.5999 0.9124 0.0000
vt 0.5999 0.9521 0.0000
vt 0.5999 0.9917 0.0000
vt 0.5599 0.0005 0.0000
vt 0.5599 0.0401 0.0000
vt 0.5599 0.0798 0.0000
vt 0.5599 0.1194 0.0000
vt 0.5599 0.1591 0.0000
vt 0.5599 0.1987 0.0000
vt 0.5599 0.2384 0.0000
vt 0.5599 0.2780 0.0000
vt 0.5599 0.3177 0.0000
vt 0.5599 0.3573 0.0000
vt 0.5599 0.3970 0.0000
vt 0.5599 0.4366 0.0000
vt 0.5599 0.4763 0.0000
vt 0.5599 0.5159 0.0000
vt 0.5599 0.5556 0.0000
vt 0.5599 0.5952 0.0000
vt 0.5599 0.6349 0.0000
vt 0.5599 0.6745 0.0000
vt 0.5599 0.7142 0.0000
vt 0.5599 0.7538 0.0000
vt 0.5599 0.7935 0.0000
vt 0.5599 0.8331 0.0000
vt 0.5599 0.8728 0.0000
vt 0.5599 0.9124 0.0000
vt 0.5599 0.9521 0.0000
vt 0.5599 0.9917 0.0000
vt 0.5200 0.0005 0.0000
vt 0.5200 0.0401 0.0000
vt 0.5200 0.0798 0.0000
vt 0.5200 0.1194 0.0000
vt 0.5200 0.1591 0.0000
vt 0.5200 0.1987 0.0000
vt 0.5200 0.2384 0.0000
vt 0.5200 0.2780 0.0000
vt 0.5200 0.3177 0.0000
vt 0.5200 0.3573 0.0000
vt 0.5200 0.3970 0.0000
vt 0.5200 0.4366 0.0000
vt 0.5200 0.4763 0.0000
vt 0.5200 0.5159 0.0000
vt 0.5200 0.5556 0.0000
vt 0.5200 0.5952 0.0000
vt 0.5200 0.6349 0.0000
vt 0.5200 0.6745 0.0000
vt 0.5200 0.7142 0.0000
vt 0.5200 0.7538 0.0000
vt 0.5200 0.7935 0.0000
vt 0.5200 0.8331 0.0000
vt 0.5200 0.8728 0.0000
vt 0.5200 0.9124 0.0000
vt 0.5200 0.9521 0.0000
vt 0.5200 0.9917 0.0000
vt 0.4800 0.0005 0.0000
vt 0.4800 0.0401 0.0000
vt 0.4800 0.0798 0.0000
vt 0.4800 0.1194 0.0000
vt 0.4800 0.1591 0.0000
vt 0.4800 0.1987 0.0000
vt 0.4800 0.2384 0.0000
vt 0.4800 0.2780 0.0000
vt 0.4800 0.3177 0.0000
vt 0.4800 0.3573 0.0000
vt 0.4800 0.3970 0.0000
vt 0.4800 0.4366 0.0000
vt 0.4800 0.4763 0.0000
vt 0.4800 0.5159 0.0000
vt 0.4800 0.5556 0.0000
vt 0.4800 0.5952 0.0000
vt 0.4800 0.6349 0.0000
vt 0.4800 0.6745 0.0000
vt 0.4800 0.7142 0.0000
vt 0.4800 0.7538 0.0000
vt 0.4800 0.7935 0.0000
vt 0.4800 0.8331 0.0000
vt 0.4800 0.8728 0.0000
vt 0.4800 0.9124 0.0000
vt 0.4800 0.9521 0.0000
vt 0.4800 0.9917 0.0000
vt 0.4401 0.0005 0.0000
vt 0.4401 0.0401 0.0000
vt 0.4401 0.0798 0.0000
vt 0.4401 0.1194 0.0000
vt 0.4401 0.1591 0.0000
vt 0.4401 0.1987 0.0000
vt 0.4401 0.2384 0.0000
vt 0.4401 0.2780 0.0000
vt 0.4401 0.3177 0.0000
vt 0.4401 0.3573 0.0000
vt 0.4401 0.3970 0.0000
vt 0.4401 0.4366 0.0000
vt 0.4401 0.4763 0.0000
vt 0.4401 0.5159 0.0000
vt 0.4401 0.5556 0.0000
vt 0.4401 0.5952 0.0000
vt 0.4401 0.6349 0.0000
vt 0.4401 0.6745 0.0000
vt 0.4401 0.7142 0.0000
vt 0.4401 0.7538 0.0000
vt 0.4401 0.7935 0.0000
vt 0.4401 0.8331 0.0000
vt 0.4401 0.8728 0.0000
vt 0.4401 0.9124 0.0000
vt 0.4401 0.9521 0.0000
vt 0.4401 0.9917 0.0000
vt 0.4001 0.0005 0.0000
vt 0.4001 0.0401 0.0000
vt 0.4001 0.0798 0.0000
vt 0.4001 0.1194 0.0000
vt 0.4001 0.1591 0.0000
vt 0.4001 0.1987 0.0000
vt 0.4001 0.2384 0.0000
vt 0.4001 0.2780 0.0000
vt 0.4001 0.3177 0.0000
vt 0.4001 0.3573 0.0000
vt 0.4001 0.3970 0.0000
vt 0.4001 0.4366 0.0000
vt 0.4001 0.4763 0.0000
vt 0.4001 0.5159 0.0000
vt 0.4001 0.5556 0.0000
vt 0.4001 0.5952 0.0000
vt 0.4001 0.6349 0.0000
vt 0.4001 0.6745 0.0000
vt 0.4001 0.7142 0.0000
vt 0.4001 0.7538 0.0000
vt 0.4001 0.7935 0.0000
vt 0.4001 0.8331 0.0000
vt 0.4001 0.8728 0.0000
vt 0.4001 0.9124 0.0000
vt 0.4001 0.9521 0.0000
vt 0.4001 0.9917 0.0000
vt 0.3601 0.0005 0.0000
vt 0.3601 0.0401 0.0000
vt 0.3601 0.0798 0.0000
vt 0.3601 0.1194 0.0000
vt 0.3601 0.1591 0.0000
vt 0.3601 0.1987 0.0000
vt 0.3601 0.2384 0.0000
vt 0.3601 0.2780 0.0000
vt 0.3601 0.3177 0.0000
vt 0.3601 0.3573 0.0000
vt 0.3601 0.3970 0.0000
vt 0.3601 0.4366 0.0000
vt 0.3601 0.4763 0.0000
vt 0.3601 0.5159 0.0000
vt 0.3601 0.5556 0.0000
vt 0.3601 0.5952 0.0000
vt 0.3601 0.6349 0.0000
vt 0.3601 0.6745 0.0000
vt 0.3601 0.7142 0.0000
vt 0.3601 0.7538 0.0000
vt 0.3601 0.7935 0.0000
vt 0.3601 0.8331 0.0000
vt 0.3601 0.8728 0.0000
vt 0.3601 0.9124 0.0000
vt 0.3601 0.9521 0.0000
vt 0.3601 0.9917 0.0000
vt 0.3202 0.0005 0.0000
vt 0.3202 0.0401 0.0000
vt 0.3202 0.0798 0.0000
vt 0.3202 0.1194 0.0000
vt 0.3202 0.1591 0.0000
vt 0.3202 0.1987 0.0000
vt 0.3202 0.2384 0.0000
vt 0.3202 0.2780 0.0000
vt 0.3202 0.3177 0.0000
vt 0.3202 0.3573 0.0000
vt 0.3202 0.3970 0.0000
vt 0.3202 0.4366 0.0000
vt 0.3202 0.4763 0.0000
vt 0.3202 0.5159 0.0000
vt 0.3202 0.5556 0.0000
vt 0.3202 0.5952 0.0000
vt 0.3202 0.6349 0.0000
vt 0.3202 0.6745 0.0000
vt 0.3202 0.7142 0.0000
vt 0.3202 0.7538 0.0000
vt 0.3202 0.7935 0.0000
vt 0.3202 0.8331 0.0000
vt 0.3202 0.8728 0.0000
vt 0.3202 0.9124 0.0000
vt 0.3202 0.9521 0.0000
vt 0.3202 0.9917 0.0000
vt 0.2802 0.0005 0.0000
vt 0.2802 0.0401 0.0000
vt 0.2802 0.0798 0.0000
vt 0.2802 0.1194 0.0000
vt 0.2802 0.1591 0.0000
vt 0.2802 0.1987 0.0000
vt 0.2802 0.2384 0.0000
vt 0.2802 0.2780 0.0000
vt 0.2802 0.3177 0.0000
vt 0.2802 0.3573 0.0000
vt 0.2802 0.3970 0.0000
vt 0.2802 0.4366 0.0000
vt 0.2802 0.4763 0.0000
vt 0.2802 0.5159 0.0000
vt 0.2802 0.5556 0.0000
vt 0.2802 0.5952 0.0000
vt 0.2802 0.6349 0.0000
vt 0.2802 0.6745 0.0000
vt 0.2802 0.7142 0.0000
vt 0.2802 0.7538 0.0000
vt 0.2802 0.7935 0.0000
vt 0.2802 0.8331 0.0000
vt 0.2802 0.8728 0.0000
vt 0.2802 0.9124 0.0000
vt 0.2802 0.9521 0.0000
vt 0.2802 0.9917 0.0000
vt 0.2403 0.0005 0.0000
vt 0.2403 0.0401 0.0000
vt 0.2403 0.0798 0.0000
vt 0.2403 0.1194 0.0000
vt 0.2403 0.1591 0.0000
vt 0.2403 0.1987 0.0000
vt 0.2403 0.2384 0.0000
vt 0.2403 0.2780 0.0000
vt 0.2403 0.3177 0.0000
vt 0.2403 0.3573 0.0000
vt 0.2403 0.3970 0.0000
vt 0.2403 0.4366 0.0000
vt 0.2403 0.4763 0.0000
vt 0.2403 0.5159 0.0000
vt 0.2403 0.5556 0.0000
vt 0.2403 0.5952 0.0000
vt 0.2403 0.6349 0.0000
vt 0.2403 0.6745 0.0000
vt 0.2403 0.7142 0.0000
vt 0.2403 0.7538 0.0000
vt 0.2403 0.7935 0.0000
vt 0.2403 0.8331 0.0000
vt 0.2403 0.8728 0.0000
vt 0.2403 0.9124 0.0000
vt 0.2403 0.9521 0.0000
vt 0.2403 0.9917 0.0000
vt 0.2003 0.0005 0.0000
vt 0.2003 0.0401 0.0000
vt 0.2003 0.0798 0.0000
vt 0.2003 0.1194 0.0000
vt 0.2003 0.1591 0.0000
vt 0.2003 0.1987 0.0000
vt 0.2003 0.2384 0.0000
vt 0.2003 0.2780 0.0000
vt 0.2003 0.3177 0.0000
vt 0.2003 0.3573 0.0000
vt 0.2003 0.3970 0.0000
vt 0.2003 0.4366 0.0000
vt 0.2003 0.4763 0.0000
vt 0.2003 0.5159 0.0000
vt 0.2003 0.5556 0.0000
vt 0.2003 0.5952 0.0000
vt 0.2003 0.6349 0.0000
vt 0.2003 0.6745 0.0000
vt 0.2003 0.7142 0.0000
vt 0.2003 0.7538 0.0000
vt 0.2003 0.7935 0.0000
vt 0.2003 0.8331 0.0000
vt 0.2003 0.8728 0.0000
vt 0.2003 0.9124 0.0000
vt 0.2003 0.9521 0.0000
vt 0.2003 0.9917 0.0000
vt 0.1603 0.0005 0.0000
vt 0.1603 0.0401 0.0000
vt 0.1603 0.0798 0.0000
vt 0.1603 0.1194 0.0000
vt 0.1603 0.1591 0.0000
vt 0.1603 0.1987 0.0000
vt 0.1603 0.2384 0.0000
vt 0.1603 0.2780 0.0000
vt 0.1603 0.3177 0.0000
vt 0.1603 0.3573 0.0000
vt 0.1603 0.3970 0.0000
vt 0.1603 0.4366 0.0000
vt 0.1603 0.4763 0.0000
vt 0.1603 0.5159 0.0000
vt 0.1603 0.5556 0.0000
vt 0.1603 0.5952 0.0000
vt 0.1603 0.6349 0.0000
vt 0.1603 0.6745 0.0000
vt 0.1603 0.7142 0.0000
vt 0.1603 0.7538 0.0000
vt 0.1603 0.7935 0.0000
vt 0.1603 0.8331 0.0000
vt 0.1603 0.8728 0.0000
vt 0.1603 0.9124 0.0000
vt 0.1603 0.9521 0.0000
vt 0.1603 0.9917 0.0000
vt 0.1204 0.0005 0.0000
vt 0.1204 0.0401 0.0000
vt 0.1204 0.0798 0.0000
vt 0.1204 0.1194 0.0000
vt 0.1204 0.1591 0.0000
vt 0.1204 0.1987 0.0000
vt 0.1204 0.2384 0.0000
vt 0.1204 0.2780 0.0000
vt 0.1204 0.3177 0.0000
vt 0.1204 0.3573 0.0000
vt 0.1204 0.3970 0.0000
vt 0.1204 0.4366 0.0000
vt 0.1204 0.4763 0.0000
vt 0.1204 0.5159 0.0000
vt 0.1204 0.5556 0.0000
vt 0.1204 0.5952 0.0000
vt 0.1204 0.6349 0.0000
vt 0.1204 0.6745 0.0000
vt 0.1204 0.7142 0.0000
vt 0.1204 0.7538 0.0000
vt 0.1204 0.7935 0.0000
vt 0.1204 0.8331 0.0000
vt 0.1204 0.8728 0.0000
vt 0.1204 0.9124 0.0000
vt 0.1204 0.9521 0.0000
vt 0.1204 0.9917 0.0000
vt 0.0804 0.0005 0.0000
vt 0.0804 0.0401 0.0000
vt 0.0804 0.0798 0.0000
vt 0.0804 0.1194 0.0000
vt 0.0804 0.1591 0.0000
vt 0.0804 0.1987 0.0000
vt 0.0804 0.2384 0.0000
vt 0.0804 0.2780 0.0000
vt 0.0804 0.3177 0.0000
vt 0.0804 0.3573 0.0000
vt 0.0804 0.3970 0.0000
vt 0.0804 0.4366 0.0000
vt 0.0804 0.4763 0.0000
vt 0.0804 0.5159 0.0000
vt 0.0804 0.5556 0.0000
vt 0.0804 0.5952 0.0000
vt 0.0804 0.6349 0.0000
vt 0.0804 0.6745 0.0000
vt 0.0804 0.7142 0.0000
vt 0.0804 0.7538 0.0000
vt 0.0804 0.7935 0.0000
vt 0.0804 0.8331 0.0000
vt 0.0804 0.8728 0.0000
vt 0.0804 0.9124 0.0000
vt 0.0804 0.9521 0.0000
vt 0.0804 0.9917 0.0000
vt 0.0405 0.0005 0.0000
vt 0.0405 0.0401 0.0000
vt 0.0405 0.0798 0.0000
vt 0.0405 0.1194 0.0000
vt 0.0405 0.1591 0.0000
vt 0.0405 0.1987 0.0000
vt 0.0405 0.2384 0.0000
vt 0.0405 0.2780 0.0000
vt 0.0405 0.3177 0.0000
vt 0.0405 0.3573 0.0000
vt 0.0405 0.3970 0.0000
vt 0.0405 0.4366 0.0000
vt 0.0405 0.4763 0.0000
vt 0.0405 0.5159 0.0000
vt 0.0405 0.5556 0.0000
vt 0.0405 0.5952 0.0000
vt 0.0405 0.6349 0.0000
vt 0.0405 0.6745 0.0000
vt 0.0405 0.7142 0.0000
vt 0.0405 0.7538 0.0000
vt 0.0405 0.7935 0.0000
vt 0.0405 0.8331 0.0000
vt 0.0405 0.8728 0.0000
vt 0.0405 0.9124 0.0000
vt 0.0405 0.9521 0.0000
vt 0.0405 0.9917 0.0000
vt 0.0005 0.0005 0.0000
vt 0.0005 0.0401 0.0000
vt 0.0005 0.0798 0.0000
vt 0.0005 0.1194 0.0000
vt 0.0005 0.1591 0.0000
vt 0.0005 0.1987 0.0000
vt 0.0005 0.2384 0.0000
vt 0.0005 0.2780 0.0000
vt 0.0005 0.3177 0.0000
vt 0.0005 0.3573 0.0000
vt 0.0005 0.3970 0.0000
vt 0.0005 0.4366 0.0000
vt 0.0005 0.4763 0.0000
vt 0.0005 0.5159 0.0000
vt 0.0005 0.5556 0.0000
vt 0.0005 0.5952 0.0000
vt 0.0005 0.6349 0.0000
vt 0.0005 0.6745 0.0000
vt 0.0005 0.7142 0.0000
vt 0.0005 0.7538 0.0000
vt 0.0005 0.7935 0.0000
vt 0.0005 0.8331 0.0000
vt 0.0005 0.8728 0.0000
vt 0.0005 0.9124 0.0000
vt 0.0005 0.9521 0.0000
vt 0.0005 0.9917 0.0000
# 676 texture coords

g Plane001
usemtl uvCheckerMap_Mat
s 1
f 1/1/1 2/2/2 3/3/3 4/4/4 
f 4/4/4 3/3/3 5/5/5 6/6/6 
f 6/6/6 5/5/5 7/7/7 8/8/8 
f 8/8/8 7/7/7 9/9/3 10/10/9 
f 10/10/9 9/9/3 11/11/10 12/12/11 
f 12/12/11 11/11/10 13/13/12 14/14/13 
f 14/14/13 13/13/12 15/15/3 16/16/14 
f 16/16/14 15/15/3 17/17/15 18/18/16 
f 18/18/16 17/17/15 19/19/17 20/20/18 
f 20/20/18 19/19/17 21/21/19 22/22/20 
f 22/22/20 21/21/19 23/23/3 24/24/21 
f 24/24/21 23/23/3 25/25/22 26/26/23 
f 26/26/23 25/25/22 27/27/24 28/28/25 
f 28/28/25 27/27/24 29/29/26 30/30/27 
f 30/30/27 29/29/26 31/31/28 32/32/29 
f 32/32/29 31/31/28 33/33/30 34/34/31 
f 34/34/31 33/33/30 35/35/32 36/36/33 
f 36/36/33 35/35/32 37/37/34 38/38/35 
f 38/38/35 37/37/34 39/39/3 40/40/36 
f 40/40/36 39/39/3 41/41/37 42/42/38 
f 42/42/38 41/41/37 43/43/39 44/44/40 
f 44/44/40 43/43/39 45/45/41 46/46/42 
f 46/46/42 45/45/41 47/47/43 48/48/44 
f 48/48/44 47/47/43 49/49/45 50/50/46 
f 50/50/46 49/49/45 51/51/3 52/52/47 
f 53/53/48 1/1/1 4/4/4 54/54/49 
f 54/54/49 4/4/4 6/6/6 55/55/3 
f 55/55/3 6/6/6 8/8/8 56/56/50 
f 56/56/50 8/8/8 10/10/9 57/57/51 
f 57/57/51 10/10/9 12/12/11 58/58/52 
f 58/58/52 12/12/11 14/14/13 59/59/53 
f 59/59/53 14/14/13 16/16/14 60/60/54 
f 60/60/54 16/16/14 18/18/16 61/61/55 
f 61/61/55 18/18/16 20/20/18 62/62/56 
f 62/62/56 20/20/18 22/22/20 63/63/57 
f 63/63/57 22/22/20 24/24/21 64/64/58 
f 64/64/58 24/24/21 26/26/23 65/65/23 
f 65/65/23 26/26/23 28/28/25 66/66/59 
f 66/66/59 28/28/25 30/30/27 67/67/60 
f 67/67/60 30/30/27 32/32/29 68/68/61 
f 68/68/61 32/32/29 34/34/31 69/69/62 
f 69/69/62 34/34/31 36/36/33 70/70/63 
f 70/70/63 36/36/33 38/38/35 71/71/64 
f 71/71/64 38/38/35 40/40/36 72/72/65 
f 72/72/65 40/40/36 42/42/38 73/73/66 
f 73/73/66 42/42/38 44/44/40 74/74/67 
f 74/74/67 44/44/40 46/46/42 75/75/68 
f 75/75/68 46/46/42 48/48/44 76/76/69 
f 76/76/69 48/48/44 50/50/46 77/77/70 
f 77/77/70 50/50/46 52/52/47 78/78/71 
f 79/79/72 53/53/48 54/54/49 80/80/3 
f 80/80/3 54/54/49 55/55/3 81/81/73 
f 81/81/73 55/55/3 56/56/50 82/82/74 
f 82/82/74 56/56/50 57/57/51 83/83/75 
f 83/83/75 57/57/51 58/58/52 84/84/76 
f 84/84/76 58/58/52 59/59/53 85/85/77 
f 85/85/77 59/59/53 60/60/54 86/86/78 
f 86/86/78 60/60/54 61/61/55 87/87/79 
f 87/87/79 61/61/55 62/62/56 88/88/80 
f 88/88/80 62/62/56 63/63/57 89/89/81 
f 89/89/81 63/63/57 64/64/58 90/90/82 
f 90/90/82 64/64/58 65/65/23 91/91/83 
f 91/91/83 65/65/23 66/66/59 92/92/84 
f 92/92/84 66/66/59 67/67/60 93/93/85 
f 93/93/85 67/67/60 68/68/61 94/94/86 
f 94/94/86 68/68/61 69/69/62 95/95/87 
f 95/95/87 69/69/62 70/70/63 96/96/88 
f 96/96/88 70/70/63 71/71/64 97/97/89 
f 97/97/89 71/71/64 72/72/65 98/98/90 
f 98/98/90 72/72/65 73/73/66 99/99/91 
f 99/99/91 73/73/66 74/74/67 100/100/92 
f 100/100/92 74/74/67 75/75/68 101/101/93 
f 101/101/93 75/75/68 76/76/69 102/102/94 
f 102/102/94 76/76/69 77/77/70 103/103/95 
f 103/103/95 77/77/70 78/78/71 104/104/3 
f 105/105/96 79/79/72 80/80/3 106/106/97 
f 106/106/97 80/80/3 81/81/73 107/107/98 
f 107/107/98 81/81/73 82/82/74 108/108/99 
f 108/108/99 82/82/74 83/83/75 109/109/100 
f 109/109/100 83/83/75 84/84/76 110/110/101 
f 110/110/101 84/84/76 85/85/77 111/111/102 
f 111/111/102 85/85/77 86/86/78 112/112/103 
f 112/112/103 86/86/78 87/87/79 113/113/104 
f 113/113/104 87/87/79 88/88/80 114/114/105 
f 114/114/105 88/88/80 89/89/81 115/115/106 
f 115/115/106 89/89/81 90/90/82 116/116/107 
f 116/116/107 90/90/82 91/91/83 117/117/108 
f 117/117/108 91/91/83 92/92/84 118/118/109 
f 118/118/109 92/92/84 93/93/85 119/119/110 
f 119/119/110 93/93/85 94/94/86 120/120/3 
f 120/120/3 94/94/86 95/95/87 121/121/111 
f 121/121/111 95/95/87 96/96/88 122/122/112 
f 122/122/112 96/96/88 97/97/89 123/123/107 
f 123/123/107 97/97/89 98/98/90 124/124/113 
f 124/124/113 98/98/90 99/99/91 125/125/114 
f 125/125/114 99/99/91 100/100/92 126/126/115 
f 126/126/115 100/100/92 101/101/93 127/127/3 
f 127/127/3 101/101/93 102/102/94 128/128/116 
f 128/128/116 102/102/94 103/103/95 129/129/117 
f 129/129/117 103/103/95 104/104/3 130/130/118 
f 131/131/119 105/105/96 106/106/97 132/132/120 
f 132/132/120 106/106/97 107/107/98 133/133/121 
f 133/133/121 107/107/98 108/108/99 134/134/122 
f 134/134/122 108/108/99 109/109/100 135/135/99 
f 135/135/99 109/109/100 110/110/101 136/136/3 
f 136/136/3 110/110/101 111/111/102 137/137/123 
f 137/137/123 111/111/102 112/112/103 138/138/124 
f 138/138/124 112/112/103 113/113/104 139/139/125 
f 139/139/125 113/113/104 114/114/105 140/140/126 
f 140/140/126 114/114/105 115/115/106 141/141/127 
f 141/141/127 115/115/106 116/116/107 142/142/128 
f 142/142/128 116/116/107 117/117/108 143/143/129 
f 143/143/129 117/117/108 118/118/109 144/144/3 
f 144/144/3 118/118/109 119/119/110 145/145/3 
f 145/145/3 119/119/110 120/120/3 146/146/3 
f 146/146/3 120/120/3 121/121/111 147/147/3 
f 147/147/3 121/121/111 122/122/112 148/148/3 
f 148/148/3 122/122/112 123/123/107 149/149/130 
f 149/149/130 123/123/107 124/124/113 150/150/131 
f 150/150/131 124/124/113 125/125/114 151/151/13 
f 151/151/13 125/125/114 126/126/115 152/152/132 
f 152/152/132 126/126/115 127/127/3 153/153/3 
f 153/153/3 127/127/3 128/128/116 154/154/133 
f 154/154/133 128/128/116 129/129/117 155/155/134 
f 155/155/134 129/129/117 130/130/118 156/156/135 
f 157/157/136 131/131/119 132/132/120 158/158/137 
f 158/158/137 132/132/120 133/133/121 159/159/138 
f 159/159/138 133/133/121 134/134/122 160/160/139 
f 160/160/139 134/134/122 135/135/99 161/161/99 
f 161/161/99 135/135/99 136/136/3 162/162/3 
f 162/162/3 136/136/3 137/137/123 163/163/123 
f 163/163/123 137/137/123 138/138/124 164/164/123 
f 164/164/123 138/138/124 139/139/125 165/165/140 
f 165/165/140 139/139/125 140/140/126 166/166/141 
f 166/166/141 140/140/126 141/141/127 167/167/142 
f 167/167/142 141/141/127 142/142/128 168/168/3 
f 168/168/3 142/142/128 143/143/129 169/169/3 
f 169/169/3 143/143/129 144/144/3 170/170/3 
f 170/170/3 144/144/3 145/145/3 171/171/3 
f 171/171/3 145/145/3 146/146/3 172/172/3 
f 172/172/3 146/146/3 147/147/3 173/173/3 
f 173/173/3 147/147/3 148/148/3 174/174/3 
f 174/174/3 148/148/3 149/149/130 175/175/3 
f 175/175/3 149/149/130 150/150/131 176/176/3 
f 176/176/3 150/150/131 151/151/13 177/177/143 
f 177/177/143 151/151/13 152/152/132 178/178/144 
f 178/178/144 152/152/132 153/153/3 179/179/3 
f 179/179/3 153/153/3 154/154/133 180/180/145 
f 180/180/145 154/154/133 155/155/134 181/181/146 
f 181/181/146 155/155/134 156/156/135 182/182/147 
f 183/183/148 157/157/136 158/158/137 184/184/149 
f 184/184/149 158/158/137 159/159/138 185/185/150 
f 185/185/150 159/159/138 160/160/139 186/186/151 
f 186/186/151 160/160/139 161/161/99 187/187/152 
f 187/187/152 161/161/99 162/162/3 188/188/153 
f 188/188/153 162/162/3 163/163/123 189/189/154 
f 189/189/154 163/163/123 164/164/123 190/190/123 
f 190/190/123 164/164/123 165/165/140 191/191/3 
f 191/191/3 165/165/140 166/166/141 192/192/3 
f 192/192/3 166/166/141 167/167/142 193/193/3 
f 193/193/3 167/167/142 168/168/3 194/194/3 
f 194/194/3 168/168/3 169/169/3 195/195/3 
f 195/195/3 169/169/3 170/170/3 196/196/3 
f 196/196/3 170/170/3 171/171/3 197/197/3 
f 197/197/3 171/171/3 172/172/3 198/198/3 
f 198/198/3 172/172/3 173/173/3 199/199/3 
f 199/199/3 173/173/3 174/174/3 200/200/155 
f 200/200/155 174/174/3 175/175/3 201/201/156 
f 201/201/156 175/175/3 176/176/3 202/202/3 
f 202/202/3 176/176/3 177/177/143 203/203/157 
f 203/203/157 177/177/143 178/178/144 204/204/158 
f 204/204/158 178/178/144 179/179/3 205/205/3 
f 205/205/3 179/179/3 180/180/145 206/206/159 
f 206/206/159 180/180/145 181/181/146 207/207/160 
f 207/207/160 181/181/146 182/182/147 208/208/161 
f 209/209/3 183/183/148 184/184/149 210/210/162 
f 210/210/162 184/184/149 185/185/150 211/211/163 
f 211/211/163 185/185/150 186/186/151 212/212/3 
f 212/212/3 186/186/151 187/187/152 213/213/164 
f 213/213/164 187/187/152 188/188/153 214/214/153 
f 214/214/153 188/188/153 189/189/154 215/215/153 
f 215/215/153 189/189/154 190/190/123 216/216/165 
f 216/216/165 190/190/123 191/191/3 217/217/3 
f 217/217/3 191/191/3 192/192/3 218/218/3 
f 218/218/3 192/192/3 193/193/3 219/219/3 
f 219/219/3 193/193/3 194/194/3 220/220/3 
f 220/220/3 194/194/3 195/195/3 221/221/3 
f 221/221/3 195/195/3 196/196/3 222/222/3 
f 222/222/3 196/196/3 197/197/3 223/223/3 
f 223/223/3 197/197/3 198/198/3 224/224/3 
f 224/224/3 198/198/3 199/199/3 225/225/3 
f 225/225/3 199/199/3 200/200/155 226/226/166 
f 226/226/166 200/200/155 201/201/156 227/227/107 
f 227/227/107 201/201/156 202/202/3 228/228/167 
f 228/228/167 202/202/3 203/203/157 229/229/168 
f 229/229/168 203/203/157 204/204/158 230/230/3 
f 230/230/3 204/204/158 205/205/3 231/231/169 
f 231/231/169 205/205/3 206/206/159 232/232/170 
f 232/232/170 206/206/159 207/207/160 233/233/171 
f 233/233/171 207/207/160 208/208/161 234/234/172 
f 235/235/173 209/209/3 210/210/162 236/236/3 
f 236/236/3 210/210/162 211/211/163 237/237/174 
f 237/237/174 211/211/163 212/212/3 238/238/175 
f 238/238/175 212/212/3 213/213/164 239/239/176 
f 239/239/176 213/213/164 214/214/153 240/240/3 
f 240/240/3 214/214/153 215/215/153 241/241/3 
f 241/241/3 215/215/153 216/216/165 242/242/3 
f 242/242/3 216/216/165 217/217/3 243/243/3 
f 243/243/3 217/217/3 218/218/3 244/244/3 
f 244/244/3 218/218/3 219/219/3 245/245/3 
f 245/245/3 219/219/3 220/220/3 246/246/3 
f 246/246/3 220/220/3 221/221/3 247/247/3 
f 247/247/3 221/221/3 222/222/3 248/248/3 
f 248/248/3 222/222/3 223/223/3 249/249/3 
f 249/249/3 223/223/3 224/224/3 250/250/3 
f 250/250/3 224/224/3 225/225/3 251/251/3 
f 251/251/3 225/225/3 226/226/166 252/252/3 
f 252/252/3 226/226/166 227/227/107 253/253/177 
f 253/253/177 227/227/107 228/228/167 254/254/178 
f 254/254/178 228/228/167 229/229/168 255/255/3 
f 255/255/3 229/229/168 230/230/3 256/256/179 
f 256/256/179 230/230/3 231/231/169 257/257/180 
f 257/257/180 231/231/169 232/232/170 258/258/181 
f 258/258/181 232/232/170 233/233/171 259/259/182 
f 259/259/182 233/233/171 234/234/172 260/260/183 
f 261/261/184 235/235/173 236/236/3 262/262/185 
f 262/262/185 236/236/3 237/237/174 263/263/186 
f 263/263/186 237/237/174 238/238/175 264/264/187 
f 264/264/187 238/238/175 239/239/176 265/265/188 
f 265/265/188 239/239/176 240/240/3 266/266/189 
f 266/266/189 240/240/3 241/241/3 267/267/3 
f 267/267/3 241/241/3 242/242/3 268/268/3 
f 268/268/3 242/242/3 243/243/3 269/269/3 
f 269/269/3 243/243/3 244/244/3 270/270/3 
f 270/270/3 244/244/3 245/245/3 271/271/3 
f 271/271/3 245/245/3 246/246/3 272/272/3 
f 272/272/3 246/246/3 247/247/3 273/273/3 
f 273/273/3 247/247/3 248/248/3 274/274/3 
f 274/274/3 248/248/3 249/249/3 275/275/3 
f 275/275/3 249/249/3 250/250/3 276/276/3 
f 276/276/3 250/250/3 251/251/3 277/277/3 
f 277/277/3 251/251/3 252/252/3 278/278/190 
f 278/278/190 252/252/3 253/253/177 279/279/191 
f 279/279/191 253/253/177 254/254/178 280/280/3 
f 280/280/3 254/254/178 255/255/3 281/281/3 
f 281/281/3 255/255/3 256/256/179 282/282/192 
f 282/282/192 256/256/179 257/257/180 283/283/193 
f 283/283/193 257/257/180 258/258/181 284/284/194 
f 284/284/194 258/258/181 259/259/182 285/285/195 
f 285/285/195 259/259/182 260/260/183 286/286/196 
f 287/287/197 261/261/184 262/262/185 288/288/198 
f 288/288/198 262/262/185 263/263/186 289/289/199 
f 289/289/199 263/263/186 264/264/187 290/290/200 
f 290/290/200 264/264/187 265/265/188 291/291/201 
f 291/291/201 265/265/188 266/266/189 292/292/202 
f 292/292/202 266/266/189 267/267/3 293/293/3 
f 293/293/3 267/267/3 268/268/3 294/294/3 
f 294/294/3 268/268/3 269/269/3 295/295/3 
f 295/295/3 269/269/3 270/270/3 296/296/3 
f 296/296/3 270/270/3 271/271/3 297/297/3 
f 297/297/3 271/271/3 272/272/3 298/298/3 
f 298/298/3 272/272/3 273/273/3 299/299/3 
f 299/299/3 273/273/3 274/274/3 300/300/3 
f 300/300/3 274/274/3 275/275/3 301/301/3 
f 301/301/3 275/275/3 276/276/3 302/302/3 
f 302/302/3 276/276/3 277/277/3 303/303/3 
f 303/303/3 277/277/3 278/278/190 304/304/203 
f 304/304/203 278/278/190 279/279/191 305/305/107 
f 305/305/107 279/279/191 280/280/3 306/306/204 
f 306/306/204 280/280/3 281/281/3 307/307/3 
f 307/307/3 281/281/3 282/282/192 308/308/205 
f 308/308/205 282/282/192 283/283/193 309/309/206 
f 309/309/206 283/283/193 284/284/194 310/310/207 
f 310/310/207 284/284/194 285/285/195 311/311/208 
f 311/311/208 285/285/195 286/286/196 312/312/3 
f 313/313/209 287/287/197 288/288/198 314/314/210 
f 314/314/210 288/288/198 289/289/199 315/315/211 
f 315/315/211 289/289/199 290/290/200 316/316/212 
f 316/316/212 290/290/200 291/291/201 317/317/3 
f 317/317/3 291/291/201 292/292/202 318/318/3 
f 318/318/3 292/292/202 293/293/3 319/319/3 
f 319/319/3 293/293/3 294/294/3 320/320/3 
f 320/320/3 294/294/3 295/295/3 321/321/3 
f 321/321/3 295/295/3 296/296/3 322/322/3 
f 322/322/3 296/296/3 297/297/3 323/323/3 
f 323/323/3 297/297/3 298/298/3 324/324/3 
f 324/324/3 298/298/3 299/299/3 325/325/3 
f 325/325/3 299/299/3 300/300/3 326/326/3 
f 326/326/3 300/300/3 301/301/3 327/327/3 
f 327/327/3 301/301/3 302/302/3 328/328/3 
f 328/328/3 302/302/3 303/303/3 329/329/3 
f 329/329/3 303/303/3 304/304/203 330/330/3 
f 330/330/3 304/304/203 305/305/107 331/331/213 
f 331/331/213 305/305/107 306/306/204 332/332/214 
f 332/332/214 306/306/204 307/307/3 333/333/215 
f 333/333/215 307/307/3 308/308/205 334/334/3 
f 334/334/3 308/308/205 309/309/206 335/335/216 
f 335/335/216 309/309/206 310/310/207 336/336/217 
f 336/336/217 310/310/207 311/311/208 337/337/218 
f 337/337/218 311/311/208 312/312/3 338/338/219 
f 339/339/3 313/313/209 314/314/210 340/340/220 
f 340/340/220 314/314/210 315/315/211 341/341/221 
f 341/341/221 315/315/211 316/316/212 342/342/222 
f 342/342/222 316/316/212 317/317/3 343/343/3 
f 343/343/3 317/317/3 318/318/3 344/344/3 
f 344/344/3 318/318/3 319/319/3 345/345/3 
f 345/345/3 319/319/3 320/320/3 346/346/3 
f 346/346/3 320/320/3 321/321/3 347/347/3 
f 347/347/3 321/321/3 322/322/3 348/348/3 
f 348/348/3 322/322/3 323/323/3 349/349/3 
f 349/349/3 323/323/3 324/324/3 350/350/3 
f 350/350/3 324/324/3 325/325/3 351/351/3 
f 351/351/3 325/325/3 326/326/3 352/352/3 
f 352/352/3 326/326/3 327/327/3 353/353/3 
f 353/353/3 327/327/3 328/328/3 354/354/3 
f 354/354/3 328/328/3 329/329/3 355/355/3 
f 355/355/3 329/329/3 330/330/3 356/356/3 
f 356/356/3 330/330/3 331/331/213 357/357/3 
f 357/357/3 331/331/213 332/332/214 358/358/223 
f 358/358/223 332/332/214 333/333/215 359/359/13 
f 359/359/13 333/333/215 334/334/3 360/360/224 
f 360/360/224 334/334/3 335/335/216 361/361/3 
f 361/361/3 335/335/216 336/336/217 362/362/225 
f 362/362/225 336/336/217 337/337/218 363/363/226 
f 363/363/226 337/337/218 338/338/219 364/364/227 
f 365/365/3 339/339/3 340/340/220 366/366/3 
f 366/366/3 340/340/220 341/341/221 367/367/228 
f 367/367/228 341/341/221 342/342/222 368/368/229 
f 368/368/229 342/342/222 343/343/3 369/369/230 
f 369/369/230 343/343/3 344/344/3 370/370/3 
f 370/370/3 344/344/3 345/345/3 371/371/3 
f 371/371/3 345/345/3 346/346/3 372/372/3 
f 372/372/3 346/346/3 347/347/3 373/373/3 
f 373/373/3 347/347/3 348/348/3 374/374/3 
f 374/374/3 348/348/3 349/349/3 375/375/3 
f 375/375/3 349/349/3 350/350/3 376/376/3 
f 376/376/3 350/350/3 351/351/3 377/377/3 
f 377/377/3 351/351/3 352/352/3 378/378/3 
f 378/378/3 352/352/3 353/353/3 379/379/3 
f 379/379/3 353/353/3 354/354/3 380/380/3 
f 380/380/3 354/354/3 355/355/3 381/381/3 
f 381/381/3 355/355/3 356/356/3 382/382/3 
f 382/382/3 356/356/3 357/357/3 383/383/3 
f 383/383/3 357/357/3 358/358/223 384/384/3 
f 384/384/3 358/358/223 359/359/13 385/385/231 
f 385/385/231 359/359/13 360/360/224 386/386/232 
f 386/386/232 360/360/224 361/361/3 387/387/3 
f 387/387/3 361/361/3 362/362/225 388/388/233 
f 388/388/233 362/362/225 363/363/226 389/389/234 
f 389/389/234 363/363/226 364/364/227 390/390/3 
f 391/391/235 365/365/3 366/366/3 392/392/236 
f 392/392/236 366/366/3 367/367/228 393/393/237 
f 393/393/237 367/367/228 368/368/229 394/394/238 
f 394/394/238 368/368/229 369/369/230 395/395/239 
f 395/395/239 369/369/230 370/370/3 396/396/3 
f 396/396/3 370/370/3 371/371/3 397/397/3 
f 397/397/3 371/371/3 372/372/3 398/398/3 
f 398/398/3 372/372/3 373/373/3 399/399/3 
f 399/399/3 373/373/3 374/374/3 400/400/3 
f 400/400/3 374/374/3 375/375/3 401/401/3 
f 401/401/3 375/375/3 376/376/3 402/402/3 
f 402/402/3 376/376/3 377/377/3 403/403/3 
f 403/403/3 377/377/3 378/378/3 404/404/3 
f 404/404/3 378/378/3 379/379/3 405/405/3 
f 405/405/3 379/379/3 380/380/3 406/406/3 
f 406/406/3 380/380/3 381/381/3 407/407/3 
f 407/407/3 381/381/3 382/382/3 408/408/3 
f 408/408/3 382/382/3 383/383/3 409/409/3 
f 409/409/3 383/383/3 384/384/3 410/410/3 
f 410/410/3 384/384/3 385/385/231 411/411/3 
f 411/411/3 385/385/231 386/386/232 412/412/240 
f 412/412/240 386/386/232 387/387/3 413/413/241 
f 413/413/241 387/387/3 388/388/233 414/414/242 
f 414/414/242 388/388/233 389/389/234 415/415/13 
f 415/415/13 389/389/234 390/390/3 416/416/243 
f 417/417/244 391/391/235 392/392/236 418/418/245 
f 418/418/245 392/392/236 393/393/237 419/419/246 
f 419/419/246 393/393/237 394/394/238 420/420/247 
f 420/420/247 394/394/238 395/395/239 421/421/248 
f 421/421/248 395/395/239 396/396/3 422/422/249 
f 422/422/249 396/396/3 397/397/3 423/423/3 
f 423/423/3 397/397/3 398/398/3 424/424/3 
f 424/424/3 398/398/3 399/399/3 425/425/3 
f 425/425/3 399/399/3 400/400/3 426/426/3 
f 426/426/3 400/400/3 401/401/3 427/427/3 
f 427/427/3 401/401/3 402/402/3 428/428/3 
f 428/428/3 402/402/3 403/403/3 429/429/3 
f 429/429/3 403/403/3 404/404/3 430/430/3 
f 430/430/3 404/404/3 405/405/3 431/431/3 
f 431/431/3 405/405/3 406/406/3 432/432/3 
f 432/432/3 406/406/3 407/407/3 433/433/3 
f 433/433/3 407/407/3 408/408/3 434/434/3 
f 434/434/3 408/408/3 409/409/3 435/435/3 
f 435/435/3 409/409/3 410/410/3 436/436/250 
f 436/436/250 410/410/3 411/411/3 437/437/251 
f 437/437/251 411/411/3 412/412/240 438/438/252 
f 438/438/252 412/412/240 413/413/241 439/439/107 
f 439/439/107 413/413/241 414/414/242 440/440/253 
f 440/440/253 414/414/242 415/415/13 441/441/254 
f 441/441/254 415/415/13 416/416/243 442/442/255 
f 443/443/3 417/417/244 418/418/245 444/444/256 
f 444/444/256 418/418/245 419/419/246 445/445/257 
f 445/445/257 419/419/246 420/420/247 446/446/258 
f 446/446/258 420/420/247 421/421/248 447/447/259 
f 447/447/259 421/421/248 422/422/249 448/448/13 
f 448/448/13 422/422/249 423/423/3 449/449/260 
f 449/449/260 423/423/3 424/424/3 450/450/3 
f 450/450/3 424/424/3 425/425/3 451/451/3 
f 451/451/3 425/425/3 426/426/3 452/452/3 
f 452/452/3 426/426/3 427/427/3 453/453/3 
f 453/453/3 427/427/3 428/428/3 454/454/3 
f 454/454/3 428/428/3 429/429/3 455/455/3 
f 455/455/3 429/429/3 430/430/3 456/456/3 
f 456/456/3 430/430/3 431/431/3 457/457/261 
f 457/457/261 431/431/3 432/432/3 458/458/262 
f 458/458/262 432/432/3 433/433/3 459/459/3 
f 459/459/3 433/433/3 434/434/3 460/460/3 
f 460/460/3 434/434/3 435/435/3 461/461/110 
f 461/461/110 435/435/3 436/436/250 462/462/263 
f 462/462/263 436/436/250 437/437/251 463/463/264 
f 463/463/264 437/437/251 438/438/252 464/464/265 
f 464/464/265 438/438/252 439/439/107 465/465/266 
f 465/465/266 439/439/107 440/440/253 466/466/267 
f 466/466/267 440/440/253 441/441/254 467/467/13 
f 467/467/13 441/441/254 442/442/255 468/468/268 
f 469/469/269 443/443/3 444/444/256 470/470/270 
f 470/470/270 444/444/256 445/445/257 471/471/271 
f 471/471/271 445/445/257 446/446/258 472/472/3 
f 472/472/3 446/446/258 447/447/259 473/473/3 
f 473/473/3 447/447/259 448/448/13 474/474/272 
f 474/474/272 448/448/13 449/449/260 475/475/273 
f 475/475/273 449/449/260 450/450/3 476/476/274 
f 476/476/274 450/450/3 451/451/3 477/477/3 
f 477/477/3 451/451/3 452/452/3 478/478/3 
f 478/478/3 452/452/3 453/453/3 479/479/3 
f 479/479/3 453/453/3 454/454/3 480/480/3 
f 480/480/3 454/454/3 455/455/3 481/481/3 
f 481/481/3 455/455/3 456/456/3 482/482/3 
f 482/482/3 456/456/3 457/457/261 483/483/275 
f 483/483/275 457/457/261 458/458/262 484/484/13 
f 484/484/13 458/458/262 459/459/3 485/485/276 
f 485/485/276 459/459/3 460/460/3 486/486/3 
f 486/486/3 460/460/3 461/461/110 487/487/277 
f 487/487/277 461/461/110 462/462/263 488/488/278 
f 488/488/278 462/462/263 463/463/264 489/489/279 
f 489/489/279 463/463/264 464/464/265 490/490/280 
f 490/490/280 464/464/265 465/465/266 491/491/281 
f 491/491/281 465/465/266 466/466/267 492/492/282 
f 492/492/282 466/466/267 467/467/13 493/493/283 
f 493/493/283 467/467/13 468/468/268 494/494/284 
f 495/495/285 469/469/269 470/470/270 496/496/286 
f 496/496/286 470/470/270 471/471/271 497/497/287 
f 497/497/287 471/471/271 472/472/3 498/498/288 
f 498/498/288 472/472/3 473/473/3 499/499/289 
f 499/499/289 473/473/3 474/474/272 500/500/290 
f 500/500/290 474/474/272 475/475/273 501/501/291 
f 501/501/291 475/475/273 476/476/274 502/502/13 
f 502/502/13 476/476/274 477/477/3 503/503/292 
f 503/503/292 477/477/3 478/478/3 504/504/3 
f 504/504/3 478/478/3 479/479/3 505/505/293 
f 505/505/293 479/479/3 480/480/3 506/506/294 
f 506/506/294 480/480/3 481/481/3 507/507/3 
f 507/507/3 481/481/3 482/482/3 508/508/3 
f 508/508/3 482/482/3 483/483/275 509/509/3 
f 509/509/3 483/483/275 484/484/13 510/510/295 
f 510/510/295 484/484/13 485/485/276 511/511/296 
f 511/511/296 485/485/276 486/486/3 512/512/3 
f 512/512/3 486/486/3 487/487/277 513/513/3 
f 513/513/3 487/487/277 488/488/278 514/514/297 
f 514/514/297 488/488/278 489/489/279 515/515/298 
f 515/515/298 489/489/279 490/490/280 516/516/299 
f 516/516/299 490/490/280 491/491/281 517/517/300 
f 517/517/300 491/491/281 492/492/282 518/518/301 
f 518/518/301 492/492/282 493/493/283 519/519/107 
f 519/519/107 493/493/283 494/494/284 520/520/302 
f 521/521/3 495/495/285 496/496/286 522/522/303 
f 522/522/303 496/496/286 497/497/287 523/523/304 
f 523/523/304 497/497/287 498/498/288 524/524/305 
f 524/524/305 498/498/288 499/499/289 525/525/306 
f 525/525/306 499/499/289 500/500/290 526/526/307 
f 526/526/307 500/500/290 501/501/291 527/527/308 
f 527/527/308 501/501/291 502/502/13 528/528/309 
f 528/528/309 502/502/13 503/503/292 529/529/310 
f 529/529/310 503/503/292 504/504/3 530/530/3 
f 530/530/3 504/504/3 505/505/293 531/531/311 
f 531/531/311 505/505/293 506/506/294 532/532/312 
f 532/532/312 506/506/294 507/507/3 533/533/313 
f 533/533/313 507/507/3 508/508/3 534/534/3 
f 534/534/3 508/508/3 509/509/3 535/535/3 
f 535/535/3 509/509/3 510/510/295 536/536/3 
f 536/536/3 510/510/295 511/511/296 537/537/3 
f 537/537/3 511/511/296 512/512/3 538/538/3 
f 538/538/3 512/512/3 513/513/3 539/539/3 
f 539/539/3 513/513/3 514/514/297 540/540/314 
f 540/540/314 514/514/297 515/515/298 541/541/315 
f 541/541/315 515/515/298 516/516/299 542/542/316 
f 542/542/316 516/516/299 517/517/300 543/543/317 
f 543/543/317 517/517/300 518/518/301 544/544/318 
f 544/544/318 518/518/301 519/519/107 545/545/319 
f 545/545/319 519/519/107 520/520/302 546/546/320 
f 547/547/321 521/521/3 522/522/303 548/548/322 
f 548/548/322 522/522/303 523/523/304 549/549/323 
f 549/549/323 523/523/304 524/524/305 550/550/3 
f 550/550/3 524/524/305 525/525/306 551/551/324 
f 551/551/324 525/525/306 526/526/307 552/552/325 
f 552/552/325 526/526/307 527/527/308 553/553/326 
f 553/553/326 527/527/308 528/528/309 554/554/3 
f 554/554/3 528/528/309 529/529/310 555/555/3 
f 555/555/3 529/529/310 530/530/3 556/556/3 
f 556/556/3 530/530/3 531/531/311 557/557/327 
f 557/557/327 531/531/311 532/532/312 558/558/328 
f 558/558/328 532/532/312 533/533/313 559/559/329 
f 559/559/329 533/533/313 534/534/3 560/560/3 
f 560/560/3 534/534/3 535/535/3 561/561/3 
f 561/561/3 535/535/3 536/536/3 562/562/3 
f 562/562/3 536/536/3 537/537/3 563/563/3 
f 563/563/3 537/537/3 538/538/3 564/564/3 
f 564/564/3 538/538/3 539/539/3 565/565/3 
f 565/565/3 539/539/3 540/540/314 566/566/330 
f 566/566/330 540/540/314 541/541/315 567/567/331 
f 567/567/331 541/541/315 542/542/316 568/568/332 
f 568/568/332 542/542/316 543/543/317 569/569/333 
f 569/569/333 543/543/317 544/544/318 570/570/334 
f 570/570/334 544/544/318 545/545/319 571/571/335 
f 571/571/335 545/545/319 546/546/320 572/572/336 
f 573/573/337 547/547/321 548/548/322 574/574/338 
f 574/574/338 548/548/322 549/549/323 575/575/339 
f 575/575/339 549/549/323 550/550/3 576/576/340 
f 576/576/340 550/550/3 551/551/324 577/577/3 
f 577/577/3 551/551/324 552/552/325 578/578/3 
f 578/578/3 552/552/325 553/553/326 579/579/341 
f 579/579/341 553/553/326 554/554/3 580/580/342 
f 580/580/342 554/554/3 555/555/3 581/581/3 
f 581/581/3 555/555/3 556/556/3 582/582/3 
f 582/582/3 556/556/3 557/557/327 583/583/3 
f 583/583/3 557/557/327 558/558/328 584/584/343 
f 584/584/343 558/558/328 559/559/329 585/585/344 
f 585/585/344 559/559/329 560/560/3 586/586/3 
f 586/586/3 560/560/3 561/561/3 587/587/345 
f 587/587/345 561/561/3 562/562/3 588/588/346 
f 588/588/346 562/562/3 563/563/3 589/589/3 
f 589/589/3 563/563/3 564/564/3 590/590/3 
f 590/590/3 564/564/3 565/565/3 591/591/347 
f 591/591/347 565/565/3 566/566/330 592/592/348 
f 592/592/348 566/566/330 567/567/331 593/593/349 
f 593/593/349 567/567/331 568/568/332 594/594/350 
f 594/594/350 568/568/332 569/569/333 595/595/351 
f 595/595/351 569/569/333 570/570/334 596/596/352 
f 596/596/352 570/570/334 571/571/335 597/597/353 
f 597/597/353 571/571/335 572/572/336 598/598/354 
f 599/599/355 573/573/337 574/574/338 600/600/356 
f 600/600/356 574/574/338 575/575/339 601/601/357 
f 601/601/357 575/575/339 576/576/340 602/602/358 
f 602/602/358 576/576/340 577/577/3 603/603/359 
f 603/603/359 577/577/3 578/578/3 604/604/341 
f 604/604/341 578/578/3 579/579/341 605/605/360 
f 605/605/360 579/579/341 580/580/342 606/606/361 
f 606/606/361 580/580/342 581/581/3 607/607/362 
f 607/607/362 581/581/3 582/582/3 608/608/3 
f 608/608/3 582/582/3 583/583/3 609/609/363 
f 609/609/363 583/583/3 584/584/343 610/610/364 
f 610/610/364 584/584/343 585/585/344 611/611/3 
f 611/611/3 585/585/344 586/586/3 612/612/365 
f 612/612/365 586/586/3 587/587/345 613/613/366 
f 613/613/366 587/587/345 588/588/346 614/614/107 
f 614/614/107 588/588/346 589/589/3 615/615/367 
f 615/615/367 589/589/3 590/590/3 616/616/3 
f 616/616/3 590/590/3 591/591/347 617/617/368 
f 617/617/368 591/591/347 592/592/348 618/618/369 
f 618/618/369 592/592/348 593/593/349 619/619/370 
f 619/619/370 593/593/349 594/594/350 620/620/371 
f 620/620/371 594/594/350 595/595/351 621/621/372 
f 621/621/372 595/595/351 596/596/352 622/622/373 
f 622/622/373 596/596/352 597/597/353 623/623/374 
f 623/623/374 597/597/353 598/598/354 624/624/375 
f 625/625/3 599/599/355 600/600/356 626/626/376 
f 626/626/376 600/600/356 601/601/357 627/627/377 
f 627/627/377 601/601/357 602/602/358 628/628/378 
f 628/628/378 602/602/358 603/603/359 629/629/379 
f 629/629/379 603/603/359 604/604/341 630/630/380 
f 630/630/380 604/604/341 605/605/360 631/631/381 
f 631/631/381 605/605/360 606/606/361 632/632/382 
f 632/632/382 606/606/361 607/607/362 633/633/383 
f 633/633/383 607/607/362 608/608/3 634/634/3 
f 634/634/3 608/608/3 609/609/363 635/635/384 
f 635/635/384 609/609/363 610/610/364 636/636/13 
f 636/636/13 610/610/364 611/611/3 637/637/385 
f 637/637/385 611/611/3 612/612/365 638/638/386 
f 638/638/386 612/612/365 613/613/366 639/639/13 
f 639/639/13 613/613/366 614/614/107 640/640/387 
f 640/640/387 614/614/107 615/615/367 641/641/388 
f 641/641/388 615/615/367 616/616/3 642/642/3 
f 642/642/3 616/616/3 617/617/368 643/643/389 
f 643/643/389 617/617/368 618/618/369 644/644/390 
f 644/644/390 618/618/369 619/619/370 645/645/391 
f 645/645/391 619/619/370 620/620/371 646/646/392 
f 646/646/392 620/620/371 621/621/372 647/647/393 
f 647/647/393 621/621/372 622/622/373 648/648/394 
f 648/648/394 622/622/373 623/623/374 649/649/395 
f 649/649/395 623/623/374 624/624/375 650/650/396 
f 651/651/3 625/625/3 626/626/376 652/652/3 
f 652/652/3 626/626/376 627/627/377 653/653/3 
f 653/653/3 627/627/377 628/628/378 654/654/397 
f 654/654/397 628/628/378 629/629/379 655/655/398 
f 655/655/398 629/629/379 630/630/380 656/656/399 
f 656/656/399 630/630/380 631/631/381 657/657/400 
f 657/657/400 631/631/381 632/632/382 658/658/401 
f 658/658/401 632/632/382 633/633/383 659/659/402 
f 659/659/402 633/633/383 634/634/3 660/660/3 
f 660/660/3 634/634/3 635/635/384 661/661/3 
f 661/661/3 635/635/384 636/636/13 662/662/403 
f 662/662/403 636/636/13 637/637/385 663/663/404 
f 663/663/404 637/637/385 638/638/386 664/664/3 
f 664/664/3 638/638/386 639/639/13 665/665/405 
f 665/665/405 639/639/13 640/640/387 666/666/406 
f 666/666/406 640/640/387 641/641/388 667/667/3 
f 667/667/3 641/641/388 642/642/3 668/668/3 
f 668/668/3 642/642/3 643/643/389 669/669/3 
f 669/669/3 643/643/389 644/644/390 670/670/407 
f 670/670/407 644/644/390 645/645/391 671/671/408 
f 671/671/408 645/645/391 646/646/392 672/672/3 
f 672/672/3 646/646/392 647/647/393 673/673/409 
f 673/673/409 647/647/393 648/648/394 674/674/410 
f 674/674/410 648/648/394 649/649/395 675/675/411 
f 675/675/411 649/649/395 650/650/396 676/676/412 
# 625 polygons

