# 3ds Max Wavefront OBJ Exporter v0.97b - (c)2007 guruware
# File Created: 09.07.2020 12:01:49

newmtl uvCheckerMap_Mat
	Ns 9.999999
	Ni 1.500000
	d 1.000000
	Tr 0.000000
	Tf 1.000000 1.000000 1.000000 
	illum 2
	Ka 0.588000 0.588000 0.588000
	Kd 0.588000 0.588000 0.588000
	Ks 0.000000 0.000000 0.000000
	Ke 0.000000 0.000000 0.000000
	map_Ka F:\MEGAsync\Mega-To-Shaunak\3dsMax\sceneassets\images\Checker-Map.jpg
	map_Kd F:\MEGAsync\Mega-To-Shaunak\3dsMax\sceneassets\images\Checker-Map.jpg
