# 3ds Max Wavefront OBJ Exporter v0.97b - (c)2007 guruware
# File Created: 07.07.2020 18:16:25

mtllib Wooden-Crates.mtl

#
# object group68_group64_pSphere9_polySurface1459
#

v  -83.1377 14.4212 48.5440
v  -83.1377 13.6337 48.5440
v  -73.0775 13.6337 48.5440
v  -73.0775 14.4212 48.5440
v  -73.0775 14.4212 47.6861
v  -83.1377 14.4212 47.6861
v  -83.1377 14.4212 37.3219
v  -73.0775 14.4212 37.3219
v  -73.0775 13.6337 37.3219
v  -83.1377 13.6337 37.3219
v  -83.1377 3.0555 48.5440
v  -83.1377 3.0555 47.6861
v  -73.0775 3.0555 47.6861
v  -73.0775 3.0555 48.5440
v  -73.0775 13.6337 47.6861
v  -83.1377 13.6337 47.6861
v  -83.1377 3.7845 47.6861
v  -83.1377 3.7845 48.5440
v  -73.0775 3.7845 48.5440
v  -73.0775 3.7845 47.6861
v  -73.0775 3.7845 37.3219
v  -83.1377 3.7845 37.3219
v  -83.1377 13.6337 38.0762
v  -83.1377 14.4212 38.0762
v  -83.1377 3.7845 38.0762
v  -73.0775 3.0555 38.0762
v  -83.1377 3.0555 38.0762
v  -83.1377 3.0555 37.3219
v  -73.0775 3.0555 37.3219
v  -73.0775 13.6337 38.0762
v  -73.0775 3.7845 38.0762
v  -73.0775 14.4212 38.0762
# 32 vertices

vn 0.0000 0.0000 1.0000
vn 0.0000 1.0000 -0.0000
vn 0.0000 0.0000 -1.0000
vn 0.0000 -1.0000 -0.0000
vn 1.0000 0.0000 -0.0000
vn -1.0000 0.0000 -0.0000
# 6 vertex normals

vt 0.2639 0.0005 0.0000
vt 0.2824 0.0005 0.0000
vt 0.2824 0.2366 0.0000
vt 0.2639 0.2366 0.0000
vt 0.2437 0.2366 0.0000
vt 0.2437 0.0005 0.0000
vt 0.2639 0.7361 0.0000
vt 0.2639 0.5000 0.0000
vt 0.2824 0.5000 0.0000
vt 0.2824 0.7361 0.0000
vt 0.5306 0.0005 0.0000
vt 0.5508 0.0005 0.0000
vt 0.5508 0.2366 0.0000
vt 0.5306 0.2366 0.0000
vt 0.2824 0.2568 0.0000
vt 0.2639 0.2568 0.0000
vt 0.2824 0.9794 0.0000
vt 0.2824 0.9995 0.0000
vt 0.2639 0.9995 0.0000
vt 0.2639 0.9794 0.0000
vt 0.5135 0.9794 0.0000
vt 0.5135 0.9995 0.0000
vt 0.5135 0.2366 0.0000
vt 0.5135 0.0005 0.0000
vt 0.5135 0.2568 0.0000
vt 0.5135 0.5000 0.0000
vt 0.5135 0.7361 0.0000
vt 0.2824 0.7538 0.0000
vt 0.2639 0.7538 0.0000
vt 0.5135 0.7538 0.0000
vt 0.7763 0.2366 0.0000
vt 0.7763 0.0005 0.0000
vt 0.7940 0.0005 0.0000
vt 0.7940 0.2366 0.0000
vt 0.2824 0.4823 0.0000
vt 0.5135 0.4823 0.0000
vt 0.2639 0.4823 0.0000
vt 0.0005 0.0005 0.0000
vt 0.0182 0.0005 0.0000
vt 0.0182 0.2366 0.0000
vt 0.0005 0.2366 0.0000
vt 0.5306 0.9794 0.0000
vt 0.5306 0.7538 0.0000
vt 0.5306 0.9995 0.0000
vt 0.5306 0.2568 0.0000
vt 0.5306 0.4823 0.0000
vt 0.5306 0.5000 0.0000
vt 0.5306 0.7361 0.0000
# 48 texture coords

g group68_group64_pSphere9_polySurface1459
usemtl Wooden_Crate_Exterior
s 1
f 1/1/1 2/2/1 3/3/1 4/4/1 
s 2
f 5/5/2 6/6/2 1/1/2 4/4/2 
s 3
f 7/7/3 8/8/3 9/9/3 10/10/3 
s 4
f 11/11/4 12/12/4 13/13/4 14/14/4 
s 5
f 4/4/5 3/3/5 15/15/5 5/16/5 
s 6
f 16/17/6 2/18/6 1/19/6 6/20/6 
f 16/17/6 17/21/6 18/22/6 2/18/6 
s 1
f 19/23/1 3/3/1 2/2/1 18/24/1 
s 5
f 19/23/5 20/25/5 15/15/5 3/3/5 
s 3
f 9/9/3 21/26/3 22/27/3 10/10/3 
s 6
f 10/10/6 23/28/6 24/29/6 7/7/6 
f 23/28/6 10/10/6 22/27/6 25/30/6 
s 4
f 26/31/4 27/32/4 28/33/4 29/34/4 
s 5
f 9/9/5 30/35/5 31/36/5 21/26/5 
f 32/37/5 30/35/5 9/9/5 8/8/5 
s 2
f 7/38/2 24/39/2 32/40/2 8/41/2 
s 6
f 6/20/6 24/29/6 23/28/6 16/17/6 
f 23/28/6 25/30/6 17/21/6 16/17/6 
s 4
f 26/31/4 13/13/4 12/12/4 27/32/4 
s 5
f 15/15/5 20/25/5 31/36/5 30/35/5 
f 5/16/5 15/15/5 30/35/5 32/37/5 
s 2
f 6/6/2 5/5/2 32/40/2 24/39/2 
s 6
f 12/42/6 17/21/6 25/30/6 27/43/6 
f 18/22/6 17/21/6 12/42/6 11/44/6 
s 1
f 14/14/1 19/23/1 18/24/1 11/11/1 
s 5
f 19/23/5 14/14/5 13/45/5 20/25/5 
f 31/36/5 20/25/5 13/45/5 26/46/5 
f 21/26/5 31/36/5 26/46/5 29/47/5 
s 3
f 28/48/3 22/27/3 21/26/3 29/47/3 
s 6
f 25/30/6 22/27/6 28/48/6 27/43/6 
# 30 polygons

#
# object group68_group64_pSphere9_polySurface1455
#

v  -73.1413 14.4153 37.8599
v  -72.8912 14.4113 37.8556
v  -72.8847 3.2211 46.8723
v  -73.1348 3.2251 46.8766
v  -73.1175 14.4349 39.0768
v  -73.1109 3.1597 48.2843
v  -72.8608 3.1557 48.2799
v  -72.8673 14.4309 39.0725
# 8 vertices

vn -0.0235 -0.6273 -0.7784
vn -0.9997 0.0144 0.0184
vn 0.0235 0.6323 0.7743
vn 0.9997 -0.0144 -0.0184
vn 0.0157 0.9997 -0.0164
vn -0.0168 -0.9988 -0.0461
# 6 vertex normals

vt 0.0005 0.8899 0.0000
vt 0.0029 0.8509 0.0000
vt 0.6991 0.0302 0.0000
vt 0.7359 0.0231 0.0000
vt 0.1025 0.8934 0.0000
vt 0.8523 0.0212 0.0000
vt 0.8601 0.0482 0.0000
vt 0.1318 0.8967 0.0000
vt 0.8839 0.1470 0.0000
vt 0.1402 0.9994 0.0000
vt 0.1220 0.9995 0.0000
vt 0.1138 0.8993 0.0000
vt 0.7356 0.0024 0.0000
vt 0.8518 0.0005 0.0000
# 14 texture coords

g group68_group64_pSphere9_polySurface1455
usemtl Wooden_Slabs_Side_1
s off
f 33/49/7 34/50/7 35/51/7 36/52/7 
f 37/53/8 33/49/8 36/52/8 38/54/8 
f 38/54/9 39/55/9 40/56/9 37/53/9 
f 39/55/10 35/57/10 34/58/10 40/56/10 
f 40/56/11 34/58/11 33/59/11 37/60/11 
f 35/61/12 39/62/12 38/54/12 36/52/12 
# 6 polygons

#
# object group68_group64_pSphere9_polySurface1454
#

v  -83.1173 3.2211 39.2114
v  -83.1238 14.4113 48.2281
v  -83.3739 14.4153 48.2238
v  -83.3674 3.2251 39.2071
v  -83.3501 14.4349 47.0069
v  -83.3435 3.1597 37.7994
v  -83.0999 14.4309 47.0112
v  -83.0934 3.1557 37.8038
# 8 vertices

vn -0.0235 -0.6273 0.7785
vn -0.9997 0.0144 -0.0184
vn 0.0236 0.6323 -0.7743
vn 0.9997 -0.0144 0.0184
vn 0.0157 0.9997 0.0164
vn -0.0168 -0.9988 0.0461
# 6 vertex normals

vt 0.9179 0.0933 0.0000
vt 0.0123 0.2069 0.0000
vt 0.0228 0.1862 0.0000
vt 0.9020 0.0760 0.0000
vt 0.0491 0.1214 0.0000
vt 0.9658 0.0005 0.0000
vt 0.1004 0.2806 0.0000
vt 0.0710 0.2646 0.0000
vt 0.9883 0.1559 0.0000
vt 0.9628 0.1783 0.0000
vt 0.0005 0.2190 0.0000
vt 0.0591 0.2766 0.0000
vt 0.9995 0.1435 0.0000
vt 0.9290 0.0808 0.0000
# 14 texture coords

g group68_group64_pSphere9_polySurface1454
usemtl Wooden_Slabs_Side_1
s off
f 41/63/13 42/64/13 43/65/13 44/66/13 
f 44/66/14 43/65/14 45/67/14 46/68/14 
f 45/69/15 47/70/15 48/71/15 46/72/15 
f 47/70/16 42/64/16 41/63/16 48/71/16 
f 43/73/17 42/64/17 47/70/17 45/74/17 
f 46/75/18 48/71/18 41/63/18 44/76/18 
# 6 polygons

#
# object group68_group64_pSphere9_polySurface1456
#

v  -73.0910 13.6205 48.5289
v  -83.1242 13.6205 48.5289
v  -83.1242 14.4059 48.5289
v  -73.0910 14.4059 48.5289
v  -83.1242 14.4059 47.6733
v  -73.0910 14.4059 47.6733
v  -73.0910 14.4059 37.3370
v  -83.1242 14.4059 37.3370
v  -83.1242 13.6205 37.3370
v  -73.0910 13.6205 37.3370
v  -73.0910 3.0708 47.6733
v  -83.1242 3.0708 47.6733
v  -83.1242 3.0708 48.5289
v  -73.0910 3.0708 48.5289
v  -73.0910 13.6205 47.6733
v  -83.1242 13.6205 47.6733
v  -83.1242 3.7978 48.5289
v  -83.1242 3.7978 47.6733
v  -73.0910 3.7978 47.6733
v  -73.0910 3.7978 48.5289
v  -83.1242 13.6205 38.0893
v  -83.1242 14.4059 38.0893
v  -83.1242 3.7978 37.3370
v  -83.1242 3.7978 38.0893
v  -73.0910 3.0708 37.3370
v  -83.1242 3.0708 37.3370
v  -83.1242 3.0708 38.0893
v  -73.0910 3.0708 38.0893
v  -73.0910 3.7978 37.3370
v  -73.0910 3.7978 38.0893
v  -73.0910 13.6205 38.0893
v  -73.0910 14.4059 38.0893
v  -83.4995 14.8299 48.9475
v  -83.4995 13.9857 48.9475
v  -72.7158 13.9857 48.9475
v  -72.7158 14.8299 48.9475
v  -72.7158 14.8299 48.0279
v  -83.4995 14.8299 48.0279
v  -83.4995 13.9857 36.9184
v  -83.4995 14.8299 36.9184
v  -72.7158 14.8299 36.9184
v  -72.7158 13.9857 36.9184
v  -83.4995 2.6468 48.9475
v  -83.4995 2.6468 48.0279
v  -72.7158 2.6468 48.0279
v  -72.7158 2.6468 48.9475
v  -72.7158 13.9857 48.0279
v  -83.4995 13.9857 48.0279
v  -83.4995 3.4282 48.0279
v  -83.4995 3.4282 48.9475
v  -72.7158 3.4282 48.9475
v  -72.7158 3.4282 48.0279
v  -83.4995 14.8299 37.7269
v  -83.4995 13.9857 37.7269
v  -83.4995 3.4282 36.9184
v  -83.4995 3.4282 37.7269
v  -83.4995 2.6468 37.7269
v  -83.4995 2.6468 36.9184
v  -72.7158 2.6468 36.9184
v  -72.7158 2.6468 37.7269
v  -72.7158 3.4282 37.7269
v  -72.7158 3.4282 36.9184
v  -72.7158 13.9857 37.7269
v  -72.7158 14.8299 37.7269
# 64 vertices

vn 0.0000 0.0000 -1.0000
vn 0.0000 -1.0000 0.0000
vn 0.0000 -1.0000 -0.0000
vn 0.0000 0.0000 1.0000
vn 0.0000 1.0000 -0.0000
vn -1.0000 0.0000 -0.0000
vn 1.0000 0.0000 -0.0000
vn 0.0000 1.0000 0.0000
vn -1.0000 -0.0000 -0.0000
vn 0.0000 0.0000 -0.0000
vn 0.0000 -0.7535 0.6574
vn 0.0000 -0.7535 -0.6574
vn 0.7446 0.0000 0.6675
vn -0.6868 0.0000 -0.7268
vn 0.6868 0.0000 -0.7268
vn -0.7446 0.0000 0.6675
vn -0.6946 0.0000 0.7194
vn 0.7446 0.0000 -0.6675
vn 0.6946 0.0000 0.7194
vn -0.7446 0.0000 -0.6675
vn -0.6974 -0.7166 -0.0000
vn 0.6974 -0.7166 -0.0000
vn -0.7017 0.7125 -0.0000
vn 0.0000 0.7496 0.6618
vn 0.7017 0.7125 -0.0000
vn 0.0000 0.7496 -0.6618
# 26 vertex normals

vt 0.0959 0.2714 0.0000
vt -0.1541 0.2714 0.0000
vt -0.1541 0.2887 0.0000
vt 0.0959 0.2887 0.0000
vt -0.1541 0.3078 0.0000
vt 0.0959 0.3078 0.0000
vt 0.0959 0.5387 0.0000
vt -0.1541 0.5387 0.0000
vt -0.1541 0.5560 0.0000
vt 0.0959 0.5560 0.0000
vt 0.0959 0.0196 0.0000
vt -0.1541 0.0196 0.0000
vt -0.1541 0.0387 0.0000
vt 0.0959 0.0387 0.0000
vt 0.1150 0.2714 0.0000
vt 0.1150 0.2887 0.0000
vt -0.1732 0.2887 0.0000
vt -0.1732 0.2714 0.0000
vt -0.1541 0.0547 0.0000
vt -0.1732 0.0547 0.0000
vt 0.1150 0.0547 0.0000
vt 0.0959 0.0547 0.0000
vt -0.3873 0.2714 0.0000
vt -0.4041 0.2714 0.0000
vt -0.4041 0.2887 0.0000
vt -0.3873 0.2887 0.0000
vt -0.4041 0.0547 0.0000
vt -0.3873 0.0547 0.0000
vt 0.0959 -0.2113 0.0000
vt -0.1541 -0.2113 0.0000
vt -0.1541 -0.1945 0.0000
vt 0.0959 -0.1945 0.0000
vt 0.3459 0.0547 0.0000
vt 0.3291 0.0547 0.0000
vt 0.3291 0.2714 0.0000
vt 0.3459 0.2714 0.0000
vt 0.3459 0.2887 0.0000
vt 0.3291 0.2887 0.0000
vt 0.0959 0.5219 0.0000
vt -0.1541 0.5219 0.0000
vt -0.3873 0.0387 0.0000
vt -0.1732 0.0387 0.0000
vt 0.1150 0.0387 0.0000
vt 0.3291 0.0387 0.0000
vt 0.3459 0.0387 0.0000
vt 0.0959 -0.2273 0.0000
vt -0.1541 -0.2273 0.0000
vt -0.4041 0.0387 0.0000
# 48 texture coords

g group68_group64_pSphere9_polySurface1456
usemtl Wooden_Crate_Exterior
s off
f 49/77/19 50/78/19 51/79/19 52/80/19 
s 1
f 51/79/20 53/81/21 54/82/21 52/80/20 
s off
f 55/83/22 56/84/22 57/85/22 58/86/22 
s 2
f 59/87/23 60/88/23 61/89/23 62/90/23 
s 3
f 63/91/24 49/77/24 52/80/24 54/92/24 
s 4
f 53/93/25 51/79/25 50/78/25 64/94/25 
f 50/78/25 65/95/25 66/96/25 64/94/25 
s 3
f 63/91/24 67/97/24 68/98/24 49/77/24 
s 4
f 69/99/25 57/100/25 56/101/25 70/102/25 
f 71/103/25 57/100/25 69/99/25 72/104/25 
s 2
f 73/105/26 74/106/26 75/107/23 76/108/23 
s 3
f 77/109/24 78/110/24 79/111/24 58/112/24 
f 55/113/27 58/112/24 79/111/24 80/114/24 
s 1
f 80/115/21 70/116/21 56/84/21 55/83/21 
s 4
f 53/93/25 64/94/25 69/99/25 70/102/25 
s 2
f 76/108/23 75/107/23 60/88/23 59/87/23 
s 3
f 79/111/24 63/91/24 54/92/24 80/114/24 
s 1
f 53/81/21 70/116/21 80/115/21 54/82/21 
s 4
f 75/117/25 72/104/25 66/96/25 60/118/25 
f 65/95/25 61/89/25 60/118/25 66/96/25 
s off
f 61/89/19 65/95/19 68/98/19 62/90/19 
s 3
f 62/90/24 68/98/24 67/97/24 59/119/24 
f 76/120/24 59/119/24 67/97/24 78/110/24 
f 78/110/24 77/109/24 73/121/24 76/120/24 
s off
f 74/106/22 73/105/22 77/122/22 71/123/22 
s 4
f 74/124/25 71/103/25 72/104/25 75/117/25 
s off
f 81/79/22 82/78/22 83/77/22 84/80/22 
s 6
f 81/79/23 84/80/23 85/82/23 86/81/23 
s off
f 87/85/19 88/84/19 89/83/19 90/86/19 
s 7
f 91/89/21 92/88/21 93/87/21 94/90/21 
s 8
f 84/80/25 83/77/25 95/91/25 85/92/25 
s 9
f 81/79/24 86/93/24 96/94/24 82/78/24 
f 96/94/24 97/96/24 98/95/24 82/78/24 
s 8
f 99/98/25 100/97/25 95/91/25 83/77/25 
s 9
f 101/102/24 88/101/24 87/100/24 102/99/24 
f 103/103/24 104/104/24 102/99/24 87/100/24 
s 7
f 105/107/21 106/106/21 107/105/21 108/108/21 
s 8
f 109/110/25 110/109/25 90/112/25 111/111/25 
f 89/113/25 112/114/25 111/111/25 90/112/25 
s 6
f 88/84/23 101/116/23 112/115/23 89/83/23 
s 9
f 101/102/24 102/99/24 96/94/24 86/93/24 
s 7
f 92/88/21 105/107/21 108/108/21 93/87/21 
s 8
f 95/91/25 111/111/25 112/114/25 85/92/25 
s 6
f 86/81/23 85/82/23 112/115/23 101/116/23 
s 9
f 105/117/24 92/118/24 97/96/24 104/104/24 
f 91/89/24 98/95/24 97/96/24 92/118/24 
s off
f 98/95/22 91/89/22 94/90/22 99/98/22 
s 8
f 99/98/25 94/90/25 93/119/25 100/97/25 
f 109/110/25 100/97/25 93/119/25 108/120/25 
f 108/120/25 107/121/25 110/109/25 109/110/25 
s off
f 107/105/19 106/106/19 103/123/19 110/122/19 
s 9
f 105/117/24 104/104/24 103/103/24 106/124/24 
s off
f 82/78/28 82/78/28 83/77/28 83/77/28 
f 83/77/28 82/78/28 82/78/28 83/77/28 
f 83/77/28 82/78/28 82/78/28 83/77/28 
f 83/77/28 82/78/28 82/78/28 83/77/28 
f 83/77/28 82/78/28 82/78/28 83/77/28 
f 83/77/28 82/78/28 82/78/28 83/77/28 
f 83/77/28 82/78/28 82/78/28 83/77/28 
f 83/77/28 82/78/28 82/78/28 83/77/28 
f 82/78/28 83/77/28 83/77/28 82/78/28 
f 82/78/29 50/78/29 49/77/29 83/77/29 
f 87/85/28 90/86/28 90/86/28 87/85/28 
f 87/85/28 90/86/28 90/86/28 87/85/28 
f 87/85/28 90/86/28 90/86/28 87/85/28 
f 87/85/28 90/86/28 90/86/28 87/85/28 
f 87/85/28 90/86/28 90/86/28 87/85/28 
f 87/85/28 90/86/28 90/86/28 87/85/28 
f 87/85/28 90/86/28 90/86/28 87/85/28 
f 87/85/28 90/86/28 90/86/28 87/85/28 
f 87/85/28 90/86/28 90/86/28 87/85/28 
f 87/85/30 90/86/30 58/86/30 57/85/30 
f 82/78/28 82/78/28 98/95/28 98/95/28 
f 98/95/28 82/78/28 82/78/28 98/95/28 
f 98/95/28 98/95/28 82/78/28 82/78/28 
f 82/78/28 82/78/28 98/95/28 98/95/28 
f 82/78/28 82/78/28 98/95/28 98/95/28 
f 82/78/28 98/95/28 98/95/28 82/78/28 
f 98/95/28 82/78/28 82/78/28 98/95/28 
f 98/95/28 82/78/28 82/78/28 98/95/28 
f 82/78/28 98/95/28 98/95/28 82/78/28 
f 82/78/31 98/95/31 65/95/31 50/78/31 
f 96/94/28 97/96/28 97/96/28 96/94/28 
f 97/96/28 96/94/28 96/94/28 97/96/28 
f 96/94/28 96/94/28 97/96/28 97/96/28 
f 97/96/28 96/94/28 96/94/28 97/96/28 
f 97/96/28 96/94/28 96/94/28 97/96/28 
f 97/96/28 97/96/28 96/94/28 96/94/28 
f 97/96/28 97/96/28 96/94/28 96/94/28 
f 96/94/28 96/94/28 97/96/28 97/96/28 
f 97/96/28 97/96/28 96/94/28 96/94/28 
f 66/96/32 97/96/32 96/94/32 64/94/32 
f 100/97/28 100/97/28 95/91/28 95/91/28 
f 95/91/28 95/91/28 100/97/28 100/97/28 
f 95/91/28 95/91/28 100/97/28 100/97/28 
f 95/91/28 95/91/28 100/97/28 100/97/28 
f 95/91/28 95/91/28 100/97/28 100/97/28 
f 95/91/28 100/97/28 100/97/28 95/91/28 
f 95/91/28 100/97/28 100/97/28 95/91/28 
f 100/97/28 95/91/28 95/91/28 100/97/28 
f 95/91/28 100/97/28 100/97/28 95/91/28 
f 95/91/33 100/97/33 67/97/33 63/91/33 
f 99/98/28 83/77/28 83/77/28 99/98/28 
f 83/77/28 83/77/28 99/98/28 99/98/28 
f 83/77/28 83/77/28 99/98/28 99/98/28 
f 99/98/28 83/77/28 83/77/28 99/98/28 
f 99/98/28 83/77/28 83/77/28 99/98/28 
f 99/98/28 99/98/28 83/77/28 83/77/28 
f 83/77/28 83/77/28 99/98/28 99/98/28 
f 83/77/28 83/77/28 99/98/28 99/98/28 
f 99/98/28 99/98/28 83/77/28 83/77/28 
f 49/77/34 68/98/34 99/98/34 83/77/34 
f 102/99/28 102/99/28 104/104/28 104/104/28 
f 102/99/28 104/104/28 104/104/28 102/99/28 
f 102/99/28 104/104/28 104/104/28 102/99/28 
f 102/99/28 104/104/28 104/104/28 102/99/28 
f 102/99/28 104/104/28 104/104/28 102/99/28 
f 102/99/28 102/99/28 104/104/28 104/104/28 
f 102/99/28 102/99/28 104/104/28 104/104/28 
f 102/99/28 102/99/28 104/104/28 104/104/28 
f 102/99/28 102/99/28 104/104/28 104/104/28 
f 69/99/35 102/99/35 104/104/35 72/104/35 
f 87/100/28 87/100/28 103/103/28 103/103/28 
f 103/103/28 103/103/28 87/100/28 87/100/28 
f 103/103/28 87/100/28 87/100/28 103/103/28 
f 87/100/28 103/103/28 103/103/28 87/100/28 
f 103/103/28 87/100/28 87/100/28 103/103/28 
f 87/100/28 87/100/28 103/103/28 103/103/28 
f 103/103/28 87/100/28 87/100/28 103/103/28 
f 103/103/28 103/103/28 87/100/28 87/100/28 
f 87/100/28 103/103/28 103/103/28 87/100/28 
f 57/100/36 71/103/36 103/103/36 87/100/36 
f 109/110/28 109/110/28 111/111/28 111/111/28 
f 109/110/28 111/111/28 111/111/28 109/110/28 
f 109/110/28 111/111/28 111/111/28 109/110/28 
f 109/110/28 111/111/28 111/111/28 109/110/28 
f 109/110/28 111/111/28 111/111/28 109/110/28 
f 109/110/28 111/111/28 111/111/28 109/110/28 
f 109/110/28 109/110/28 111/111/28 111/111/28 
f 109/110/28 111/111/28 111/111/28 109/110/28 
f 109/110/28 111/111/28 111/111/28 109/110/28 
f 109/110/37 111/111/37 79/111/37 78/110/37 
f 110/109/28 90/112/28 90/112/28 110/109/28 
f 110/109/28 110/109/28 90/112/28 90/112/28 
f 110/109/28 110/109/28 90/112/28 90/112/28 
f 110/109/28 110/109/28 90/112/28 90/112/28 
f 90/112/28 90/112/28 110/109/28 110/109/28 
f 90/112/28 90/112/28 110/109/28 110/109/28 
f 90/112/28 90/112/28 110/109/28 110/109/28 
f 90/112/28 90/112/28 110/109/28 110/109/28 
f 90/112/28 110/109/28 110/109/28 90/112/28 
f 90/112/38 110/109/38 77/109/38 58/112/38 
f 102/99/28 96/94/28 96/94/28 102/99/28 
f 96/94/28 96/94/28 102/99/28 102/99/28 
f 96/94/28 96/94/28 102/99/28 102/99/28 
f 96/94/28 96/94/28 102/99/28 102/99/28 
f 96/94/28 96/94/28 102/99/28 102/99/28 
f 96/94/28 102/99/28 102/99/28 96/94/28 
f 96/94/28 102/99/28 102/99/28 96/94/28 
f 102/99/28 96/94/28 96/94/28 102/99/28 
f 96/94/28 102/99/28 102/99/28 96/94/28 
f 64/94/39 96/94/39 102/99/39 69/99/39 
f 95/91/28 111/111/28 111/111/28 95/91/28 
f 95/91/28 95/91/28 111/111/28 111/111/28 
f 111/111/28 95/91/28 95/91/28 111/111/28 
f 111/111/28 95/91/28 95/91/28 111/111/28 
f 95/91/28 111/111/28 111/111/28 95/91/28 
f 95/91/28 111/111/28 111/111/28 95/91/28 
f 95/91/28 95/91/28 111/111/28 111/111/28 
f 111/111/28 111/111/28 95/91/28 95/91/28 
f 111/111/28 111/111/28 95/91/28 95/91/28 
f 63/91/40 79/111/40 111/111/40 95/91/40 
f 104/104/28 104/104/28 97/96/28 97/96/28 
f 104/104/28 104/104/28 97/96/28 97/96/28 
f 97/96/28 97/96/28 104/104/28 104/104/28 
f 104/104/28 104/104/28 97/96/28 97/96/28 
f 104/104/28 104/104/28 97/96/28 97/96/28 
f 104/104/28 97/96/28 97/96/28 104/104/28 
f 104/104/28 97/96/28 97/96/28 104/104/28 
f 97/96/28 97/96/28 104/104/28 104/104/28 
f 104/104/28 97/96/28 97/96/28 104/104/28 
f 104/104/41 97/96/41 66/96/41 72/104/41 
f 98/95/28 99/98/28 99/98/28 98/95/28 
f 98/95/28 99/98/28 99/98/28 98/95/28 
f 98/95/28 99/98/28 99/98/28 98/95/28 
f 98/95/28 99/98/28 99/98/28 98/95/28 
f 98/95/28 99/98/28 99/98/28 98/95/28 
f 98/95/28 99/98/28 99/98/28 98/95/28 
f 98/95/28 99/98/28 99/98/28 98/95/28 
f 98/95/28 99/98/28 99/98/28 98/95/28 
f 98/95/28 99/98/28 99/98/28 98/95/28 
f 98/95/42 99/98/42 68/98/42 65/95/42 
f 100/97/28 109/110/28 109/110/28 100/97/28 
f 109/110/28 100/97/28 100/97/28 109/110/28 
f 100/97/28 100/97/28 109/110/28 109/110/28 
f 109/110/28 109/110/28 100/97/28 100/97/28 
f 100/97/28 100/97/28 109/110/28 109/110/28 
f 109/110/28 100/97/28 100/97/28 109/110/28 
f 109/110/28 100/97/28 100/97/28 109/110/28 
f 109/110/28 100/97/28 100/97/28 109/110/28 
f 100/97/28 109/110/28 109/110/28 100/97/28 
f 109/110/43 78/110/43 67/97/43 100/97/43 
f 110/122/28 103/123/28 103/123/28 110/122/28 
f 103/123/28 110/122/28 110/122/28 103/123/28 
f 103/123/28 110/122/28 110/122/28 103/123/28 
f 103/123/28 110/122/28 110/122/28 103/123/28 
f 103/123/28 110/122/28 110/122/28 103/123/28 
f 103/123/28 110/122/28 110/122/28 103/123/28 
f 103/123/28 110/122/28 110/122/28 103/123/28 
f 103/123/28 103/123/28 110/122/28 110/122/28 
f 103/123/28 103/123/28 110/122/28 110/122/28 
f 110/122/44 103/123/44 71/123/44 77/122/44 
# 212 polygons

