%YAML 1.1
%TAG !u! tag:unity3d.com,2011:
--- !u!114 &11400000
MonoBehaviour:
  m_ObjectHideFlags: 0
  m_CorrespondingSourceObject: {fileID: 0}
  m_PrefabInstance: {fileID: 0}
  m_PrefabAsset: {fileID: 0}
  m_GameObject: {fileID: 0}
  m_Enabled: 1
  m_EditorHideFlags: 0
  m_Script: {fileID: 11500000, guid: e90911e410742a1498a167540c7865bf, type: 3}
  m_Name: GemPose
  m_EditorClassIdentifier: 
  leftHand:
    inputSource: 1
    thumbFingerMovementType: 0
    indexFingerMovementType: 0
    middleFingerMovementType: 0
    ringFingerMovementType: 0
    pinkyFingerMovementType: 0
    ignoreRootPoseData: 1
    ignoreWristPoseData: 1
    position: {x: 0.019461662, y: -0.09369347, z: -0.16868983}
    rotation: {x: -0.2575676, y: -0.1812932, z: 0.5196863, w: -0.79417753}
    bonePositions:
    - {x: -0, y: 0, z: 0}
    - {x: -0.034037687, y: 0.03650266, z: 0.16472164}
    - {x: -0.012083233, y: 0.028070247, z: 0.025049694}
    - {x: 0.040405963, y: -0.000000051561553, z: 0.000000045447194}
    - {x: 0.032516792, y: -0.000000051137583, z: -0.000000012933195}
    - {x: 0.030463902, y: 0.00000016269207, z: 0.0000000792839}
    - {x: 0.0006324522, y: 0.026866155, z: 0.015001948}
    - {x: 0.074204385, y: 0.005002201, z: -0.00023377323}
    - {x: 0.043930072, y: 0.000000059567498, z: 0.00000018367103}
    - {x: 0.02869547, y: -0.00000009398158, z: -0.00000012649753}
    - {x: 0.022821384, y: -0.00000014365155, z: 0.00000007651614}
    - {x: 0.0021773134, y: 0.007119544, z: 0.016318738}
    - {x: 0.07095288, y: -0.00077883265, z: -0.000997186}
    - {x: 0.043108486, y: -0.00000009950596, z: -0.0000000067041825}
    - {x: 0.033266045, y: -0.00000001320567, z: -0.000000021670374}
    - {x: 0.025892371, y: 0.00000009984198, z: -0.0000000020352908}
    - {x: 0.0005134356, y: -0.0065451227, z: 0.016347693}
    - {x: 0.06587581, y: -0.0017857892, z: -0.00069344096}
    - {x: 0.04069671, y: -0.000000095347104, z: -0.000000022934731}
    - {x: 0.028746964, y: 0.00000010089892, z: 0.000000045306827}
    - {x: 0.022430236, y: 0.00000010846127, z: -0.000000017428562}
    - {x: -0.002478151, y: -0.01898137, z: 0.015213584}
    - {x: 0.0628784, y: -0.0028440945, z: -0.0003315112}
    - {x: 0.030219711, y: -0.00000003418319, z: -0.00000009332872}
    - {x: 0.018186597, y: -0.0000000050220166, z: -0.00000020934549}
    - {x: 0.01801794, y: -0.0000000200012, z: 0.0000000659746}
    - {x: -0.0060591106, y: 0.05628522, z: 0.060063843}
    - {x: -0.04041555, y: -0.043017667, z: 0.019344581}
    - {x: -0.03935372, y: -0.07567404, z: 0.047048334}
    - {x: -0.038340144, y: -0.09098663, z: 0.08257892}
    - {x: -0.031805996, y: -0.08721431, z: 0.12101539}
    boneRotations:
    - {x: -6.123234e-17, y: 1, z: 6.123234e-17, w: -0.00000004371139}
    - {x: -0.078608155, y: -0.92027926, z: 0.3792963, w: -0.055146642}
    - {x: -0.5256202, y: -0.6802367, z: 0.21412294, w: 0.46384576}
    - {x: -0.12565874, y: 0.0066159633, z: -0.22208245, w: 0.9668741}
    - {x: 0, y: 0, z: -0.21643952, w: 0.97629607}
    - {x: -1.3877788e-17, y: -1.3877788e-17, z: -5.551115e-17, w: 1}
    - {x: -0.6442515, y: -0.42213318, z: -0.4782025, w: 0.42197865}
    - {x: 0.17719719, y: -0.032502405, z: -0.30551368, w: 0.9349899}
    - {x: 0.000000014901158, y: -0.000000007450579, z: -0.17382413, w: 0.9847768}
    - {x: 0.019543277, y: 0.018421393, z: -0.14774624, w: 0.98866063}
    - {x: 6.938894e-18, y: 1.9428903e-16, z: -1.348151e-33, w: 1}
    - {x: -0.546723, y: -0.46074906, z: -0.44252017, w: 0.54127645}
    - {x: -0.0065197786, y: -0.02940863, z: -0.21634118, w: 0.975853}
    - {x: 0, y: 0, z: -0.21643952, w: 0.97629607}
    - {x: 0, y: 0, z: -0.21643952, w: 0.97629607}
    - {x: 1.1639192e-17, y: -5.602331e-17, z: -0.040125635, w: 0.9991947}
    - {x: -0.5166922, y: -0.4298879, z: -0.49554786, w: 0.5501435}
    - {x: 0, y: 0, z: -0.21643952, w: 0.97629607}
    - {x: 0, y: 0, z: -0.21643952, w: 0.97629607}
    - {x: 0, y: 0, z: -0.21643952, w: 0.97629607}
    - {x: 6.938894e-18, y: -9.62965e-35, z: -1.3877788e-17, w: 1}
    - {x: -0.5269183, y: -0.32674035, z: -0.5840246, w: 0.52394}
    - {x: 0.015067456, y: 0.067964934, z: -0.21591437, w: 0.9739275}
    - {x: 0, y: 0, z: -0.21643952, w: 0.97629607}
    - {x: -0.000000011013901, y: -0.0000000062574586, z: -0.030515643, w: 0.9995343}
    - {x: 0, y: 0, z: 1.9081958e-17, w: 1}
    - {x: 0.20274544, y: 0.59426665, z: 0.2494411, w: 0.73723847}
    - {x: 0.6235274, y: -0.66380864, z: -0.29373443, w: -0.29033053}
    - {x: 0.6780625, y: -0.6592852, z: -0.26568344, w: -0.18704711}
    - {x: 0.7367927, y: -0.6347571, z: -0.14393571, w: -0.18303718}
    - {x: 0.7584072, y: -0.6393418, z: -0.12667806, w: -0.0036594148}
  rightHand:
    inputSource: 2
    thumbFingerMovementType: 0
    indexFingerMovementType: 0
    middleFingerMovementType: 0
    ringFingerMovementType: 0
    pinkyFingerMovementType: 0
    ignoreRootPoseData: 1
    ignoreWristPoseData: 1
    position: {x: -0.019463196, y: -0.09369626, z: -0.16869196}
    rotation: {x: 0.25756758, y: -0.18129319, z: 0.5196862, w: 0.7941775}
    bonePositions:
    - {x: -0, y: 0, z: 0}
    - {x: -0.034037687, y: 0.03650266, z: 0.16472164}
    - {x: -0.012083233, y: 0.028070247, z: 0.025049694}
    - {x: 0.040405963, y: -0.000000051561553, z: 0.000000045447194}
    - {x: 0.032516792, y: -0.000000051137583, z: -0.000000012933195}
    - {x: 0.030463902, y: 0.00000016269207, z: 0.0000000792839}
    - {x: 0.0006324522, y: 0.026866155, z: 0.015001948}
    - {x: 0.074204385, y: 0.005002201, z: -0.00023377323}
    - {x: 0.043930072, y: 0.000000059567498, z: 0.00000018367103}
    - {x: 0.02869547, y: -0.00000009398158, z: -0.00000012649753}
    - {x: 0.022821384, y: -0.00000014365155, z: 0.00000007651614}
    - {x: 0.0021773134, y: 0.007119544, z: 0.016318738}
    - {x: 0.07095288, y: -0.00077883265, z: -0.000997186}
    - {x: 0.043108486, y: -0.00000009950596, z: -0.0000000067041825}
    - {x: 0.033266045, y: -0.00000001320567, z: -0.000000021670374}
    - {x: 0.025892371, y: 0.00000009984198, z: -0.0000000020352908}
    - {x: 0.0005134356, y: -0.0065451227, z: 0.016347693}
    - {x: 0.06587581, y: -0.0017857892, z: -0.00069344096}
    - {x: 0.04069671, y: -0.000000095347104, z: -0.000000022934731}
    - {x: 0.028746964, y: 0.00000010089892, z: 0.000000045306827}
    - {x: 0.022430236, y: 0.00000010846127, z: -0.000000017428562}
    - {x: -0.002478151, y: -0.01898137, z: 0.015213584}
    - {x: 0.0628784, y: -0.0028440945, z: -0.0003315112}
    - {x: 0.030219711, y: -0.00000003418319, z: -0.00000009332872}
    - {x: 0.018186597, y: -0.0000000050220166, z: -0.00000020934549}
    - {x: 0.01801794, y: -0.0000000200012, z: 0.0000000659746}
    - {x: -0.0060591106, y: 0.05628522, z: 0.060063843}
    - {x: -0.04041555, y: -0.043017667, z: 0.019344581}
    - {x: -0.03935372, y: -0.07567404, z: 0.047048334}
    - {x: -0.038340144, y: -0.09098663, z: 0.08257892}
    - {x: -0.031805996, y: -0.08721431, z: 0.12101539}
    boneRotations:
    - {x: -6.123234e-17, y: 1, z: 6.123234e-17, w: -0.00000004371139}
    - {x: -0.078608155, y: -0.92027926, z: 0.3792963, w: -0.055146642}
    - {x: -0.5256202, y: -0.6802367, z: 0.21412294, w: 0.46384576}
    - {x: -0.12565874, y: 0.0066159633, z: -0.22208245, w: 0.9668741}
    - {x: 0, y: 0, z: -0.21643952, w: 0.97629607}
    - {x: -1.3877788e-17, y: -1.3877788e-17, z: -5.551115e-17, w: 1}
    - {x: -0.6442515, y: -0.42213318, z: -0.4782025, w: 0.42197865}
    - {x: 0.17719719, y: -0.032502405, z: -0.30551368, w: 0.9349899}
    - {x: 0.000000014901158, y: -0.000000007450579, z: -0.17382413, w: 0.9847768}
    - {x: 0.019543277, y: 0.018421393, z: -0.14774624, w: 0.98866063}
    - {x: 6.938894e-18, y: 1.9428903e-16, z: -1.348151e-33, w: 1}
    - {x: -0.546723, y: -0.46074906, z: -0.44252017, w: 0.54127645}
    - {x: -0.0065197786, y: -0.02940863, z: -0.21634118, w: 0.975853}
    - {x: 0, y: 0, z: -0.21643952, w: 0.97629607}
    - {x: 0, y: 0, z: -0.21643952, w: 0.97629607}
    - {x: 1.1639192e-17, y: -5.602331e-17, z: -0.040125635, w: 0.9991947}
    - {x: -0.5166922, y: -0.4298879, z: -0.49554786, w: 0.5501435}
    - {x: 0, y: 0, z: -0.21643952, w: 0.97629607}
    - {x: 0, y: 0, z: -0.21643952, w: 0.97629607}
    - {x: 0, y: 0, z: -0.21643952, w: 0.97629607}
    - {x: 6.938894e-18, y: -9.62965e-35, z: -1.3877788e-17, w: 1}
    - {x: -0.5269183, y: -0.32674035, z: -0.5840246, w: 0.52394}
    - {x: 0.015067456, y: 0.067964934, z: -0.21591437, w: 0.9739275}
    - {x: 0, y: 0, z: -0.21643952, w: 0.97629607}
    - {x: -0.000000011013901, y: -0.0000000062574586, z: -0.030515643, w: 0.9995343}
    - {x: 0, y: 0, z: 1.9081958e-17, w: 1}
    - {x: 0.20274544, y: 0.59426665, z: 0.2494411, w: 0.73723847}
    - {x: 0.6235274, y: -0.66380864, z: -0.29373443, w: -0.29033053}
    - {x: 0.6780625, y: -0.6592852, z: -0.26568344, w: -0.18704711}
    - {x: 0.7367927, y: -0.6347571, z: -0.14393571, w: -0.18303718}
    - {x: 0.7584072, y: -0.6393418, z: -0.12667806, w: -0.0036594148}
  applyToSkeletonRoot: 1
