%YAML 1.1
%TAG !u! tag:unity3d.com,2011:
--- !u!114 &11400000
MonoBehaviour:
  m_ObjectHideFlags: 0
  m_CorrespondingSourceObject: {fileID: 0}
  m_PrefabInstance: {fileID: 0}
  m_PrefabAsset: {fileID: 0}
  m_GameObject: {fileID: 0}
  m_Enabled: 1
  m_EditorHideFlags: 0
  m_Script: {fileID: 11500000, guid: e90911e410742a1498a167540c7865bf, type: 3}
  m_Name: fallback_fist
  m_EditorClassIdentifier: 
  leftHand:
    inputSource: 1
    thumbFingerMovementType: 0
    indexFingerMovementType: 0
    middleFingerMovementType: 0
    ringFingerMovementType: 0
    pinkyFingerMovementType: 0
    ignoreRootPoseData: 1
    ignoreWristPoseData: 1
    position: {x: -0.01000023, y: -0.032992523, z: -0.1461413}
    rotation: {x: -0.38268343, y: -0, z: -0, w: -0.92387956}
    bonePositions:
    - {x: -0, y: 0, z: 0}
    - {x: -0.034037687, y: 0.03650266, z: 0.16472164}
    - {x: -0.016305087, y: 0.027528726, z: 0.017799662}
    - {x: 0.040405963, y: -0.000000051561553, z: 0.000000045447194}
    - {x: 0.032516792, y: -0.000000051137583, z: -0.000000012933195}
    - {x: 0.030463902, y: 0.00000016269207, z: 0.0000000792839}
    - {x: 0.0038021489, y: 0.021514187, z: 0.012803366}
    - {x: 0.074204385, y: 0.005002201, z: -0.00023377323}
    - {x: 0.043286677, y: 0.000000059333324, z: 0.00000018320057}
    - {x: 0.028275194, y: -0.00000009297885, z: -0.00000012653295}
    - {x: 0.022821384, y: -0.00000014365155, z: 0.00000007651614}
    - {x: 0.005786922, y: 0.0068064053, z: 0.016533904}
    - {x: 0.07095288, y: -0.00077883265, z: -0.000997186}
    - {x: 0.043108486, y: -0.00000009950596, z: -0.0000000067041825}
    - {x: 0.03326598, y: -0.000000017544496, z: -0.000000020628962}
    - {x: 0.025892371, y: 0.00000009984198, z: -0.0000000020352908}
    - {x: 0.004123044, y: -0.0068582613, z: 0.016562859}
    - {x: 0.06587581, y: -0.0017857892, z: -0.00069344096}
    - {x: 0.040331207, y: -0.00000009449958, z: -0.00000002273692}
    - {x: 0.028488781, y: 0.000000101152565, z: 0.000000045493586}
    - {x: 0.022430236, y: 0.00000010846127, z: -0.000000017428562}
    - {x: 0.0011314574, y: -0.019294508, z: 0.01542875}
    - {x: 0.0628784, y: -0.0028440945, z: -0.0003315112}
    - {x: 0.029874247, y: -0.000000034247638, z: -0.00000009126629}
    - {x: 0.017978692, y: -0.0000000028448923, z: -0.00000020797508}
    - {x: 0.01801794, y: -0.0000000200012, z: 0.0000000659746}
    - {x: 0.019716311, y: 0.002801723, z: 0.093936935}
    - {x: -0.0075385696, y: 0.01764465, z: 0.10240429}
    - {x: -0.0031984635, y: 0.0072115273, z: 0.11665362}
    - {x: 0.000026269245, y: -0.007118772, z: 0.13072418}
    - {x: -0.0018780098, y: -0.02256182, z: 0.14003526}
    boneRotations:
    - {x: -6.123234e-17, y: 1, z: 6.123234e-17, w: -0.00000004371139}
    - {x: -0.078608155, y: -0.92027926, z: 0.3792963, w: -0.055146642}
    - {x: -0.2257035, y: -0.836342, z: 0.12641343, w: 0.48333195}
    - {x: -0.01330204, y: 0.0829018, z: -0.43944824, w: 0.89433527}
    - {x: 0.00072834245, y: -0.0012028969, z: -0.58829284, w: 0.80864674}
    - {x: -1.3877788e-17, y: -1.3877788e-17, z: -5.551115e-17, w: 1}
    - {x: -0.6173145, y: -0.44918522, z: -0.5108743, w: 0.39517453}
    - {x: -0.041852362, y: 0.11180638, z: -0.72633374, w: 0.67689514}
    - {x: -0.0005700487, y: 0.115204416, z: -0.81729656, w: 0.56458294}
    - {x: -0.010756178, y: 0.027241308, z: -0.66610956, w: 0.7452787}
    - {x: 6.938894e-18, y: 1.9428903e-16, z: -1.348151e-33, w: 1}
    - {x: -0.5142028, y: -0.4836996, z: -0.47834843, w: 0.522315}
    - {x: -0.09487112, y: -0.05422859, z: -0.7229027, w: 0.68225396}
    - {x: 0.0076794685, y: -0.09769542, z: -0.7635977, w: 0.6382125}
    - {x: -0.06366954, y: 0.00036316764, z: -0.7530614, w: 0.6548623}
    - {x: 1.1639192e-17, y: -5.602331e-17, z: -0.040125635, w: 0.9991947}
    - {x: -0.489609, y: -0.46399677, z: -0.52064353, w: 0.523374}
    - {x: -0.088269405, y: 0.012672794, z: -0.7085384, w: 0.7000152}
    - {x: -0.0005935501, y: -0.039828163, z: -0.74642265, w: 0.66427904}
    - {x: -0.027121458, y: -0.005438834, z: -0.7788164, w: 0.62664175}
    - {x: 6.938894e-18, y: -9.62965e-35, z: -1.3877788e-17, w: 1}
    - {x: -0.47976637, y: -0.37993452, z: -0.63019824, w: 0.47783276}
    - {x: -0.094065815, y: 0.062634066, z: -0.69046116, w: 0.7144873}
    - {x: 0.00313052, y: 0.03775632, z: -0.7113834, w: 0.7017823}
    - {x: -0.008087321, y: -0.003009417, z: -0.7361885, w: 0.6767216}
    - {x: 0, y: 0, z: 1.9081958e-17, w: 1}
    - {x: -0.54886997, y: 0.1177861, z: -0.7578353, w: 0.33249632}
    - {x: 0.13243657, y: -0.8730836, z: -0.45493412, w: -0.114980996}
    - {x: 0.17098099, y: -0.92266804, z: -0.34507802, w: -0.019245595}
    - {x: 0.15011512, y: -0.952169, z: -0.25831383, w: -0.064137466}
    - {x: 0.07684197, y: -0.97957754, z: -0.18576658, w: -0.0037347008}
  rightHand:
    inputSource: 2
    thumbFingerMovementType: 0
    indexFingerMovementType: 0
    middleFingerMovementType: 0
    ringFingerMovementType: 0
    pinkyFingerMovementType: 0
    ignoreRootPoseData: 1
    ignoreWristPoseData: 1
    position: {x: 0.01000023, y: -0.032992523, z: -0.1461413}
    rotation: {x: 0.38268343, y: -0, z: -0, w: 0.92387956}
    bonePositions:
    - {x: -0, y: 0, z: 0}
    - {x: -0.034037687, y: 0.03650266, z: 0.16472164}
    - {x: -0.016305087, y: 0.027528726, z: 0.017799662}
    - {x: 0.040405963, y: -0.000000051561553, z: 0.000000045447194}
    - {x: 0.032516792, y: -0.000000051137583, z: -0.000000012933195}
    - {x: 0.030463902, y: 0.00000016269207, z: 0.0000000792839}
    - {x: 0.0038021489, y: 0.021514187, z: 0.012803366}
    - {x: 0.074204385, y: 0.005002201, z: -0.00023377323}
    - {x: 0.043286677, y: 0.000000059333324, z: 0.00000018320057}
    - {x: 0.028275194, y: -0.00000009297885, z: -0.00000012653295}
    - {x: 0.022821384, y: -0.00000014365155, z: 0.00000007651614}
    - {x: 0.005786922, y: 0.0068064053, z: 0.016533904}
    - {x: 0.07095288, y: -0.00077883265, z: -0.000997186}
    - {x: 0.043108486, y: -0.00000009950596, z: -0.0000000067041825}
    - {x: 0.03326598, y: -0.000000017544496, z: -0.000000020628962}
    - {x: 0.025892371, y: 0.00000009984198, z: -0.0000000020352908}
    - {x: 0.004123044, y: -0.0068582613, z: 0.016562859}
    - {x: 0.06587581, y: -0.0017857892, z: -0.00069344096}
    - {x: 0.040331207, y: -0.00000009449958, z: -0.00000002273692}
    - {x: 0.028488781, y: 0.000000101152565, z: 0.000000045493586}
    - {x: 0.022430236, y: 0.00000010846127, z: -0.000000017428562}
    - {x: 0.0011314574, y: -0.019294508, z: 0.01542875}
    - {x: 0.0628784, y: -0.0028440945, z: -0.0003315112}
    - {x: 0.029874247, y: -0.000000034247638, z: -0.00000009126629}
    - {x: 0.017978692, y: -0.0000000028448923, z: -0.00000020797508}
    - {x: 0.01801794, y: -0.0000000200012, z: 0.0000000659746}
    - {x: 0.019716311, y: 0.002801723, z: 0.093936935}
    - {x: -0.0075385696, y: 0.01764465, z: 0.10240429}
    - {x: -0.0031984635, y: 0.0072115273, z: 0.11665362}
    - {x: 0.000026269245, y: -0.007118772, z: 0.13072418}
    - {x: -0.0018780098, y: -0.02256182, z: 0.14003526}
    boneRotations:
    - {x: -6.123234e-17, y: 1, z: 6.123234e-17, w: -0.00000004371139}
    - {x: -0.078608155, y: -0.92027926, z: 0.3792963, w: -0.055146642}
    - {x: -0.2257035, y: -0.836342, z: 0.12641343, w: 0.48333195}
    - {x: -0.01330204, y: 0.0829018, z: -0.43944824, w: 0.89433527}
    - {x: 0.00072834245, y: -0.0012028969, z: -0.58829284, w: 0.80864674}
    - {x: -1.3877788e-17, y: -1.3877788e-17, z: -5.551115e-17, w: 1}
    - {x: -0.6173145, y: -0.44918522, z: -0.5108743, w: 0.39517453}
    - {x: -0.041852362, y: 0.11180638, z: -0.72633374, w: 0.67689514}
    - {x: -0.0005700487, y: 0.115204416, z: -0.81729656, w: 0.56458294}
    - {x: -0.010756178, y: 0.027241308, z: -0.66610956, w: 0.7452787}
    - {x: 6.938894e-18, y: 1.9428903e-16, z: -1.348151e-33, w: 1}
    - {x: -0.5142028, y: -0.4836996, z: -0.47834843, w: 0.522315}
    - {x: -0.09487112, y: -0.05422859, z: -0.7229027, w: 0.68225396}
    - {x: 0.0076794685, y: -0.09769542, z: -0.7635977, w: 0.6382125}
    - {x: -0.06366954, y: 0.00036316764, z: -0.7530614, w: 0.6548623}
    - {x: 1.1639192e-17, y: -5.602331e-17, z: -0.040125635, w: 0.9991947}
    - {x: -0.489609, y: -0.46399677, z: -0.52064353, w: 0.523374}
    - {x: -0.088269405, y: 0.012672794, z: -0.7085384, w: 0.7000152}
    - {x: -0.0005935501, y: -0.039828163, z: -0.74642265, w: 0.66427904}
    - {x: -0.027121458, y: -0.005438834, z: -0.7788164, w: 0.62664175}
    - {x: 6.938894e-18, y: -9.62965e-35, z: -1.3877788e-17, w: 1}
    - {x: -0.47976637, y: -0.37993452, z: -0.63019824, w: 0.47783276}
    - {x: -0.094065815, y: 0.062634066, z: -0.69046116, w: 0.7144873}
    - {x: 0.00313052, y: 0.03775632, z: -0.7113834, w: 0.7017823}
    - {x: -0.008087321, y: -0.003009417, z: -0.7361885, w: 0.6767216}
    - {x: 0, y: 0, z: 1.9081958e-17, w: 1}
    - {x: -0.54886997, y: 0.1177861, z: -0.7578353, w: 0.33249632}
    - {x: 0.13243657, y: -0.8730836, z: -0.45493412, w: -0.114980996}
    - {x: 0.17098099, y: -0.92266804, z: -0.34507802, w: -0.019245595}
    - {x: 0.15011512, y: -0.952169, z: -0.25831383, w: -0.064137466}
    - {x: 0.07684197, y: -0.97957754, z: -0.18576658, w: -0.0037347008}
  applyToSkeletonRoot: 1
