%YAML 1.1
%TAG !u! tag:unity3d.com,2011:
--- !u!1 &9202363070479744303
GameObject:
  m_ObjectHideFlags: 0
  m_CorrespondingSourceObject: {fileID: 0}
  m_PrefabInstance: {fileID: 0}
  m_PrefabAsset: {fileID: 0}
  serializedVersion: 6
  m_Component:
  - component: {fileID: 8430330413111469973}
  - component: {fileID: 4850754262057183280}
  - component: {fileID: 7256882317387472122}
  - component: {fileID: 8868684315582233357}
  m_Layer: 0
  m_Name: ArchDoor_Wall
  m_TagString: Untagged
  m_Icon: {fileID: 0}
  m_NavMeshLayer: 0
  m_StaticEditorFlags: 0
  m_IsActive: 1
--- !u!4 &8430330413111469973
Transform:
  m_ObjectHideFlags: 0
  m_CorrespondingSourceObject: {fileID: 0}
  m_PrefabInstance: {fileID: 0}
  m_PrefabAsset: {fileID: 0}
  m_GameObject: {fileID: 9202363070479744303}
  m_LocalRotation: {x: 0.00000008146034, y: 0, z: -0, w: 1}
  m_LocalPosition: {x: 281.4852, y: 265.80264, z: 238.78989}
  m_LocalScale: {x: 1, y: 1, z: 1}
  m_Children:
  - {fileID: 4979944763671351455}
  m_Father: {fileID: 0}
  m_RootOrder: 0
  m_LocalEulerAnglesHint: {x: 0, y: 0, z: 0}
--- !u!33 &4850754262057183280
MeshFilter:
  m_ObjectHideFlags: 0
  m_CorrespondingSourceObject: {fileID: 0}
  m_PrefabInstance: {fileID: 0}
  m_PrefabAsset: {fileID: 0}
  m_GameObject: {fileID: 9202363070479744303}
  m_Mesh: {fileID: 2352639002329193810, guid: 932db38368475e546843ae137f846a53, type: 3}
--- !u!23 &7256882317387472122
MeshRenderer:
  m_ObjectHideFlags: 0
  m_CorrespondingSourceObject: {fileID: 0}
  m_PrefabInstance: {fileID: 0}
  m_PrefabAsset: {fileID: 0}
  m_GameObject: {fileID: 9202363070479744303}
  m_Enabled: 1
  m_CastShadows: 1
  m_ReceiveShadows: 1
  m_DynamicOccludee: 1
  m_MotionVectors: 1
  m_LightProbeUsage: 1
  m_ReflectionProbeUsage: 1
  m_RayTracingMode: 2
  m_RayTraceProcedural: 0
  m_RenderingLayerMask: 1
  m_RendererPriority: 0
  m_Materials:
  - {fileID: 2100000, guid: 66f6115ad14097b4ab34b1c10b6d8548, type: 2}
  m_StaticBatchInfo:
    firstSubMesh: 0
    subMeshCount: 0
  m_StaticBatchRoot: {fileID: 0}
  m_ProbeAnchor: {fileID: 0}
  m_LightProbeVolumeOverride: {fileID: 0}
  m_ScaleInLightmap: 1
  m_ReceiveGI: 1
  m_PreserveUVs: 0
  m_IgnoreNormalsForChartDetection: 0
  m_ImportantGI: 0
  m_StitchLightmapSeams: 1
  m_SelectedEditorRenderState: 3
  m_MinimumChartSize: 4
  m_AutoUVMaxDistance: 0.5
  m_AutoUVMaxAngle: 89
  m_LightmapParameters: {fileID: 0}
  m_SortingLayerID: 0
  m_SortingLayer: 0
  m_SortingOrder: 0
  m_AdditionalVertexStreams: {fileID: 0}
--- !u!64 &8868684315582233357
MeshCollider:
  m_ObjectHideFlags: 0
  m_CorrespondingSourceObject: {fileID: 0}
  m_PrefabInstance: {fileID: 0}
  m_PrefabAsset: {fileID: 0}
  m_GameObject: {fileID: 9202363070479744303}
  m_Material: {fileID: 0}
  m_IsTrigger: 0
  m_Enabled: 1
  serializedVersion: 4
  m_Convex: 0
  m_CookingOptions: 30
  m_Mesh: {fileID: 2352639002329193810, guid: 932db38368475e546843ae137f846a53, type: 3}
--- !u!1001 &4798277667769022324
PrefabInstance:
  m_ObjectHideFlags: 0
  serializedVersion: 2
  m_Modification:
    m_TransformParent: {fileID: 8430330413111469973}
    m_Modifications:
    - target: {fileID: -8679921383154817045, guid: 45e2ab0ad7720734b887d6d899ee8af9, type: 3}
      propertyPath: m_RootOrder
      value: 0
      objectReference: {fileID: 0}
    - target: {fileID: -8679921383154817045, guid: 45e2ab0ad7720734b887d6d899ee8af9, type: 3}
      propertyPath: m_LocalScale.x
      value: 1
      objectReference: {fileID: 0}
    - target: {fileID: -8679921383154817045, guid: 45e2ab0ad7720734b887d6d899ee8af9, type: 3}
      propertyPath: m_LocalScale.y
      value: 1
      objectReference: {fileID: 0}
    - target: {fileID: -8679921383154817045, guid: 45e2ab0ad7720734b887d6d899ee8af9, type: 3}
      propertyPath: m_LocalScale.z
      value: 1
      objectReference: {fileID: 0}
    - target: {fileID: -8679921383154817045, guid: 45e2ab0ad7720734b887d6d899ee8af9, type: 3}
      propertyPath: m_LocalPosition.x
      value: 0.014801025
      objectReference: {fileID: 0}
    - target: {fileID: -8679921383154817045, guid: 45e2ab0ad7720734b887d6d899ee8af9, type: 3}
      propertyPath: m_LocalPosition.y
      value: -0.00262451
      objectReference: {fileID: 0}
    - target: {fileID: -8679921383154817045, guid: 45e2ab0ad7720734b887d6d899ee8af9, type: 3}
      propertyPath: m_LocalPosition.z
      value: 0.010116577
      objectReference: {fileID: 0}
    - target: {fileID: -8679921383154817045, guid: 45e2ab0ad7720734b887d6d899ee8af9, type: 3}
      propertyPath: m_LocalRotation.w
      value: 1
      objectReference: {fileID: 0}
    - target: {fileID: -8679921383154817045, guid: 45e2ab0ad7720734b887d6d899ee8af9, type: 3}
      propertyPath: m_LocalRotation.x
      value: -0
      objectReference: {fileID: 0}
    - target: {fileID: -8679921383154817045, guid: 45e2ab0ad7720734b887d6d899ee8af9, type: 3}
      propertyPath: m_LocalRotation.y
      value: -0
      objectReference: {fileID: 0}
    - target: {fileID: -8679921383154817045, guid: 45e2ab0ad7720734b887d6d899ee8af9, type: 3}
      propertyPath: m_LocalRotation.z
      value: -0
      objectReference: {fileID: 0}
    - target: {fileID: -8679921383154817045, guid: 45e2ab0ad7720734b887d6d899ee8af9, type: 3}
      propertyPath: m_LocalEulerAnglesHint.x
      value: 0
      objectReference: {fileID: 0}
    - target: {fileID: -8679921383154817045, guid: 45e2ab0ad7720734b887d6d899ee8af9, type: 3}
      propertyPath: m_LocalEulerAnglesHint.y
      value: 0
      objectReference: {fileID: 0}
    - target: {fileID: -8679921383154817045, guid: 45e2ab0ad7720734b887d6d899ee8af9, type: 3}
      propertyPath: m_LocalEulerAnglesHint.z
      value: 0
      objectReference: {fileID: 0}
    - target: {fileID: -7511558181221131132, guid: 45e2ab0ad7720734b887d6d899ee8af9, type: 3}
      propertyPath: m_Materials.Array.data[0]
      value: 
      objectReference: {fileID: 2100000, guid: 5af21332407d621438ac6387cc7df29e, type: 2}
    - target: {fileID: 919132149155446097, guid: 45e2ab0ad7720734b887d6d899ee8af9, type: 3}
      propertyPath: m_Name
      value: archway_2
      objectReference: {fileID: 0}
    m_RemovedComponents: []
  m_SourcePrefab: {fileID: 100100000, guid: 45e2ab0ad7720734b887d6d899ee8af9, type: 3}
--- !u!4 &4979944763671351455 stripped
Transform:
  m_CorrespondingSourceObject: {fileID: -8679921383154817045, guid: 45e2ab0ad7720734b887d6d899ee8af9, type: 3}
  m_PrefabInstance: {fileID: 4798277667769022324}
  m_PrefabAsset: {fileID: 0}
