# 3ds Max Wavefront OBJ Exporter v0.97b - (c)2007 guruware
# File Created: 16.12.2018 21:11:08

mtllib Stone_floor_3.mtl

#
# object Stone_floor_3
#

v  127.4955 59.1112 243.8556
v  118.8846 53.5621 248.3831
v  170.4435 53.5159 248.6535
v  72.1511 55.1778 247.9800
v  71.8440 30.3019 248.0852
v  131.1731 2.6665 248.6019
v  67.1407 32.6786 245.1268
v  179.1565 34.1630 246.1243
v  178.5785 54.2099 239.5316
v  178.4322 12.5869 248.2014
v  170.1520 2.9764 246.5229
v  72.2546 2.4220 247.9744
v  169.4103 -3.0046 243.6733
v  93.2941 -2.9919 246.4504
v  67.1597 57.4388 244.1299
v  -73.2384 51.2246 243.7041
v  -71.0854 31.1339 243.8772
v  -61.0256 54.1409 244.6408
v  -7.5922 53.6781 244.9759
v  -30.5505 8.9249 244.3259
v  34.2973 1.9360 244.7963
v  65.6944 0.7863 244.2533
v  -26.0315 2.5718 242.9794
v  73.5916 -3.5749 242.1389
v  -74.4297 57.2683 237.3373
v  3.8320 59.7894 237.6923
v  -118.4125 50.7493 243.3464
v  -127.0068 51.3810 241.5252
v  -121.8515 8.1104 242.9778
v  -76.9197 2.2169 243.0524
v  -57.0688 2.5395 243.9139
v  33.3913 -3.4308 241.1954
v  120.3862 -3.6746 236.7051
v  173.7396 58.5188 236.5536
v  -67.0362 59.7311 236.4375
v  61.8012 59.9635 236.9507
v  -124.2744 57.5705 236.5889
v  -176.3594 55.8157 240.7917
v  -185.0312 51.1300 240.8895
v  -144.8497 1.5806 241.3411
v  -194.4322 32.1869 236.6761
v  -191.3366 5.2478 240.8872
v  -116.6588 -1.5942 237.1667
v  -7.2213 -3.8599 238.0098
v  -135.5309 59.4103 233.8777
v  171.9211 -3.1449 234.9256
v  179.3077 10.3824 228.8829
v  -125.9869 -0.9203 232.4487
v  -188.2440 -3.4851 235.0811
v  -86.0537 -1.6689 237.3835
v  -65.0254 -3.8727 234.8574
v  -43.5566 -3.9470 234.4294
v  66.7650 -3.9054 231.9279
v  79.2970 59.0886 206.9493
v  -158.8868 -3.4306 230.4385
v  -137.4011 -3.4458 235.7141
v  -184.8578 59.2695 226.2905
v  -195.3472 0.0037 224.5927
v  -194.9963 50.3456 227.7395
v  -75.1747 -1.2358 215.1689
v  -74.0661 57.5013 206.1448
v  -26.8121 59.9958 208.6184
v  -195.1016 34.1289 165.4692
v  173.3235 58.6972 193.2056
v  179.4214 53.6305 182.4856
v  121.6986 59.4728 208.8013
v  -131.1901 -3.4286 193.8696
v  179.2931 5.1381 205.9987
v  -66.2201 -3.9109 200.0860
v  -123.6257 56.9796 172.4798
v  -85.0319 -1.8589 173.6762
v  169.2342 -3.5109 186.1567
v  54.2616 -4.3103 186.2990
v  70.3237 58.7060 183.7155
v  70.3890 -3.6504 196.7842
v  62.3599 59.7653 174.4228
v  -129.6310 59.1741 163.6426
v  -166.3040 59.4992 166.1838
v  176.4231 57.7870 188.2063
v  -123.0886 -0.7097 167.9822
v  -9.1791 -4.1490 171.1125
v  -189.3326 59.1457 167.0274
v  -194.5276 53.3561 167.2997
v  -74.9883 0.0735 189.1452
v  32.6562 -4.1207 172.1115
v  -3.1928 59.6203 173.7354
v  114.5502 -3.8682 150.5935
v  -65.9794 59.6162 175.3691
v  -193.0970 -1.8554 147.0494
v  -69.2590 57.5751 167.8873
v  -195.0457 2.3083 162.1258
v  -66.9887 -4.0082 175.6535
v  179.8343 12.6340 178.1869
v  67.3134 -3.8208 171.3904
v  174.5804 58.3691 108.7412
v  177.3729 57.4662 108.1262
v  177.6349 35.0793 -248.3766
v  178.3285 10.3882 -247.5440
v  153.6152 14.9246 -248.8920
v  132.2306 53.9248 -249.3866
v  126.6688 2.5797 -248.9161
v  -189.6842 -3.5275 150.9280
v  67.9612 58.6675 161.5363
v  103.4349 58.5518 130.8352
v  70.5690 26.4196 -248.6002
v  94.3806 -2.5757 -248.4661
v  76.9547 -3.2510 -248.0186
v  168.2597 -3.6795 165.4448
v  155.5344 -2.4464 -248.3448
v  -11.2163 57.4109 167.8734
v  55.2241 62.0290 162.5175
v  -67.2001 -1.6024 168.6317
v  61.8267 -6.3704 167.5184
v  -10.7095 -1.4678 166.9166
v  -3.8860 -6.2525 153.9111
v  29.9668 -6.4405 162.9128
v  -0.0080 62.0060 158.9057
v  179.8205 10.4493 157.2576
v  179.7538 44.8356 122.8733
v  -88.1390 -2.2098 112.2060
v  -10.2531 56.4572 145.8815
v  -49.7348 -2.1599 112.7225
v  -22.5578 -1.8232 126.7130
v  58.2421 61.8494 115.8026
v  -124.5840 57.5839 118.1036
v  -131.8432 -3.4605 117.4001
v  177.1483 1.8880 148.8019
v  168.5661 -3.3158 91.8644
v  -53.2787 57.1233 112.1428
v  -125.6208 -1.6740 121.8803
v  -190.3029 58.7620 105.8961
v  -12.2642 -0.3959 126.1753
v  68.7295 -3.2956 128.0791
v  179.8048 5.1954 120.5368
v  -1.8661 61.8247 117.7945
v  -18.7300 57.5930 112.4489
v  59.2184 -6.2767 111.2153
v  -10.2599 55.8846 115.6981
v  173.9961 58.5537 83.5453
v  -87.1017 57.1035 112.5883
v  -5.1724 -6.1618 102.3578
v  -130.3302 59.5366 111.3770
v  -194.6790 46.4096 87.8529
v  -194.0998 1.4176 78.9133
v  -189.7268 -3.4890 80.9306
v  68.8701 58.5083 98.1905
v  -13.4324 -1.1435 113.1852
v  22.3533 61.9782 48.6647
v  -126.1680 -0.3139 109.6551
v  -8.0912 60.6167 94.7716
v  -123.0443 54.9808 110.2672
v  179.9285 54.0485 81.2638
v  -102.3338 -1.9142 107.5843
v  -74.7404 62.6308 105.0324
v  -82.6938 62.7404 95.9613
v  -46.4158 62.3100 104.9461
v  -84.8537 -7.3269 103.1778
v  -58.9594 -7.9293 105.1093
v  -18.0810 -7.6100 106.3652
v  -6.9166 -6.2910 75.0249
v  -138.7476 59.4151 82.0003
v  -119.3944 57.6505 100.1581
v  120.4366 -3.6058 74.9413
v  -19.4701 62.6797 99.6777
v  -92.9931 57.3791 86.7093
v  180.1645 12.2208 87.9266
v  67.8206 -3.1287 82.8779
v  -91.6208 -2.2460 71.9666
v  132.5423 58.6830 70.7219
v  -124.2305 56.5220 79.6343
v  -123.9326 -1.4301 81.7261
v  -0.1135 61.6939 42.4521
v  -131.1065 -2.9919 85.0515
v  -84.5776 -7.3521 78.0060
v  91.5515 58.5460 33.5545
v  -141.9771 -3.0887 72.4708
v  -179.1473 57.9208 72.9112
v  180.3692 13.9732 42.9341
v  -46.4978 62.3109 36.9740
v  -17.5043 62.4359 47.0315
v  59.4214 62.2371 50.5934
v  -192.8731 35.1053 75.2050
v  179.7253 6.8510 58.6913
v  -149.1841 57.2258 73.9832
v  -135.8146 58.9241 71.9080
v  70.3399 58.6890 54.3077
v  -192.3422 0.4098 71.7956
v  -126.9358 1.5432 73.2382
v  170.0744 -2.9233 54.4921
v  -182.2176 59.1898 63.8112
v  -121.8642 57.5393 58.9448
v  72.1660 54.4033 -248.0464
v  -123.6797 -1.8407 62.3736
v  -117.4491 -1.7269 38.2684
v  69.9749 -3.1828 48.9012
v  -192.9859 47.8959 59.0319
v  -190.1214 -3.5397 59.9723
v  -145.6223 -3.2885 53.1349
v  147.4677 -3.5213 41.7853
v  -9.9976 -3.5531 54.4197
v  -2.1504 -6.3164 44.1669
v  45.1017 -6.8741 40.3156
v  174.3917 58.6168 35.8426
v  180.4751 53.2654 43.3666
v  -193.3196 -0.4854 24.4209
v  -130.2708 59.3182 38.0518
v  -85.4805 57.7303 38.1096
v  -112.2527 57.4847 36.7426
v  103.8214 -4.0781 39.1211
v  -30.0812 -7.4251 43.4780
v  -91.2573 -1.9662 38.4297
v  -78.2462 -6.7486 36.9753
v  -6.3966 60.0367 45.2741
v  173.8569 4.4792 41.2699
v  -73.8643 61.9437 34.1153
v  -132.4117 -3.4074 31.5308
v  -153.4222 59.2460 25.8823
v  60.2704 60.1515 33.0351
v  -189.7134 -3.4041 26.0405
v  -14.5435 -4.2072 39.5431
v  -124.4327 0.8866 32.2803
v  -188.4217 58.8492 22.5670
v  72.3356 52.5963 37.0606
v  -121.3615 53.6641 34.6989
v  168.8920 -1.5014 35.7940
v  -18.8777 60.2458 33.7370
v  10.8607 60.2136 34.1255
v  121.3589 58.6399 36.6721
v  133.5625 -1.1666 30.4545
v  -4.3812 56.0752 35.5536
v  179.9049 19.4396 32.1257
v  68.1529 -0.0054 34.1915
v  -38.6496 -4.2874 35.3397
v  -14.3922 -0.8592 32.2627
v  7.8960 0.4348 30.6729
v  -109.3850 61.9987 32.6994
v  177.8820 51.4251 35.1059
v  54.0606 -2.4492 30.1706
v  95.8429 -1.8730 32.1164
v  31.5716 -0.7801 30.6433
v  -34.7999 57.5504 32.2974
v  174.9539 61.7702 31.7795
v  179.5887 57.3830 29.0774
v  176.5458 -1.2275 28.5883
v  -31.7570 2.5650 31.1059
v  -109.4112 -7.2891 28.1573
v  -4.8596 63.2776 25.8211
v  16.2408 63.7912 28.7550
v  90.0351 63.8137 25.5189
v  -123.9801 -2.7847 16.8965
v  55.7137 63.5644 23.0412
v  174.2046 63.6830 23.3860
v  -26.3548 63.5754 21.5011
v  -123.1316 57.6560 22.3580
v  133.3199 -2.1494 18.5547
v  -36.9684 59.9086 19.0467
v  14.6071 -2.2015 23.4859
v  -49.9423 -7.3660 14.7038
v  179.8984 4.6277 1.8005
v  -36.7947 -0.4013 17.8995
v  -102.2055 -6.9506 -6.4638
v  -33.3132 -1.7359 13.7033
v  14.2406 63.9615 -27.8523
v  -116.4560 -6.6854 -27.5978
v  -26.1565 63.4230 -24.0023
v  -37.3810 59.5080 -20.7788
v  -193.6924 50.9658 -12.2015
v  56.5650 -2.4251 -20.9003
v  101.3268 -2.2214 -32.1710
v  -129.0140 -3.5291 -23.2975
v  119.1790 63.5304 -23.0758
v  180.4315 59.1193 -27.7945
v  169.4828 -1.9107 -1.1351
v  -112.6192 62.0346 -29.6440
v  -130.5384 59.2138 -38.1943
v  171.3704 63.3997 -27.4587
v  -45.8178 61.4438 -30.4050
v  -193.5739 -0.4247 -22.3493
v  -189.8133 -3.4995 -27.0008
v  -35.1673 -1.9775 -16.3441
v  151.1999 -1.9390 -31.8966
v  -46.0478 -6.8443 -32.5555
v  -121.0966 57.6530 -33.8615
v  -187.9806 58.5199 -34.0209
v  176.4269 -2.1788 -21.8510
v  71.9805 63.3830 -26.8899
v  -74.0680 61.9436 -32.4902
v  -17.7992 -1.2693 -33.4109
v  28.4123 -2.0303 -31.7530
v  180.3105 34.5630 -27.7043
v  180.3771 6.4436 -28.2313
v  -122.2696 -1.2449 -37.5414
v  -33.6598 0.8121 -32.5261
v  68.9951 -1.3531 -35.7899
v  -82.5865 -5.6875 -33.5703
v  -17.6593 62.4575 -33.9014
v  -31.8276 53.8910 -31.4474
v  129.3248 61.8971 -31.0538
v  173.9514 58.3932 -34.8731
v  -124.1288 56.0151 -36.7147
v  104.8895 57.4011 -33.9235
v  175.9027 35.3517 -32.9483
v  175.3326 2.5954 -32.9832
v  4.1859 62.0210 -33.8302
v  59.9609 61.1620 -35.6048
v  83.8639 56.9944 -35.3962
v  177.2071 51.5647 -33.5909
v  -90.7693 -1.6791 -37.8089
v  -85.1397 57.3030 -37.9049
v  -31.9486 62.3206 -42.8642
v  -4.0155 57.9129 -37.7951
v  73.9952 51.2177 -36.4655
v  130.8903 58.4631 -34.6285
v  163.9237 -2.8421 -40.2250
v  -30.4334 -7.4033 -38.7296
v  46.0822 -6.2691 -39.2604
v  115.0854 -4.0298 -37.0057
v  72.0403 58.6784 -50.8698
v  -193.8422 45.1270 -62.9988
v  -11.2880 -5.1876 -44.4574
v  -2.2295 -6.3908 -44.8999
v  -83.5850 -7.2565 -46.7607
v  -15.1888 62.5828 -49.4270
v  68.2236 57.3538 -46.6246
v  180.2448 13.4964 -42.1492
v  179.9300 7.8087 -54.8073
v  -6.8056 60.5806 -49.8800
v  180.1322 53.8682 -46.1906
v  -194.3713 0.4730 -62.1047
v  170.9450 -3.3804 -64.6604
v  -89.8206 57.5809 -56.8470
v  -187.8006 -3.8706 -66.7519
v  73.0549 -3.7569 -55.2003
v  -51.6503 62.6849 -104.9493
v  -80.2470 62.8846 -73.4791
v  60.3136 61.9274 -49.2955
v  -126.6324 -2.1766 -69.7159
v  -9.9701 -4.0413 -54.5158
v  -177.1310 58.7176 -72.7922
v  -122.2285 57.0166 -82.1216
v  54.1826 -6.4013 -68.3838
v  179.9334 51.6826 -92.9116
v  66.3482 -1.5761 -69.8526
v  -134.2254 58.8490 -70.1504
v  -125.6689 54.9951 -73.8374
v  -123.8518 -1.5966 -75.7649
v  -159.9476 -3.2600 -63.5781
v  -187.5312 49.8542 -76.4218
v  80.8815 59.0003 -94.8679
v  177.0293 58.5070 -95.5892
v  -191.7314 1.1231 -72.5924
v  -194.0950 15.8793 -71.9172
v  -19.7702 -6.9807 -106.8732
v  -149.4312 56.8406 -73.1190
v  -161.6371 -0.7702 -70.9606
v  -141.5606 -2.8312 -73.9685
v  111.5113 -3.5839 -118.9662
v  -8.7990 -5.0457 -100.9974
v  -4.8073 61.0036 -100.2341
v  -91.2705 -1.1574 -110.2442
v  70.3538 -3.1362 -85.8457
v  -2.7961 -6.1642 -112.3529
v  133.1693 58.6882 -116.6930
v  -191.0504 -3.3014 -80.3948
v  -83.4527 -7.0140 -105.4661
v  29.0093 62.0985 -105.3523
v  -92.5868 57.4954 -108.3541
v  -136.8056 59.1138 -82.1437
v  168.1573 -3.3144 -87.5037
v  68.8388 58.4195 -123.5148
v  58.0084 61.7300 -116.1463
v  -182.5867 59.2878 -85.5613
v  -194.2164 52.5266 -95.7920
v  -19.0567 62.7847 -100.2192
v  -134.3558 -3.5342 -114.9266
v  -82.4731 62.7913 -102.7967
v  179.4397 6.2322 -109.5048
v  -193.9368 0.6561 -128.0787
v  55.0407 -6.2318 -126.8486
v  -122.9002 55.5258 -110.0360
v  -128.7735 58.8485 -121.4396
v  -194.2964 22.3157 -119.5042
v  -189.8194 57.9953 -105.2040
v  69.0674 -2.9350 -126.6678
v  -125.3848 -1.4597 -103.4445
v  103.7146 58.4726 -134.4910
v  -189.5262 -3.4957 -128.2232
v  -9.4489 56.6057 -112.8539
v  167.8607 -3.3856 -123.3877
v  -61.3766 57.5585 -111.9205
v  -123.8083 0.8460 -109.6626
v  -27.3234 -1.5706 -113.1536
v  -12.2081 -1.4314 -112.5392
v  177.1103 1.4198 -145.7829
v  -187.7130 58.8981 -144.3281
v  179.9341 10.7290 -158.8032
v  -118.8733 -1.6899 -116.0362
v  -124.8048 -1.7413 -133.6393
v  -68.5788 -1.7024 -168.1479
v  -0.6250 62.1678 -161.7844
v  -124.9666 57.8401 -155.9176
v  -10.9971 -0.6049 -127.2707
v  -1.0958 -6.1456 -158.0662
v  179.4260 52.9549 -149.9684
v  173.0954 58.6604 -146.3243
v  -74.6786 57.6529 -175.0542
v  67.7641 58.0888 -169.4056
v  -9.5860 56.9044 -146.5651
v  -10.7941 -1.6973 -168.0729
v  62.3594 -6.1646 -164.7444
v  -154.3705 59.2256 -168.9751
v  -194.6902 44.4448 -159.9021
v  -123.7866 -1.0806 -167.5965
v  170.0177 -2.4486 -158.2122
v  -161.5302 -3.4080 -178.7616
v  70.7219 58.7567 -176.1367
v  -194.0460 53.3548 -165.5432
v  66.4613 -3.5608 -171.3542
v  154.3048 58.5023 -177.6866
v  157.5565 -3.5614 -175.7551
v  32.7312 -6.2331 -162.0094
v  -129.8684 59.0088 -210.2850
v  -10.9997 57.3026 -167.5264
v  -123.2711 57.5054 -175.9572
v  -83.9175 -1.6639 -174.0450
v  70.0358 -3.8761 -177.8084
v  -191.5612 -3.5711 -175.2132
v  -131.1154 -3.5392 -194.4333
v  -2.4884 59.7810 -174.9645
v  172.7447 4.3159 -168.9730
v  -194.5168 -0.1187 -203.9272
v  58.8873 60.1951 -172.5822
v  -60.9777 57.2961 -169.0562
v  -3.7628 -4.1136 -171.6176
v  -188.2194 58.9605 -187.2960
v  26.0383 -3.8019 -171.5558
v  178.8189 52.2749 -240.4763
v  175.8408 0.7734 -204.6588
v  -66.2591 -4.1227 -174.9220
v  -67.1195 60.1283 -177.9920
v  -74.2278 -0.7071 -181.1713
v  177.2394 56.1871 -198.5663
v  171.7343 58.5911 -242.7464
v  -194.4112 53.8649 -197.0110
v  21.8744 -4.5504 -182.4973
v  179.2880 7.0620 -204.6194
v  -126.5951 -1.5233 -231.5500
v  -160.3418 -3.7442 -228.9196
v  -29.6953 -4.2675 -234.7394
v  64.3295 59.7224 -210.6745
v  27.6408 59.6701 -205.7556
v  -73.0913 -1.8872 -197.4320
v  57.5691 -4.3367 -191.6868
v  112.1410 -3.5356 -235.2807
v  102.0832 58.6284 -212.7247
v  -195.0026 26.0065 -235.3427
v  64.7060 -1.3385 -190.0258
v  69.6063 -3.5216 -228.4502
v  -68.3026 -4.0431 -207.5489
v  125.7270 58.6227 -243.1175
v  170.6799 -3.3845 -226.7007
v  -66.6024 59.8014 -239.6602
v  -74.8055 57.3302 -239.1129
v  -194.9153 48.2153 -231.1523
v  -187.9664 -3.4261 -235.0681
v  -148.7634 59.1257 -234.7054
v  21.9934 59.7503 -239.8985
v  -125.3481 57.4073 -236.0150
v  -194.7252 -0.1034 -226.1335
v  -185.6537 58.9879 -225.3685
v  35.9118 -4.3147 -239.2557
v  -137.9674 -3.4107 -236.5219
v  69.7049 58.6842 -242.0837
v  -111.1164 -1.8142 -238.0486
v  -73.8244 -0.1571 -240.1575
v  -67.1261 -1.7349 -240.7309
v  173.2726 -3.0838 -239.9736
v  63.4878 -0.4830 -243.8454
v  -182.8262 54.0152 -240.7712
v  62.3462 59.2215 -242.7061
v  -188.2856 32.6402 -240.7697
v  -190.5888 4.8509 -240.6279
v  -127.0283 5.7815 -241.4471
v  -159.9727 2.8478 -241.1061
v  -4.5588 -3.2927 -241.7109
v  -117.8603 51.4876 -243.8019
v  -125.5968 50.7190 -241.5797
v  -151.3272 51.3816 -241.4208
v  -21.0383 54.1464 -244.7544
v  -68.5597 51.8299 -244.1582
v  -118.7536 8.8454 -243.7597
v  -78.8919 4.8798 -243.9733
v  -27.0040 3.8209 -244.1391
v  43.5089 2.4816 -245.1247
v  43.1554 54.1317 -244.9280
v  170.1571 53.5621 -249.2673
v  9.3234 1.0181 -244.6109
v  -73.9313 29.8597 -244.0266
v  67.5021 33.1419 -245.3598
# 499 vertices

vn 0.0035 0.9044 0.4268
vn 0.0019 0.3277 0.9448
vn 0.2902 0.5018 0.8148
vn -0.2366 0.4197 0.8763
vn -0.2840 -0.0013 0.9588
vn -0.0048 -0.4841 0.8750
vn -0.2986 0.0142 0.9543
vn 0.8434 0.0650 0.5333
vn 0.8287 0.4687 0.3060
vn 0.6937 -0.2243 0.6844
vn 0.1709 -0.3633 0.9159
vn -0.2387 -0.3254 0.9149
vn 0.3743 -0.7930 0.4807
vn -0.0007 -0.7786 0.6276
vn -0.1027 0.7391 0.6658
vn -0.0849 0.3647 0.9273
vn -0.0225 -0.0124 0.9997
vn -0.0622 0.4572 0.8872
vn -0.0038 0.4151 0.9098
vn -0.0013 -0.0958 0.9954
vn 0.0402 -0.3306 0.9429
vn -0.2358 -0.5894 0.7727
vn -0.0321 -0.4992 0.8659
vn -0.1547 -0.9165 0.3690
vn -0.1336 0.9086 0.3958
vn -0.0142 0.9448 0.3273
vn -0.0812 0.3536 0.9319
vn -0.0889 0.3666 0.9261
vn -0.0658 -0.3137 0.9473
vn -0.0256 -0.5913 0.8061
vn -0.0095 -0.4639 0.8858
vn 0.0535 -0.8484 0.5267
vn 0.0304 -0.9814 0.1893
vn 0.3351 0.9246 0.1815
vn -0.1502 0.9405 0.3048
vn 0.0913 0.9833 0.1573
vn -0.0018 0.8986 0.4387
vn -0.1226 0.6222 0.7732
vn -0.4206 0.3976 0.8155
vn -0.0083 -0.4820 0.8761
vn -0.8667 0.0640 0.4947
vn -0.5617 -0.2718 0.7814
vn -0.1402 -0.8674 0.4774
vn -0.0277 -0.9198 0.3914
vn 0.0600 0.9369 0.3444
vn 0.5594 -0.8195 0.1245
vn 0.9715 -0.2278 0.0651
vn 0.0504 -0.9480 0.3144
vn -0.3338 -0.8394 0.4290
vn 0.0890 -0.9552 0.2821
vn -0.1389 -0.9524 0.2715
vn 0.0007 -0.9524 0.3049
vn -0.0233 -0.9920 0.1238
vn 0.0048 1.0000 0.0018
vn 0.0111 -0.9843 0.1764
vn 0.1760 -0.8540 0.4897
vn -0.3568 0.9167 0.1800
vn -0.8606 -0.4999 0.0979
vn -0.8802 0.4120 0.2358
vn -0.1125 -0.9935 0.0160
vn -0.1420 0.9899 -0.0043
vn -0.0016 1.0000 -0.0017
vn -0.9999 0.0126 -0.0037
vn 0.1470 0.9891 -0.0012
vn 0.9520 0.3061 0.0072
vn 0.0027 1.0000 -0.0001
vn 0.1812 -0.9834 0.0072
vn 0.9171 -0.3982 -0.0185
vn -0.1850 -0.9827 -0.0109
vn 0.1508 0.9885 0.0102
vn -0.0181 -0.9998 0.0082
vn 0.4384 -0.8982 -0.0328
vn 0.0145 -0.9999 -0.0055
vn 0.0599 0.9982 -0.0084
vn 0.0203 -0.9998 0.0010
vn 0.1032 0.9942 0.0289
vn 0.1775 0.9841 0.0056
vn -0.0053 1.0000 -0.0017
vn 0.5806 0.8142 0.0042
vn 0.1399 -0.9902 0.0009
vn -0.1189 -0.9875 -0.1037
vn -0.4164 0.9091 0.0086
vn -0.9267 0.3756 0.0067
vn -0.0930 -0.9955 0.0187
vn -0.0110 -0.9914 0.1302
vn -0.0709 0.9974 -0.0094
vn -0.0006 -1.0000 -0.0023
vn -0.1865 0.9763 -0.1099
vn -0.7200 -0.6940 -0.0030
vn -0.0427 0.9975 -0.0562
vn -0.9822 -0.1874 -0.0128
vn -0.0943 -0.9891 -0.1128
vn 0.9675 -0.2530 0.0011
vn 0.0777 -0.9953 0.0579
vn 0.1591 0.9873 0.0013
vn 0.7253 0.6881 0.0201
vn 0.6524 0.0277 -0.7574
vn 0.7130 -0.2181 -0.6664
vn 0.0250 -0.0219 -0.9994
vn -0.0039 0.4425 -0.8968
vn -0.0393 -0.4753 -0.8789
vn -0.2294 -0.9733 0.0032
vn 0.1280 0.9918 0.0056
vn 0.0003 1.0000 -0.0032
vn -0.3486 0.0222 -0.9370
vn 0.0318 -0.6644 -0.7467
vn -0.1429 -0.6972 -0.7025
vn 0.4033 -0.9149 0.0199
vn 0.0558 -0.6843 -0.7271
vn -0.0771 0.9847 -0.1563
vn 0.1027 0.9921 0.0721
vn -0.0187 -0.9885 -0.1500
vn 0.1599 -0.9621 0.2208
vn -0.3346 -0.9122 -0.2364
vn -0.2909 -0.9565 0.0236
vn -0.0107 -0.9928 0.1190
vn -0.2405 0.9690 0.0564
vn 0.9631 -0.2622 0.0613
vn 0.9966 0.0824 0.0005
vn -0.1020 -0.9878 0.1175
vn -0.1307 0.9914 -0.0105
vn -0.0009 -0.9437 0.3308
vn 0.0589 -0.9983 -0.0047
vn 0.1539 0.9881 0.0022
vn 0.2021 0.9748 -0.0941
vn 0.1812 -0.9831 -0.0248
vn 0.7763 -0.6261 0.0729
vn 0.4179 -0.9084 -0.0166
vn -0.0004 0.9512 0.3085
vn 0.1402 -0.9895 -0.0342
vn -0.5648 0.8230 -0.0605
vn -0.2406 -0.9705 0.0155
vn 0.1595 -0.9871 -0.0109
vn 0.9068 -0.4210 -0.0209
vn -0.2883 0.9574 0.0186
vn 0.0985 0.9779 0.1844
vn 0.1546 -0.9876 -0.0266
vn -0.2094 0.9749 0.0751
vn 0.3082 0.9513 -0.0100
vn -0.0800 0.9919 0.0983
vn -0.0067 -0.9970 0.0768
vn 0.2378 0.9708 -0.0301
vn -0.9222 0.3212 -0.2152
vn -0.9371 -0.3309 -0.1115
vn -0.3693 -0.9196 -0.1336
vn 0.1596 0.9872 0.0051
vn -0.1021 -0.9556 0.2765
vn -0.0017 0.9984 -0.0573
vn 0.2527 -0.9675 0.0034
vn -0.0224 0.9979 0.0603
vn 0.1912 0.9792 -0.0679
vn 0.8970 0.4420 0.0004
vn -0.0441 -0.9975 0.0550
vn -0.0559 0.9489 0.3107
vn -0.2842 0.9560 0.0726
vn 0.0011 0.9527 0.3040
vn -0.3868 -0.9025 0.1896
vn -0.0069 -0.9518 0.3067
vn 0.0865 -0.9293 0.3589
vn -0.0835 -0.9955 -0.0457
vn 0.0488 0.9973 -0.0544
vn -0.2181 0.9721 0.0860
vn 0.0012 -1.0000 0.0022
vn 0.1370 0.9724 0.1891
vn -0.2025 0.9793 -0.0028
vn 0.9605 -0.2782 0.0045
vn 0.0417 -0.9991 -0.0104
vn -0.2844 -0.9583 -0.0270
vn 0.0000 1.0000 0.0008
vn -0.0342 0.9993 0.0116
vn 0.0374 -0.9971 -0.0666
vn -0.2034 0.9488 -0.2416
vn 0.1169 -0.9922 -0.0440
vn -0.3126 -0.9496 -0.0238
vn -0.0975 0.9522 0.2896
vn 0.0685 -0.9976 -0.0030
vn -0.3963 0.9177 0.0299
vn 0.9526 -0.2677 -0.1446
vn 0.0562 0.9963 -0.0651
vn 0.1109 0.9909 -0.0758
vn 0.1600 0.9857 -0.0536
vn -0.9855 0.1509 -0.0770
vn 0.8989 -0.4368 -0.0341
vn -0.0310 0.9990 0.0335
vn 0.0592 0.9979 0.0261
vn 0.1618 0.9842 -0.0719
vn -0.7799 -0.6216 -0.0736
vn -0.1366 -0.9903 -0.0252
vn 0.4266 -0.9028 -0.0549
vn -0.4403 0.8773 0.1909
vn 0.0631 0.9980 -0.0028
vn -0.1763 0.3933 -0.9023
vn 0.0652 -0.9963 0.0559
vn -0.2141 -0.9722 0.0948
vn 0.0600 -0.9948 -0.0826
vn -0.9152 0.3677 0.1646
vn -0.4433 -0.8910 0.0977
vn 0.0240 -0.9997 0.0103
vn 0.0280 -0.9935 -0.1105
vn -0.1019 -0.9944 -0.0279
vn -0.0845 -0.9796 -0.1823
vn 0.0429 -0.9780 -0.2042
vn 0.4935 0.8158 0.3017
vn 0.9195 0.3734 -0.1233
vn -0.9033 -0.4289 0.0051
vn 0.2286 0.9735 -0.0010
vn -0.1485 0.9403 0.3063
vn -0.2416 0.9263 0.2890
vn -0.0139 -0.9896 -0.1432
vn 0.0839 -0.9765 -0.1984
vn -0.1804 -0.9303 0.3195
vn -0.0926 -0.9945 0.0492
vn -0.0324 0.9861 -0.1632
vn 0.8333 -0.5527 0.0078
vn -0.0656 0.9973 0.0323
vn 0.1914 -0.9810 0.0303
vn -0.0059 1.0000 -0.0010
vn 0.1218 0.9729 0.1963
vn -0.3304 -0.9438 -0.0029
vn 0.0120 -0.9601 -0.2795
vn 0.0265 -0.9952 0.0940
vn -0.5221 0.8527 0.0177
vn 0.1093 0.9805 0.1636
vn 0.0329 0.9922 0.1200
vn 0.2714 -0.9602 0.0654
vn 0.0439 0.9965 0.0711
vn -0.0585 0.9814 0.1826
vn 0.0001 0.9796 0.2011
vn 0.0113 -0.9975 -0.0702
vn -0.0348 0.9973 0.0651
vn 0.9963 -0.0823 0.0238
vn 0.0466 -0.9895 0.1372
vn 0.2150 -0.9214 -0.3236
vn -0.0655 -0.9850 -0.1599
vn 0.0118 -0.9993 -0.0354
vn -0.1882 0.9085 0.3731
vn 0.9832 0.1765 0.0456
vn 0.0617 -0.9931 -0.1001
vn -0.0269 -0.9947 -0.0992
vn -0.0617 -0.9946 -0.0834
vn 0.0233 0.9716 -0.2357
vn 0.4001 0.8273 0.3943
vn 0.9076 0.3599 0.2163
vn 0.6509 -0.7437 0.1525
vn 0.1828 -0.9538 -0.2386
vn -0.1526 -0.9653 0.2119
vn -0.0153 0.9613 0.2750
vn 0.0185 0.9436 0.3306
vn -0.0283 0.9545 0.2967
vn -0.1132 -0.9917 0.0612
vn -0.0001 0.9871 0.1600
vn 0.3719 0.9234 0.0947
vn -0.1749 0.9736 0.1464
vn -0.0300 0.9966 0.0765
vn 0.0036 -0.9995 0.0330
vn -0.0282 0.9983 0.0505
vn -0.0158 -0.9890 0.1472
vn 0.1746 -0.9842 0.0307
vn 0.8940 -0.4478 0.0148
vn 0.2513 -0.9471 0.1996
vn 0.0015 -0.9999 -0.0159
vn 0.0927 -0.9874 0.1280
vn 0.0005 0.9880 -0.1541
vn -0.2902 -0.9412 -0.1729
vn -0.2768 0.9294 -0.2441
vn -0.0238 0.9898 -0.1401
vn -0.9521 0.3058 -0.0043
vn 0.0001 -0.9996 -0.0291
vn -0.0206 -0.9936 0.1113
vn 0.1397 -0.9901 -0.0146
vn -0.0341 0.9829 -0.1812
vn 0.8197 0.4955 -0.2873
vn 0.2275 -0.9734 0.0279
vn -0.1841 0.9400 -0.2871
vn 0.1878 0.9804 -0.0589
vn 0.1884 0.9462 -0.2631
vn 0.1626 0.9834 0.0805
vn -0.9018 -0.4321 0.0026
vn -0.3460 -0.9382 -0.0104
vn 0.2214 -0.9748 -0.0254
vn 0.0427 -0.9962 0.0761
vn 0.1492 -0.9836 0.1018
vn -0.0671 0.9861 -0.1519
vn -0.5070 0.8609 -0.0423
vn 0.5149 -0.8493 -0.1167
vn 0.0540 0.9367 -0.3461
vn -0.0648 0.9972 -0.0372
vn 0.0275 -0.9697 0.2427
vn -0.0187 -0.9788 0.2038
vn 0.9422 0.0007 -0.3352
vn 0.9096 -0.2173 -0.3541
vn 0.0631 -0.9933 -0.0967
vn 0.1936 -0.9171 0.3485
vn 0.0213 -0.9993 0.0323
vn -0.1097 -0.9930 -0.0429
vn -0.0722 0.9941 -0.0815
vn -0.0681 0.9970 0.0375
vn -0.0375 0.8755 -0.4817
vn 0.4640 0.8379 -0.2877
vn 0.0930 0.9285 -0.3596
vn -0.0155 0.9775 -0.2102
vn 0.9963 -0.0299 -0.0802
vn 0.6748 -0.7053 -0.2174
vn -0.0543 0.9752 -0.2145
vn 0.2081 0.9618 -0.1777
vn -0.1336 0.9561 -0.2609
vn 0.9844 0.1104 -0.1372
vn -0.2094 -0.9376 -0.2777
vn -0.1872 0.9583 -0.2159
vn -0.0023 0.9798 0.1999
vn -0.1315 0.9763 -0.1719
vn -0.0219 0.9840 -0.1770
vn -0.0117 0.9297 -0.3680
vn 0.2394 -0.9603 0.1436
vn 0.1058 -0.9148 0.3899
vn 0.0761 -0.9475 0.3105
vn 0.0048 -0.9884 0.1517
vn 0.0819 0.9785 0.1891
vn -0.9388 0.3052 -0.1599
vn -0.0119 -0.9956 0.0931
vn -0.0759 -0.9852 0.1535
vn -0.3177 -0.9472 0.0422
vn 0.1367 0.9902 0.0301
vn 0.3640 0.8679 0.3381
vn 0.9716 -0.1056 0.2115
vn 0.9132 -0.4062 0.0340
vn 0.0308 0.9973 0.0665
vn 0.9091 0.4055 0.0958
vn -0.8849 -0.4596 -0.0756
vn 0.4699 -0.8827 0.0080
vn -0.1946 0.9803 0.0339
vn -0.2542 -0.9235 -0.2874
vn -0.1826 -0.9825 0.0359
vn 0.0007 0.9496 -0.3135
vn -0.2200 0.9752 0.0254
vn 0.1922 0.9795 0.0606
vn 0.1160 -0.9931 -0.0196
vn -0.0631 -0.9979 -0.0169
vn -0.2801 0.9597 0.0242
vn 0.0225 0.9985 0.0505
vn 0.1513 -0.9882 0.0223
vn 0.9815 0.1915 -0.0090
vn 0.0577 -0.9965 0.0600
vn 0.1795 0.9827 -0.0449
vn -0.0552 0.9976 0.0422
vn 0.0518 -0.9986 -0.0065
vn 0.0024 -0.9934 -0.1144
vn -0.8466 0.5246 0.0895
vn -0.0173 0.9998 -0.0029
vn 0.5510 0.8345 -0.0035
vn -0.7874 -0.6098 -0.0901
vn -0.9995 -0.0195 -0.0234
vn 0.1116 -0.9330 -0.3422
vn 0.0322 0.9774 -0.2091
vn -0.0420 -0.9991 -0.0003
vn 0.0239 -0.9996 0.0160
vn -0.0029 -1.0000 0.0026
vn -0.0406 -0.9970 -0.0666
vn -0.0198 0.9971 -0.0730
vn -0.1120 -0.9895 -0.0914
vn 0.0806 -0.9967 0.0093
vn -0.2216 -0.9742 -0.0437
vn 0.0020 1.0000 -0.0003
vn -0.5951 -0.7827 0.1822
vn -0.2462 -0.9093 -0.3354
vn -0.0034 1.0000 0.0025
vn -0.0989 0.9932 -0.0608
vn 0.0717 0.9957 0.0592
vn 0.3565 -0.9343 0.0014
vn 0.1378 0.9904 -0.0098
vn 0.1474 0.9890 -0.0110
vn -0.3678 0.9149 0.1667
vn -0.8923 0.4261 0.1491
vn 0.0683 0.9802 -0.1861
vn 0.1571 -0.9875 0.0098
vn -0.2051 0.9460 -0.2512
vn 0.9188 -0.3940 0.0224
vn -0.9177 -0.3972 0.0074
vn 0.1063 -0.9943 0.0066
vn 0.2165 0.9734 0.0746
vn 0.0421 0.9990 0.0181
vn -0.9999 -0.0106 0.0035
vn -0.5426 0.8397 0.0198
vn 0.1123 -0.9936 0.0092
vn 0.1660 -0.9801 -0.1090
vn -0.0103 0.9999 0.0067
vn -0.3608 -0.9326 0.0040
vn -0.2683 0.9522 -0.1461
vn 0.2370 -0.9715 -0.0003
vn -0.0124 0.9561 -0.2927
vn 0.1274 -0.9878 -0.0893
vn 0.0071 -0.9384 -0.3453
vn -0.1315 -0.9627 -0.2365
vn 0.7640 -0.6431 -0.0523
vn -0.3669 0.9303 0.0016
vn 0.9526 -0.2973 -0.0644
vn -0.1299 -0.9801 0.1499
vn 0.1306 -0.9914 0.0084
vn -0.0655 -0.9947 0.0795
vn -0.2767 0.9581 -0.0740
vn 0.0375 0.9993 -0.0052
vn -0.2372 -0.9714 -0.0122
vn -0.2037 -0.9779 -0.0459
vn 0.9145 0.4045 -0.0071
vn 0.3425 0.9394 -0.0131
vn -0.0777 0.9958 0.0492
vn 0.0230 0.9990 0.0379
vn -0.2423 0.9701 0.0098
vn -0.1323 -0.9613 0.2417
vn 0.2193 -0.9665 -0.1331
vn 0.0151 0.9999 0.0066
vn -0.9996 0.0292 0.0045
vn 0.1658 -0.9861 -0.0046
vn 0.4777 -0.8747 -0.0820
vn 0.0012 -1.0000 0.0029
vn 0.0474 0.9984 0.0295
vn -0.8980 0.4398 0.0098
vn 0.0476 -0.9982 -0.0352
vn -0.0019 1.0000 -0.0010
vn 0.0780 -0.9969 -0.0118
vn -0.0119 -0.9930 -0.1173
vn 0.1422 0.9898 -0.0101
vn -0.0907 0.9870 0.1325
vn 0.1067 0.9943 -0.0013
vn 0.0093 -0.9999 0.0037
vn -0.0062 -1.0000 -0.0049
vn -0.4509 -0.8926 0.0076
vn 0.1758 -0.9844 -0.0044
vn -0.0696 0.9976 -0.0042
vn 0.8445 -0.5348 0.0295
vn -0.9436 -0.3309 0.0078
vn 0.0923 0.9957 -0.0016
vn -0.0085 0.9897 0.1430
vn -0.0780 -0.9969 0.0077
vn -0.3531 0.9356 0.0025
vn -0.0050 -0.9966 -0.0817
vn 0.8814 0.3857 -0.2727
vn 0.6885 -0.7246 0.0310
vn -0.2097 -0.9663 0.1495
vn -0.1420 0.9777 0.1547
vn -0.1240 -0.9916 0.0370
vn 0.7019 0.7122 -0.0091
vn 0.3594 0.8704 -0.3367
vn -0.8807 0.4734 -0.0171
vn 0.0027 -0.9996 0.0288
vn 0.9595 -0.2816 0.0048
vn 0.0846 -0.9650 -0.2481
vn -0.0078 -0.9788 -0.2046
vn -0.0253 -0.9476 -0.3185
vn 0.0229 0.9997 -0.0061
vn -0.0005 1.0000 -0.0032
vn -0.1962 -0.9805 0.0099
vn 0.1442 -0.9895 -0.0114
vn 0.0322 -0.9908 -0.1315
vn 0.0088 1.0000 -0.0005
vn -0.9108 0.0272 -0.4120
vn 0.0624 -0.9918 -0.1119
vn -0.0058 -0.9988 -0.0494
vn -0.2370 -0.9712 -0.0235
vn -0.0026 0.9473 -0.3203
vn 0.3398 -0.9396 0.0409
vn -0.1401 0.8680 -0.4765
vn -0.1241 0.8884 -0.4420
vn -0.8752 0.3431 -0.3410
vn -0.3250 -0.8379 -0.4385
vn 0.0158 0.9119 -0.4102
vn -0.0016 0.9123 -0.4096
vn -0.0110 0.9112 -0.4119
vn -0.8597 -0.4969 -0.1180
vn -0.3804 0.9100 -0.1646
vn 0.0146 -0.9136 -0.4063
vn 0.0968 -0.8676 -0.4878
vn 0.0544 0.9530 -0.2981
vn -0.0569 -0.8692 -0.4912
vn -0.1510 -0.8981 -0.4131
vn -0.0996 -0.8417 -0.5306
vn 0.5288 -0.7986 -0.2876
vn -0.1279 -0.6667 -0.7343
vn -0.3111 0.5490 -0.7758
vn -0.0306 0.7909 -0.6112
vn -0.3880 0.0686 -0.9191
vn -0.5339 -0.2837 -0.7966
vn -0.0520 -0.4026 -0.9139
vn -0.0208 -0.4791 -0.8775
vn -0.0389 -0.7983 -0.6010
vn -0.1279 0.4009 -0.9071
vn -0.1519 0.3377 -0.9289
vn 0.0066 0.3388 -0.9408
vn -0.0076 0.3490 -0.9371
vn -0.0463 0.2847 -0.9575
vn -0.1139 -0.2196 -0.9689
vn -0.0262 -0.3196 -0.9472
vn -0.0384 -0.3845 -0.9223
vn -0.0067 -0.3259 -0.9454
vn -0.0106 0.2907 -0.9568
vn 0.2916 0.4220 -0.8584
vn 0.0037 -0.3374 -0.9413
vn -0.0445 0.0060 -0.9990
vn -0.3703 0.0355 -0.9282
# 499 vertex normals

vt 0.6342 0.7564 0.0000
vt 0.6435 0.7644 0.0000
vt 0.5872 0.7638 0.0000
vt 0.6941 0.7620 0.0000
vt 0.6963 0.7889 0.0000
vt 0.6310 0.8203 0.0000
vt 0.7023 0.7859 0.0000
vt 0.0461 0.4385 0.0000
vt 0.0238 0.4443 0.0000
vt 0.0242 0.4304 0.0000
vt 0.5792 0.8084 0.0000
vt 0.0700 0.4370 0.0000
vt 0.5881 0.8192 0.0000
vt 0.6975 0.8195 0.0000
vt 0.0840 0.4378 0.0000
vt 0.0896 0.4426 0.0000
vt 0.1314 0.4344 0.0000
vt 0.1964 0.4344 0.0000
vt 0.1729 0.4393 0.0000
vt 0.5887 0.8265 0.0000
vt 0.7002 0.7580 0.0000
vt 0.8545 0.7562 0.0000
vt 0.8544 0.7788 0.0000
vt 0.8407 0.7551 0.0000
vt 0.7824 0.7583 0.0000
vt 0.8117 0.8063 0.0000
vt 0.7407 0.8173 0.0000
vt 0.7060 0.8208 0.0000
vt 0.8073 0.8139 0.0000
vt 0.2034 0.4393 0.0000
vt 0.1943 0.4435 0.0000
vt 0.8552 0.7462 0.0000
vt 0.7693 0.7485 0.0000
vt 0.9038 0.7541 0.0000
vt 0.9132 0.7523 0.0000
vt 0.9131 0.8001 0.0000
vt 0.8637 0.8099 0.0000
vt 0.8416 0.8112 0.0000
vt 0.2374 0.4374 0.0000
vt 0.3037 0.4366 0.0000
vt 0.2386 0.4445 0.0000
vt 0.1433 0.4495 0.0000
vt 0.5843 0.7493 0.0000
vt 0.8468 0.7443 0.0000
vt 0.7057 0.7492 0.0000
vt 0.5778 0.7538 0.0000
vt 0.9099 0.7434 0.0000
vt 0.9663 0.7444 0.0000
vt 0.9767 0.7468 0.0000
vt 0.9397 0.8065 0.0000
vt 0.5453 0.4318 0.0000
vt 0.5244 0.4424 0.0000
vt 0.4940 0.4385 0.0000
vt 0.9900 0.7944 0.0000
vt 0.3599 0.4377 0.0000
vt 0.4100 0.4330 0.0000
vt 0.4038 0.4449 0.0000
vt 0.2831 0.4459 0.0000
vt 0.9218 0.7395 0.0000
vt 0.0877 0.4523 0.0000
vt 0.0709 0.4585 0.0000
vt 0.4354 0.4379 0.0000
vt 0.4146 0.4487 0.0000
vt 0.9887 0.8062 0.0000
vt 0.3704 0.4446 0.0000
vt 0.3378 0.4355 0.0000
vt 0.3463 0.4478 0.0000
vt 0.3229 0.4484 0.0000
vt 0.2021 0.4542 0.0000
vt 0.6861 0.7163 0.0000
vt 0.4835 0.4449 0.0000
vt 0.4514 0.4506 0.0000
vt 0.4276 0.4464 0.0000
vt 0.9752 0.7286 0.0000
vt 0.4907 0.4574 0.0000
vt 0.9893 0.7331 0.0000
vt 0.5451 0.4508 0.0000
vt 0.3585 0.4690 0.0000
vt 0.8544 0.7113 0.0000
vt 0.8017 0.7150 0.0000
vt 0.5299 0.5208 0.0000
vt 0.5818 0.7019 0.0000
vt 0.0225 0.5081 0.0000
vt 0.6392 0.7179 0.0000
vt 0.4213 0.4918 0.0000
vt 0.0759 0.4839 0.0000
vt 0.3485 0.4858 0.0000
vt 0.9081 0.6724 0.0000
vt 0.3703 0.5149 0.0000
vt 0.0897 0.5060 0.0000
vt 0.2161 0.5043 0.0000
vt 0.6944 0.6903 0.0000
vt 0.1983 0.4932 0.0000
vt 0.7029 0.6798 0.0000
vt 0.9151 0.6627 0.0000
vt 0.9561 0.6640 0.0000
vt 0.5779 0.6966 0.0000
vt 0.4124 0.5207 0.0000
vt 0.2864 0.5194 0.0000
vt 0.9819 0.6650 0.0000
vt 0.0172 0.5015 0.0000
vt 0.5508 0.5177 0.0000
vt 0.3593 0.4976 0.0000
vt 0.2402 0.5191 0.0000
vt 0.7751 0.6773 0.0000
vt 0.1497 0.5448 0.0000
vt 0.8444 0.6777 0.0000
vt 0.4902 0.5421 0.0000
vt 0.8484 0.6693 0.0000
vt 0.5594 0.5177 0.0000
vt 0.4950 0.5255 0.0000
vt 0.3502 0.5127 0.0000
vt 0.0681 0.5145 0.0000
vt 0.2017 0.5210 0.0000
vt 0.5776 0.6087 0.0000
vt 0.5744 0.6080 0.0000
vt 0.5748 0.1931 0.0000
vt 0.5704 0.1669 0.0000
vt 0.5979 0.1655 0.0000
vt 0.6278 0.2056 0.0000
vt 0.6270 0.1494 0.0000
vt 0.4860 0.5378 0.0000
vt 0.6960 0.6657 0.0000
vt 0.6563 0.6322 0.0000
vt 0.6926 0.1761 0.0000
vt 0.6658 0.1442 0.0000
vt 0.6859 0.1435 0.0000
vt 0.0906 0.5287 0.0000
vt 0.5923 0.1476 0.0000
vt 0.7841 0.6707 0.0000
vt 0.7104 0.6664 0.0000
vt 0.3508 0.5207 0.0000
vt 0.2081 0.5256 0.0000
vt 0.2890 0.5243 0.0000
vt 0.2796 0.5384 0.0000
vt 0.2429 0.5295 0.0000
vt 0.7706 0.6611 0.0000
vt 0.0703 0.5375 0.0000
vt 0.0319 0.5748 0.0000
vt 0.3747 0.5831 0.0000
vt 0.7830 0.6466 0.0000
vt 0.3321 0.5821 0.0000
vt 0.3022 0.5677 0.0000
vt 0.7056 0.6149 0.0000
vt 0.9091 0.6128 0.0000
vt 0.0170 0.5905 0.0000
vt 0.4232 0.5764 0.0000
vt 0.0797 0.5473 0.0000
vt 0.0899 0.6100 0.0000
vt 0.8299 0.6092 0.0000
vt 0.4159 0.5717 0.0000
vt 0.9827 0.5987 0.0000
vt 0.2908 0.5685 0.0000
vt 0.1997 0.5690 0.0000
vt 0.0752 0.5782 0.0000
vt 0.7717 0.6159 0.0000
vt 0.7920 0.6098 0.0000
vt 0.2107 0.5874 0.0000
vt 0.7828 0.6138 0.0000
vt 0.5776 0.5808 0.0000
vt 0.8675 0.6079 0.0000
vt 0.2826 0.5955 0.0000
vt 0.9162 0.6054 0.0000
vt 0.5439 0.6057 0.0000
vt 0.4952 0.6171 0.0000
vt 0.4881 0.6148 0.0000
vt 0.6930 0.5956 0.0000
vt 0.5585 0.5856 0.0000
vt 0.2919 0.5824 0.0000
vt 0.7440 0.5402 0.0000
vt 0.4165 0.5853 0.0000
vt 0.7795 0.5905 0.0000
vt 0.9069 0.6040 0.0000
vt 0.0220 0.6207 0.0000
vt 0.3904 0.5882 0.0000
vt 0.8530 0.5991 0.0000
vt 0.8613 0.5891 0.0000
vt 0.8222 0.5998 0.0000
vt 0.3698 0.5939 0.0000
vt 0.3419 0.5925 0.0000
vt 0.2972 0.5920 0.0000
vt 0.2839 0.6259 0.0000
vt 0.9257 0.5730 0.0000
vt 0.9028 0.5928 0.0000
vt 0.1429 0.6285 0.0000
vt 0.7926 0.5949 0.0000
vt 0.8739 0.5791 0.0000
vt 0.0684 0.6140 0.0000
vt 0.2008 0.6188 0.0000
vt 0.3799 0.6277 0.0000
vt 0.6227 0.5655 0.0000
vt 0.9094 0.5704 0.0000
vt 0.4154 0.6162 0.0000
vt 0.7684 0.5339 0.0000
vt 0.4234 0.6124 0.0000
vt 0.3702 0.6216 0.0000
vt 0.6670 0.5242 0.0000
vt 0.4361 0.6259 0.0000
vt 0.5694 0.5783 0.0000
vt 0.5628 0.6238 0.0000
vt 0.0666 0.6637 0.0000
vt 0.8209 0.5253 0.0000
vt 0.7888 0.5375 0.0000
vt 0.7037 0.5430 0.0000
vt 0.9702 0.5630 0.0000
vt 0.5329 0.6212 0.0000
vt 0.0738 0.6464 0.0000
vt 0.9374 0.5642 0.0000
vt 0.9225 0.5619 0.0000
vt 0.6913 0.5477 0.0000
vt 0.4932 0.6250 0.0000
vt 0.4193 0.6256 0.0000
vt 0.0885 0.6514 0.0000
vt 0.9737 0.5529 0.0000
vt 0.9069 0.5478 0.0000
vt 0.6911 0.2066 0.0000
vt 0.4158 0.6379 0.0000
vt 0.4081 0.6644 0.0000
vt 0.1986 0.6565 0.0000
vt 0.5625 0.6340 0.0000
vt 0.5459 0.6398 0.0000
vt 0.4892 0.6385 0.0000
vt 0.4400 0.6475 0.0000
vt 0.1131 0.6655 0.0000
vt 0.2878 0.6487 0.0000
vt 0.2787 0.6599 0.0000
vt 0.2265 0.6650 0.0000
vt 0.5762 0.5273 0.0000
vt 0.0240 0.6625 0.0000
vt 0.4940 0.6777 0.0000
vt 0.9172 0.5248 0.0000
vt 0.8653 0.5260 0.0000
vt 0.8950 0.5235 0.0000
vt 0.1613 0.6679 0.0000
vt 0.3105 0.6604 0.0000
vt 0.3791 0.6639 0.0000
vt 0.3641 0.6668 0.0000
vt 0.7761 0.5362 0.0000
vt 0.0796 0.6663 0.0000
vt 0.8518 0.5212 0.0000
vt 0.4260 0.6720 0.0000
vt 0.9424 0.5112 0.0000
vt 0.7023 0.5233 0.0000
vt 0.0161 0.6714 0.0000
vt 0.4889 0.6761 0.0000
vt 0.2927 0.6650 0.0000
vt 0.4162 0.6709 0.0000
vt 0.5602 0.6796 0.0000
vt 0.6880 0.5291 0.0000
vt 0.9059 0.5215 0.0000
vt 0.0891 0.6720 0.0000
vt 0.7897 0.5226 0.0000
vt 0.7566 0.5237 0.0000
vt 0.9807 0.5074 0.0000
vt 0.6342 0.5275 0.0000
vt 0.1285 0.6781 0.0000
vt 0.7738 0.5251 0.0000
vt 0.0607 0.6757 0.0000
vt 0.2007 0.6731 0.0000
vt 0.3201 0.6698 0.0000
vt 0.2920 0.6740 0.0000
vt 0.2677 0.6766 0.0000
vt 0.8908 0.5174 0.0000
vt 0.0251 0.6723 0.0000
vt 0.2165 0.6774 0.0000
vt 0.1702 0.6760 0.0000
vt 0.2416 0.6770 0.0000
vt 0.8073 0.5203 0.0000
vt 0.5754 0.5212 0.0000
vt 0.0196 0.6802 0.0000
vt 0.0130 0.6764 0.0000
vt 0.0825 0.6813 0.0000
vt 0.3109 0.6761 0.0000
vt 0.3986 0.6767 0.0000
vt 0.7738 0.5128 0.0000
vt 0.7507 0.5164 0.0000
vt 0.6685 0.5134 0.0000
vt 0.4161 0.6881 0.0000
vt 0.7071 0.5114 0.0000
vt 0.5758 0.5110 0.0000
vt 0.7971 0.5080 0.0000
vt 0.9082 0.5076 0.0000
vt 0.1293 0.6914 0.0000
vt 0.8098 0.5057 0.0000
vt 0.2602 0.6849 0.0000
vt 0.3333 0.6925 0.0000
vt 0.0763 0.7102 0.0000
vt 0.3173 0.6895 0.0000
vt 0.3906 0.7147 0.0000
vt 0.3135 0.6942 0.0000
vt 0.7531 0.4535 0.0000
vt 0.4070 0.7373 0.0000
vt 0.7969 0.4591 0.0000
vt 0.8113 0.4618 0.0000
vt 0.5506 0.7179 0.0000
vt 0.2143 0.7343 0.0000
vt 0.1648 0.7474 0.0000
vt 0.0100 0.6856 0.0000
vt 0.4223 0.7326 0.0000
vt 0.6369 0.4596 0.0000
vt 0.0171 0.7434 0.0000
vt 0.0901 0.7135 0.0000
vt 0.8959 0.4508 0.0000
vt 0.9172 0.4410 0.0000
vt 0.5801 0.4545 0.0000
vt 0.8217 0.4506 0.0000
vt 0.4942 0.7294 0.0000
vt 0.4891 0.7348 0.0000
vt 0.3160 0.7262 0.0000
vt 0.1094 0.7483 0.0000
vt 0.3291 0.7448 0.0000
vt 0.9061 0.4455 0.0000
vt 0.5609 0.7420 0.0000
vt 0.0838 0.7361 0.0000
vt 0.6892 0.4568 0.0000
vt 0.8531 0.4472 0.0000
vt 0.2968 0.7461 0.0000
vt 0.2458 0.7456 0.0000
vt 0.0438 0.7434 0.0000
vt 0.0744 0.7433 0.0000
vt 0.4148 0.7486 0.0000
vt 0.5694 0.4527 0.0000
vt 0.3137 0.7427 0.0000
vt 0.9801 0.4447 0.0000
vt 0.2009 0.7513 0.0000
vt 0.3701 0.7457 0.0000
vt 0.7887 0.4465 0.0000
vt 0.8058 0.4494 0.0000
vt 0.6258 0.4503 0.0000
vt 0.5766 0.4447 0.0000
vt 0.9093 0.4418 0.0000
vt 0.6526 0.4458 0.0000
vt 0.0434 0.7509 0.0000
vt 0.0809 0.7493 0.0000
vt 0.7640 0.4459 0.0000
vt 0.7028 0.4445 0.0000
vt 0.6750 0.4445 0.0000
vt 0.0251 0.7516 0.0000
vt 0.0169 0.7538 0.0000
vt 0.3802 0.7504 0.0000
vt 0.8660 0.4406 0.0000
vt 0.8056 0.4358 0.0000
vt 0.7736 0.4413 0.0000
vt 0.6857 0.4423 0.0000
vt 0.6240 0.4447 0.0000
vt 0.0954 0.7578 0.0000
vt 0.3118 0.7536 0.0000
vt 0.2267 0.7556 0.0000
vt 0.1496 0.7534 0.0000
vt 0.6887 0.4262 0.0000
vt 0.5441 0.7735 0.0000
vt 0.2903 0.7596 0.0000
vt 0.2801 0.7605 0.0000
vt 0.3705 0.7603 0.0000
vt 0.7869 0.4289 0.0000
vt 0.6929 0.4312 0.0000
vt 0.0683 0.7604 0.0000
vt 0.0749 0.7742 0.0000
vt 0.7771 0.4281 0.0000
vt 0.0246 0.7663 0.0000
vt 0.4957 0.7733 0.0000
vt 0.0903 0.7853 0.0000
vt 0.8714 0.4203 0.0000
vt 0.4877 0.7785 0.0000
vt 0.1962 0.7730 0.0000
vt 0.8274 0.3683 0.0000
vt 0.8592 0.4025 0.0000
vt 0.7024 0.4286 0.0000
vt 0.4206 0.7842 0.0000
vt 0.2892 0.7709 0.0000
vt 0.9688 0.4014 0.0000
vt 0.9070 0.3924 0.0000
vt 0.2185 0.7875 0.0000
vt 0.0281 0.8178 0.0000
vt 0.2042 0.7890 0.0000
vt 0.9215 0.4055 0.0000
vt 0.9110 0.4016 0.0000
vt 0.4177 0.7911 0.0000
vt 0.4571 0.7766 0.0000
vt 0.5507 0.7887 0.0000
vt 0.6790 0.3781 0.0000
vt 0.9842 0.3977 0.0000
vt 0.0200 0.8209 0.0000
vt 0.4943 0.7855 0.0000
vt 0.5723 0.3768 0.0000
vt 0.5118 0.7844 0.0000
vt 0.3024 0.8276 0.0000
vt 0.9382 0.4015 0.0000
vt 0.4596 0.7850 0.0000
vt 0.4372 0.7886 0.0000
vt 0.1564 0.8444 0.0000
vt 0.2894 0.8225 0.0000
vt 0.7754 0.3725 0.0000
vt 0.3815 0.8302 0.0000
vt 0.2005 0.8069 0.0000
vt 0.2825 0.8350 0.0000
vt 0.6215 0.3541 0.0000
vt 0.4917 0.7952 0.0000
vt 0.3718 0.8239 0.0000
vt 0.7377 0.3670 0.0000
vt 0.8729 0.3637 0.0000
vt 0.9236 0.3921 0.0000
vt 0.0936 0.8103 0.0000
vt 0.6930 0.3466 0.0000
vt 0.7054 0.3548 0.0000
vt 0.9739 0.3868 0.0000
vt 0.5531 0.8103 0.0000
vt 0.7914 0.3733 0.0000
vt 0.4297 0.8342 0.0000
vt 0.8611 0.3708 0.0000
vt 0.0781 0.8349 0.0000
vt 0.4978 0.8472 0.0000
vt 0.2191 0.8521 0.0000
vt 0.9062 0.3619 0.0000
vt 0.9888 0.3753 0.0000
vt 0.9129 0.3491 0.0000
vt 0.5211 0.8371 0.0000
vt 0.9809 0.3651 0.0000
vt 0.2032 0.8522 0.0000
vt 0.4191 0.8218 0.0000
vt 0.6546 0.3342 0.0000
vt 0.4911 0.8475 0.0000
vt 0.7812 0.3580 0.0000
vt 0.0952 0.8500 0.0000
vt 0.8382 0.3590 0.0000
vt 0.4171 0.8289 0.0000
vt 0.3109 0.8364 0.0000
vt 0.2940 0.8357 0.0000
vt 0.0845 0.8748 0.0000
vt 0.9778 0.3223 0.0000
vt 0.0748 0.8896 0.0000
vt 0.4115 0.8364 0.0000
vt 0.4193 0.8553 0.0000
vt 0.3579 0.8956 0.0000
vt 0.7697 0.3047 0.0000
vt 0.9071 0.3113 0.0000
vt 0.2932 0.8518 0.0000
vt 0.2818 0.8857 0.0000
vt 0.0282 0.8807 0.0000
vt 0.5770 0.3210 0.0000
vt 0.8519 0.2897 0.0000
vt 0.6953 0.2961 0.0000
vt 0.7810 0.3213 0.0000
vt 0.5678 0.3164 0.0000
vt 0.2938 0.8965 0.0000
vt 0.2125 0.8939 0.0000
vt 0.9395 0.2971 0.0000
vt 0.5472 0.8809 0.0000
vt 0.4189 0.8928 0.0000
vt 0.0931 0.8887 0.0000
vt 0.4616 0.9038 0.0000
vt 0.6922 0.2886 0.0000
vt 0.5573 0.8868 0.0000
vt 0.2079 0.9015 0.0000
vt 0.6009 0.2874 0.0000
vt 0.1075 0.9079 0.0000
vt 0.9869 0.2989 0.0000
vt 0.2449 0.8906 0.0000
vt 0.9107 0.2516 0.0000
vt 0.7820 0.2983 0.0000
vt 0.9047 0.2891 0.0000
vt 0.3752 0.9015 0.0000
vt 0.2042 0.9088 0.0000
vt 0.4944 0.8988 0.0000
vt 0.4288 0.9221 0.0000
vt 0.7723 0.2901 0.0000
vt 0.0854 0.9007 0.0000
vt 0.5001 0.9303 0.0000
vt 0.7052 0.2922 0.0000
vt 0.8368 0.2965 0.0000
vt 0.2858 0.9007 0.0000
vt 0.9769 0.2758 0.0000
vt 0.2526 0.9013 0.0000
vt 0.0303 0.9802 0.0000
vt 0.0876 0.9402 0.0000
vt 0.3549 0.9033 0.0000
vt 0.8433 0.2862 0.0000
vt 0.3648 0.9097 0.0000
vt 0.5753 0.2634 0.0000
vt 0.5864 0.2172 0.0000
vt 0.9853 0.2644 0.0000
vt 0.2578 0.9132 0.0000
vt 0.0797 0.9402 0.0000
vt 0.4251 0.9635 0.0000
vt 0.4632 0.9592 0.0000
vt 0.5761 0.2159 0.0000
vt 0.3167 0.9700 0.0000
vt 0.7002 0.2496 0.0000
vt 0.7401 0.2554 0.0000
vt 0.3643 0.9277 0.0000
vt 0.2186 0.9238 0.0000
vt 0.1595 0.9730 0.0000
vt 0.6593 0.2481 0.0000
vt 0.5590 0.9215 0.0000
vt 0.5291 0.9652 0.0000
vt 0.2100 0.9224 0.0000
vt 0.2064 0.9647 0.0000
vt 0.3586 0.9389 0.0000
vt 0.6350 0.2144 0.0000
vt 0.0947 0.9645 0.0000
vt 0.8420 0.2190 0.0000
vt 0.8510 0.2185 0.0000
vt 0.5536 0.9594 0.0000
vt 0.4942 0.9651 0.0000
vt 0.9304 0.2254 0.0000
vt 0.7462 0.2174 0.0000
vt 0.9058 0.2225 0.0000
vt 0.5011 0.9543 0.0000
vt 0.9704 0.2360 0.0000
vt 0.2442 0.9756 0.0000
vt 0.4387 0.9671 0.0000
vt 0.6948 0.2144 0.0000
vt 0.1987 0.9863 0.0000
vt 0.4078 0.9705 0.0000
vt 0.3664 0.9748 0.0000
vt 0.9831 0.2238 0.0000
vt 0.3587 0.9750 0.0000
vt 0.0923 0.9793 0.0000
vt 0.2139 0.9818 0.0000
vt 0.9662 0.2200 0.0000
vt 0.7025 0.2134 0.0000
vt 0.1796 0.9870 0.0000
vt 0.9896 0.1988 0.0000
vt 0.9781 0.2015 0.0000
vt 0.0765 0.9876 0.0000
vt 0.5044 0.9712 0.0000
vt 0.4262 0.9774 0.0000
vt 0.4633 0.9744 0.0000
vt 0.2892 0.9784 0.0000
vt 0.1119 0.9881 0.0000
vt 0.8978 0.2119 0.0000
vt 0.9063 0.2125 0.0000
vt 0.9339 0.2142 0.0000
vt 0.9883 0.1736 0.0000
vt 0.7931 0.2094 0.0000
vt 0.8450 0.2093 0.0000
vt 0.9552 0.1617 0.0000
vt 0.0493 0.9889 0.0000
vt 0.9883 0.1625 0.0000
vt 0.9041 0.1657 0.0000
vt 0.8974 0.1515 0.0000
vt 0.9141 0.1627 0.0000
vt 0.8603 0.1582 0.0000
vt 0.3725 0.9814 0.0000
vt 0.3149 0.9840 0.0000
vt 0.7243 0.1505 0.0000
vt 0.7021 0.1466 0.0000
vt 0.7329 0.1408 0.0000
vt 0.1440 0.9900 0.0000
vt 0.7234 0.2077 0.0000
vt 0.5881 0.2088 0.0000
vt 0.7621 0.1500 0.0000
vt 0.7776 0.1450 0.0000
vt 0.8524 0.1851 0.0000
vt 0.6974 0.1837 0.0000
vt 0.8022 0.1542 0.0000
vt 0.5706 0.1491 0.0000
# 557 texture coords

g Stone_floor_3
usemtl Stone_floor_3
s 1
f 1/1/1 2/2/2 3/3/3 
f 4/4/4 5/5/5 2/2/2 
f 2/2/2 6/6/6 3/3/3 
f 7/7/7 5/5/5 4/4/4 
f 8/8/8 9/9/9 3/10/3 
f 3/3/3 6/6/6 10/11/10 
f 8/8/8 3/10/3 10/12/10 
f 2/2/2 5/5/5 6/6/6 
f 10/11/10 6/6/6 11/13/11 
f 5/5/5 12/14/12 6/6/6 
f 11/15/11 13/16/13 10/12/10 
f 6/17/6 12/18/12 14/19/14 
f 11/13/11 6/6/6 13/20/13 
f 1/1/1 4/4/4 2/2/2 
f 4/4/4 15/21/15 7/7/7 
f 16/22/16 17/23/17 18/24/18 
f 19/25/19 18/24/18 20/26/20 
f 15/21/15 21/27/21 7/7/7 
f 15/21/15 19/25/19 21/27/21 
f 18/24/18 17/23/17 20/26/20 
f 21/27/21 19/25/19 20/26/20 
f 7/7/7 21/27/21 22/28/22 
f 7/7/7 22/28/22 12/14/12 
f 5/5/5 7/7/7 12/14/12 
f 20/26/20 23/29/23 21/27/21 
f 12/18/12 22/30/22 24/31/24 
f 12/18/12 24/31/24 14/19/14 
f 4/4/4 1/1/1 15/21/15 
f 18/24/18 25/32/25 16/22/16 
f 18/24/18 19/25/19 26/33/26 
f 19/25/19 15/21/15 26/33/26 
f 16/22/16 27/34/27 17/23/17 
f 27/34/27 28/35/28 29/36/29 
f 17/23/17 27/34/27 29/36/29 
f 17/23/17 29/36/29 30/37/30 
f 17/23/17 31/38/31 20/26/20 
f 17/23/17 30/37/30 31/38/31 
f 20/26/20 31/38/31 23/29/23 
f 21/39/21 23/40/23 32/41/32 
f 33/42/33 13/16/13 6/17/6 
f 34/43/34 1/1/1 3/3/3 
f 18/24/18 35/44/35 25/32/25 
f 35/44/35 18/24/18 26/33/26 
f 15/21/15 36/45/36 26/33/26 
f 3/3/3 9/46/9 34/43/34 
f 27/34/27 16/22/16 37/47/37 
f 16/22/16 25/32/25 37/47/37 
f 38/48/38 39/49/39 40/50/40 
f 28/35/28 38/48/38 40/50/40 
f 39/51/39 41/52/41 42/53/42 
f 39/49/39 42/54/42 40/50/40 
f 29/36/29 28/35/28 40/50/40 
f 30/55/30 29/56/29 43/57/43 
f 44/58/44 32/41/32 23/40/23 
f 33/42/33 6/17/6 14/19/14 
f 38/48/38 28/35/28 45/59/45 
f 28/35/28 27/34/27 37/47/37 
f 13/16/13 46/60/46 47/61/47 
f 13/16/13 47/61/47 10/12/10 
f 29/56/29 40/62/40 48/63/48 
f 29/56/29 48/63/48 43/57/43 
f 40/50/40 42/54/42 49/64/49 
f 30/55/30 43/57/43 50/65/50 
f 31/66/31 30/55/30 51/67/51 
f 23/40/23 31/66/31 52/68/52 
f 21/39/21 32/41/32 53/69/53 
f 53/69/53 22/30/22 21/39/21 
f 22/30/22 53/69/53 24/31/24 
f 54/70/54 15/21/15 1/1/1 
f 28/35/28 37/47/37 45/59/45 
f 8/8/8 10/12/10 47/61/47 
f 40/62/40 49/71/49 55/72/55 
f 48/63/48 40/62/40 56/73/56 
f 31/66/31 51/67/51 52/68/52 
f 23/40/23 52/68/52 44/58/44 
f 57/74/57 39/49/39 38/48/38 
f 41/52/41 58/75/58 42/53/42 
f 49/71/49 42/53/42 58/75/58 
f 55/72/55 56/73/56 40/62/40 
f 45/59/45 57/74/57 38/48/38 
f 59/76/59 39/49/39 57/74/57 
f 41/52/41 39/51/39 59/77/59 
f 50/65/50 60/78/60 30/55/30 
f 30/55/30 60/78/60 51/67/51 
f 44/58/44 53/69/53 32/41/32 
f 24/31/24 33/42/33 14/19/14 
f 35/44/35 61/79/61 25/32/25 
f 62/80/62 35/44/35 26/33/26 
f 41/52/41 63/81/63 58/75/58 
f 54/70/54 36/45/36 15/21/15 
f 34/43/34 64/82/64 1/1/1 
f 9/9/9 8/8/8 65/83/65 
f 33/42/33 46/60/46 13/16/13 
f 61/79/61 37/47/37 25/32/25 
f 36/45/36 62/80/62 26/33/26 
f 66/84/66 54/70/54 1/1/1 
f 59/77/59 63/81/63 41/52/41 
f 55/72/55 49/71/49 67/85/67 
f 46/60/46 68/86/68 47/61/47 
f 69/87/69 52/68/52 51/67/51 
f 64/82/64 66/84/66 1/1/1 
f 37/47/37 70/88/70 45/59/45 
f 55/72/55 67/85/67 56/73/56 
f 43/57/43 71/89/71 50/65/50 
f 46/60/46 72/90/72 68/86/68 
f 69/87/69 51/67/51 60/78/60 
f 33/42/33 72/90/72 46/60/46 
f 44/58/44 73/91/73 53/69/53 
f 74/92/74 36/45/36 54/70/54 
f 75/93/75 33/42/33 24/31/24 
f 74/92/74 76/94/76 36/45/36 
f 67/85/67 48/63/48 56/73/56 
f 77/95/77 78/96/78 45/59/45 
f 8/8/8 47/61/47 68/86/68 
f 53/69/53 75/93/75 24/31/24 
f 73/91/73 75/93/75 53/69/53 
f 79/97/79 64/82/64 34/43/34 
f 9/46/9 79/97/79 34/43/34 
f 67/85/67 80/98/80 48/63/48 
f 80/98/80 43/57/43 48/63/48 
f 71/89/71 60/78/60 50/65/50 
f 70/88/70 77/95/77 45/59/45 
f 52/68/52 81/99/81 44/58/44 
f 78/96/78 57/74/57 45/59/45 
f 82/100/82 59/76/59 57/74/57 
f 65/83/65 79/101/79 9/9/9 
f 59/77/59 83/102/83 63/81/63 
f 65/83/65 8/8/8 68/86/68 
f 71/89/71 84/103/84 60/78/60 
f 85/104/85 73/91/73 44/58/44 
f 36/45/36 86/105/86 62/80/62 
f 60/78/60 84/103/84 69/87/69 
f 75/93/75 87/106/87 33/42/33 
f 61/79/61 70/88/70 37/47/37 
f 35/44/35 88/107/88 61/79/61 
f 58/75/58 89/108/89 49/71/49 
f 78/96/78 82/100/82 57/74/57 
f 88/107/88 90/109/90 61/79/61 
f 83/102/83 59/77/59 82/110/82 
f 58/75/58 91/111/91 89/108/89 
f 84/103/84 92/112/92 69/87/69 
f 81/99/81 85/104/85 44/58/44 
f 88/107/88 35/44/35 62/80/62 
f 65/83/65 68/86/68 93/113/93 
f 75/93/75 73/91/73 94/114/94 
f 58/75/58 63/81/63 91/111/91 
f 69/87/69 81/99/81 52/68/52 
f 87/106/87 72/90/72 33/42/33 
f 95/115/95 79/97/79 96/116/96 
f 72/90/72 93/113/93 68/86/68 
f 84/103/84 71/89/71 92/112/92 
f 80/98/80 71/89/71 43/57/43 
f 86/105/86 88/107/88 62/80/62 
f 76/94/76 86/105/86 36/45/36 
f 90/109/90 70/88/70 61/79/61 
f 92/112/92 81/99/81 69/87/69 
f 94/114/94 87/106/87 75/93/75 
f 97/117/97 98/118/98 99/119/99 
f 100/120/100 99/119/99 101/121/101 
f 94/114/94 73/91/73 85/104/85 
f 89/108/89 102/122/102 49/71/49 
f 103/123/103 76/94/76 74/92/74 
f 104/124/104 74/92/74 54/70/54 
f 105/125/105 106/126/106 107/127/107 
f 87/106/87 108/128/108 72/90/72 
f 99/119/99 109/129/109 101/121/101 
f 110/130/110 88/107/88 86/105/86 
f 86/105/86 76/94/76 111/131/111 
f 92/112/92 112/132/112 81/99/81 
f 102/122/102 67/85/67 49/71/49 
f 94/114/94 85/104/85 113/133/113 
f 110/130/110 90/109/90 88/107/88 
f 112/132/112 114/134/114 81/99/81 
f 81/99/81 114/134/114 115/135/115 
f 116/136/116 85/104/85 81/99/81 
f 116/136/116 113/133/113 85/104/85 
f 111/131/111 117/137/117 86/105/86 
f 76/94/76 103/123/103 111/131/111 
f 72/90/72 118/138/118 93/113/93 
f 118/138/118 72/90/72 108/128/108 
f 71/89/71 112/132/112 92/112/92 
f 66/84/66 104/124/104 54/70/54 
f 116/136/116 81/99/81 115/135/115 
f 119/139/119 93/113/93 118/138/118 
f 120/140/120 112/132/112 71/89/71 
f 104/124/104 66/84/66 64/82/64 
f 110/130/110 86/105/86 121/141/121 
f 119/139/119 65/83/65 93/113/93 
f 122/142/122 123/143/123 112/132/112 
f 124/144/124 117/137/117 111/131/111 
f 121/141/121 86/105/86 117/137/117 
f 125/145/125 77/95/77 70/88/70 
f 65/83/65 96/146/96 79/101/79 
f 126/147/126 80/98/80 67/85/67 
f 103/123/103 74/92/74 104/124/104 
f 118/138/118 108/128/108 127/148/127 
f 80/98/80 120/140/120 71/89/71 
f 123/143/123 114/134/114 112/132/112 
f 128/149/128 108/128/108 87/106/87 
f 129/150/129 90/109/90 110/130/110 
f 126/147/126 130/151/130 80/98/80 
f 78/96/78 131/152/131 82/100/82 
f 125/145/125 70/88/70 90/109/90 
f 114/134/114 132/153/132 115/135/115 
f 123/143/123 132/153/132 114/134/114 
f 133/154/133 94/114/94 113/133/113 
f 103/123/103 124/144/124 111/131/111 
f 96/146/96 65/83/65 119/139/119 
f 118/138/118 127/148/127 134/155/134 
f 133/154/133 87/106/87 94/114/94 
f 126/147/126 67/85/67 102/122/102 
f 121/141/121 117/137/117 135/156/135 
f 95/115/95 104/124/104 64/82/64 
f 136/157/136 129/150/129 110/130/110 
f 128/149/128 127/148/127 108/128/108 
f 120/140/120 122/142/122 112/132/112 
f 113/133/113 137/158/137 133/154/133 
f 124/144/124 135/156/135 117/137/117 
f 138/159/138 121/141/121 135/156/135 
f 96/116/96 139/160/139 95/115/95 
f 121/141/121 136/157/136 110/130/110 
f 128/149/128 134/155/134 127/148/127 
f 140/161/140 125/145/125 90/109/90 
f 141/162/141 116/136/116 115/135/115 
f 142/163/142 78/96/78 77/95/77 
f 83/102/83 143/164/143 63/81/63 
f 130/151/130 120/140/120 80/98/80 
f 116/136/116 137/158/137 113/133/113 
f 138/159/138 136/157/136 121/141/121 
f 91/111/91 144/165/144 89/108/89 
f 89/108/89 145/166/145 102/122/102 
f 132/153/132 141/162/141 115/135/115 
f 145/166/145 126/147/126 102/122/102 
f 146/167/146 124/144/124 103/123/103 
f 125/145/125 142/163/142 77/95/77 
f 83/102/83 82/110/82 131/168/131 
f 132/153/132 123/143/123 147/169/147 
f 132/153/132 147/169/147 141/162/141 
f 124/144/124 148/170/148 135/156/135 
f 142/163/142 131/152/131 78/96/78 
f 126/147/126 149/171/149 130/151/130 
f 122/142/122 147/169/147 123/143/123 
f 129/150/129 140/161/140 90/109/90 
f 146/167/146 103/123/103 104/124/104 
f 63/81/63 144/165/144 91/111/91 
f 138/159/138 135/156/135 150/172/150 
f 125/145/125 151/173/151 142/163/142 
f 83/102/83 131/168/131 143/164/143 
f 119/139/119 118/138/118 134/155/134 
f 140/161/140 151/173/151 125/145/125 
f 96/146/96 119/139/119 152/174/152 
f 149/171/149 153/175/153 120/140/120 
f 149/171/149 120/140/120 130/151/130 
f 154/176/154 155/177/155 140/161/140 
f 140/161/140 129/150/129 154/176/154 
f 156/178/156 154/176/154 129/150/129 
f 129/150/129 136/157/136 156/178/156 
f 120/140/120 157/179/157 158/180/158 
f 122/142/122 120/140/120 158/180/158 
f 122/142/122 158/180/158 159/181/159 
f 147/169/147 122/142/122 159/181/159 
f 160/182/160 116/136/116 141/162/141 
f 161/183/161 131/152/131 142/163/142 
f 162/184/162 151/173/151 140/161/140 
f 141/162/141 147/169/147 159/181/159 
f 163/185/163 128/149/128 87/106/87 
f 136/157/136 150/172/150 164/186/164 
f 165/187/165 140/161/140 155/177/155 
f 150/172/150 136/157/136 138/159/138 
f 63/81/63 143/164/143 144/165/144 
f 156/178/156 136/157/136 164/186/164 
f 165/187/165 162/184/162 140/161/140 
f 128/149/128 166/188/166 134/155/134 
f 137/158/137 167/189/167 133/154/133 
f 133/154/133 163/185/163 87/106/87 
f 116/136/116 160/182/160 137/158/137 
f 89/108/89 144/165/144 145/166/145 
f 120/140/120 168/190/168 157/179/157 
f 169/191/169 146/167/146 104/124/104 
f 151/173/151 170/192/170 142/163/142 
f 171/193/171 153/175/153 149/171/149 
f 172/194/172 150/172/150 135/156/135 
f 148/170/148 172/194/172 135/156/135 
f 119/139/119 134/155/134 166/188/166 
f 126/147/126 171/193/171 149/171/149 
f 145/166/145 173/195/173 126/147/126 
f 171/193/171 126/147/126 173/195/173 
f 153/175/153 168/190/168 120/140/120 
f 168/190/168 174/196/174 157/179/157 
f 174/196/174 158/180/158 157/179/157 
f 170/192/170 161/183/161 142/163/142 
f 169/191/169 175/197/175 146/167/146 
f 176/198/176 173/195/173 145/166/145 
f 162/184/162 170/192/170 151/173/151 
f 152/199/152 139/160/139 96/116/96 
f 143/164/143 131/168/131 177/200/177 
f 178/201/178 119/139/119 166/188/166 
f 174/196/174 159/181/159 158/180/158 
f 179/202/179 155/177/155 154/176/154 
f 156/178/156 164/186/164 179/202/179 
f 150/172/150 180/203/180 164/186/164 
f 146/167/146 181/204/181 124/144/124 
f 177/205/177 131/152/131 161/183/161 
f 160/182/160 167/189/167 137/158/137 
f 181/204/181 148/170/148 124/144/124 
f 141/162/141 159/181/159 160/182/160 
f 139/160/139 169/191/169 104/124/104 
f 143/164/143 177/200/177 182/206/182 
f 166/188/166 128/149/128 183/207/183 
f 171/193/171 168/190/168 153/175/153 
f 167/189/167 163/185/163 133/154/133 
f 161/183/161 184/208/184 177/205/177 
f 185/209/185 184/208/184 161/183/161 
f 170/192/170 185/209/185 161/183/161 
f 156/178/156 179/202/179 154/176/154 
f 186/210/186 181/204/181 146/167/146 
f 186/210/186 146/167/146 175/197/175 
f 187/211/187 145/166/145 144/165/144 
f 176/198/176 188/212/188 171/193/171 
f 176/198/176 171/193/171 173/195/173 
f 189/213/189 183/207/183 128/149/128 
f 152/174/152 119/139/119 178/201/178 
f 144/165/144 143/164/143 187/211/187 
f 178/201/178 166/188/166 183/207/183 
f 187/211/187 176/198/176 145/166/145 
f 190/214/190 177/205/177 184/208/184 
f 191/215/191 170/192/170 162/184/162 
f 143/164/143 182/206/182 187/211/187 
f 192/216/192 106/126/106 105/125/105 
f 185/209/185 190/214/190 184/208/184 
f 191/215/191 185/209/185 170/192/170 
f 188/212/188 193/217/193 171/193/171 
f 193/217/193 188/212/188 176/198/176 
f 193/217/193 194/218/194 171/193/171 
f 195/219/195 163/185/163 167/189/167 
f 182/206/182 177/200/177 190/220/190 
f 182/206/182 190/220/190 196/221/196 
f 197/222/197 176/198/176 187/211/187 
f 194/218/194 168/190/168 171/193/171 
f 189/213/189 128/149/128 163/185/163 
f 197/222/197 198/223/198 176/198/176 
f 198/223/198 193/217/193 176/198/176 
f 199/224/199 189/213/189 163/185/163 
f 200/225/200 160/182/160 159/181/159 
f 201/226/201 202/227/202 160/182/160 
f 202/227/202 167/189/167 160/182/160 
f 180/203/180 179/202/179 164/186/164 
f 203/228/203 139/160/139 152/199/152 
f 204/229/204 152/174/152 178/201/178 
f 182/206/182 205/230/205 187/211/187 
f 160/182/160 200/225/200 201/226/201 
f 206/231/206 185/209/185 191/215/191 
f 207/232/207 165/187/165 155/177/155 
f 165/187/165 208/233/208 162/184/162 
f 192/216/192 101/121/101 106/126/106 
f 202/227/202 195/219/195 167/189/167 
f 209/234/209 163/185/163 195/219/195 
f 210/235/210 159/181/159 174/196/174 
f 203/228/203 169/191/169 139/160/139 
f 211/236/211 212/237/212 168/190/168 
f 168/190/168 212/237/212 174/196/174 
f 210/235/210 200/225/200 159/181/159 
f 172/194/172 213/238/213 150/172/150 
f 208/233/208 191/215/191 162/184/162 
f 189/213/189 214/239/214 183/207/183 
f 209/234/209 199/224/199 163/185/163 
f 155/177/155 179/202/179 215/240/215 
f 207/232/207 155/177/155 215/240/215 
f 187/211/187 205/230/205 197/222/197 
f 198/223/198 216/241/216 193/217/193 
f 213/238/213 180/203/180 150/172/150 
f 217/242/217 190/214/190 185/209/185 
f 206/231/206 217/242/217 185/209/185 
f 186/210/186 218/243/218 181/204/181 
f 204/229/204 203/244/203 152/174/152 
f 196/221/196 205/230/205 182/206/182 
f 178/201/178 183/207/183 214/239/214 
f 219/245/219 198/223/198 197/222/197 
f 200/225/200 210/235/210 220/246/220 
f 220/246/220 201/226/201 200/225/200 
f 205/230/205 219/245/219 197/222/197 
f 221/247/221 194/218/194 193/217/193 
f 194/218/194 211/236/211 168/190/168 
f 212/237/212 210/235/210 174/196/174 
f 190/220/190 222/248/222 196/221/196 
f 175/197/175 223/249/223 186/210/186 
f 191/215/191 224/250/224 206/231/206 
f 207/232/207 208/233/208 165/187/165 
f 186/210/186 223/249/223 218/243/218 
f 214/239/214 189/213/189 225/251/225 
f 216/241/216 221/247/221 193/217/193 
f 199/224/199 225/251/225 189/213/189 
f 213/238/213 226/252/226 180/203/180 
f 227/253/227 172/194/172 148/170/148 
f 217/242/217 222/254/222 190/214/190 
f 228/255/228 175/197/175 169/191/169 
f 228/255/228 169/191/169 203/228/203 
f 208/233/208 224/250/224 191/215/191 
f 209/234/209 229/256/229 199/224/199 
f 227/253/227 148/170/148 181/204/181 
f 230/257/230 213/238/213 172/194/172 
f 214/239/214 231/258/231 178/201/178 
f 202/227/202 232/259/232 195/219/195 
f 232/259/232 209/234/209 195/219/195 
f 233/260/233 220/246/220 210/235/210 
f 201/226/201 234/261/234 235/262/235 
f 235/262/235 202/227/202 201/226/201 
f 226/252/226 179/202/179 180/203/180 
f 227/253/227 230/257/230 172/194/172 
f 218/243/218 227/253/227 181/204/181 
f 236/263/236 208/233/208 207/232/207 
f 213/238/213 230/257/230 226/252/226 
f 237/264/237 203/244/203 204/229/204 
f 237/264/237 204/229/204 178/201/178 
f 231/258/231 237/264/237 178/201/178 
f 234/261/234 201/226/201 220/246/220 
f 238/265/238 232/259/232 202/227/202 
f 209/234/209 232/259/232 239/266/239 
f 235/262/235 240/267/240 202/227/202 
f 236/263/236 207/232/207 215/240/215 
f 226/252/226 241/268/241 179/202/179 
f 228/255/228 203/228/203 242/269/242 
f 243/270/243 242/271/242 203/244/203 
f 203/244/203 237/264/237 243/270/243 
f 231/258/231 214/239/214 244/272/244 
f 214/239/214 225/251/225 244/272/244 
f 233/260/233 245/273/245 220/246/220 
f 240/267/240 238/265/238 202/227/202 
f 239/266/239 229/256/229 209/234/209 
f 229/256/229 225/251/225 199/224/199 
f 246/274/246 211/236/211 194/218/194 
f 212/237/212 211/236/211 246/274/246 
f 212/237/212 233/260/233 210/235/210 
f 230/257/230 247/275/247 226/252/226 
f 230/257/230 227/253/227 247/275/247 
f 227/253/227 248/276/248 247/275/247 
f 223/249/223 175/197/175 249/277/249 
f 245/273/245 234/261/234 220/246/220 
f 221/247/221 250/278/250 194/218/194 
f 194/218/194 250/278/250 246/274/246 
f 236/263/236 224/250/224 208/233/208 
f 251/279/251 227/253/227 218/243/218 
f 218/243/218 223/249/223 249/277/249 
f 249/277/249 175/197/175 228/255/228 
f 228/255/228 252/280/252 249/277/249 
f 228/255/228 242/269/242 252/280/252 
f 241/268/241 226/252/226 253/281/253 
f 224/250/224 254/282/254 206/231/206 
f 243/270/243 237/264/237 231/258/231 
f 239/266/239 232/259/232 238/265/238 
f 255/283/255 229/256/229 239/266/239 
f 226/252/226 247/275/247 253/281/253 
f 227/253/227 251/279/251 248/276/248 
f 218/243/218 249/277/249 251/279/251 
f 254/282/254 224/250/224 236/263/236 
f 256/284/256 241/268/241 253/281/253 
f 240/267/240 235/262/235 257/285/257 
f 240/267/240 257/285/257 238/265/238 
f 257/285/257 235/262/235 234/261/234 
f 229/256/229 255/283/255 225/251/225 
f 255/283/255 244/272/244 225/251/225 
f 212/237/212 258/286/258 233/260/233 
f 241/268/241 256/284/256 179/202/179 
f 231/258/231 244/272/244 259/287/259 
f 221/247/221 216/241/216 250/278/250 
f 233/260/233 260/288/260 245/273/245 
f 260/288/260 234/261/234 245/273/245 
f 246/274/246 261/289/261 212/237/212 
f 234/261/234 260/288/260 262/290/262 
f 248/276/248 263/291/263 247/275/247 
f 258/286/258 260/288/260 233/260/233 
f 262/290/262 257/285/257 234/261/234 
f 264/292/264 261/289/261 246/274/246 
f 265/293/265 253/281/253 247/275/247 
f 265/293/265 247/275/247 263/291/263 
f 266/294/266 215/240/215 179/202/179 
f 256/284/256 266/294/266 179/202/179 
f 267/295/267 196/221/196 222/248/222 
f 196/221/196 267/295/267 205/230/205 
f 257/285/257 268/296/268 238/265/238 
f 268/296/268 269/297/269 238/265/238 
f 269/297/269 255/283/255 239/266/239 
f 264/292/264 246/274/246 250/278/250 
f 261/289/261 258/286/258 212/237/212 
f 243/270/243 252/298/252 242/271/242 
f 269/297/269 239/266/239 238/265/238 
f 270/299/270 216/241/216 198/223/198 
f 252/280/252 271/300/271 249/277/249 
f 243/270/243 231/258/231 272/301/272 
f 255/283/255 273/302/273 244/272/244 
f 274/303/274 254/282/254 236/263/236 
f 256/284/256 253/281/253 265/293/265 
f 215/240/215 274/303/274 236/263/236 
f 272/301/272 231/258/231 259/287/259 
f 262/290/262 260/288/260 258/286/258 
f 251/279/251 263/291/263 248/276/248 
f 254/282/254 275/304/275 206/231/206 
f 243/270/243 272/301/272 252/298/252 
f 273/302/273 259/287/259 244/272/244 
f 275/304/275 217/242/217 206/231/206 
f 276/305/276 271/300/271 252/280/252 
f 277/306/277 215/240/215 266/294/266 
f 265/293/265 266/294/266 256/284/256 
f 205/230/205 267/295/267 278/307/278 
f 262/290/262 268/296/268 257/285/257 
f 205/230/205 278/307/278 219/245/219 
f 216/241/216 270/299/270 250/278/250 
f 279/308/279 198/223/198 219/245/219 
f 280/309/280 262/290/262 258/286/258 
f 269/297/269 281/310/281 255/283/255 
f 281/310/281 273/302/273 255/283/255 
f 270/299/270 198/223/198 279/308/279 
f 258/286/258 282/311/282 280/309/280 
f 283/312/283 275/304/275 254/282/254 
f 274/303/274 283/312/283 254/282/254 
f 267/295/267 222/248/222 284/313/284 
f 285/314/285 259/287/259 273/302/273 
f 282/311/282 258/286/258 261/289/261 
f 286/315/286 251/279/251 249/277/249 
f 278/307/278 279/308/279 219/245/219 
f 271/300/271 286/315/286 249/277/249 
f 215/240/215 287/316/287 274/303/274 
f 280/309/280 288/317/288 262/290/262 
f 262/290/262 289/318/289 268/296/268 
f 286/315/286 263/291/263 251/279/251 
f 272/301/272 259/287/259 290/319/290 
f 290/319/290 259/287/259 291/320/291 
f 292/321/292 250/278/250 270/299/270 
f 288/317/288 289/318/289 262/290/262 
f 277/306/277 287/316/287 215/240/215 
f 291/320/291 259/287/259 285/314/285 
f 281/310/281 285/314/285 273/302/273 
f 292/321/292 264/292/264 250/278/250 
f 272/322/272 276/305/276 252/280/252 
f 280/309/280 282/311/282 293/323/293 
f 217/242/217 284/324/284 222/254/222 
f 294/325/294 268/296/268 289/318/289 
f 264/292/264 295/326/295 261/289/261 
f 295/326/295 282/311/282 261/289/261 
f 263/291/263 296/327/296 265/293/265 
f 266/294/266 297/328/297 277/306/277 
f 293/323/293 288/317/288 280/309/280 
f 276/305/276 298/329/298 271/300/271 
f 299/330/299 276/305/276 272/322/272 
f 283/312/283 300/331/300 275/304/275 
f 265/293/265 296/327/296 297/328/297 
f 265/293/265 297/328/297 266/294/266 
f 301/332/301 286/315/286 271/300/271 
f 302/333/302 272/301/272 290/319/290 
f 285/314/285 303/334/303 291/320/291 
f 304/335/304 296/327/296 263/291/263 
f 305/336/305 263/291/263 286/315/286 
f 301/332/301 271/300/271 298/329/298 
f 217/242/217 275/304/275 284/324/284 
f 301/332/301 306/337/306 286/315/286 
f 307/338/307 299/339/299 272/301/272 
f 302/333/302 307/338/307 272/301/272 
f 302/333/302 290/319/290 291/320/291 
f 303/334/303 302/333/302 291/320/291 
f 281/310/281 303/334/303 285/314/285 
f 294/325/294 269/297/269 268/296/268 
f 292/321/292 295/326/295 264/292/264 
f 292/321/292 308/340/308 295/326/295 
f 309/341/309 274/303/274 287/316/287 
f 310/342/310 277/306/277 297/328/297 
f 311/343/311 296/327/296 304/335/304 
f 305/336/305 304/335/304 263/291/263 
f 310/342/310 297/328/297 296/327/296 
f 286/315/286 312/344/312 305/336/305 
f 313/345/313 301/332/301 298/329/298 
f 299/330/299 313/345/313 298/329/298 
f 299/330/299 298/329/298 276/305/276 
f 312/344/312 286/315/286 306/337/306 
f 303/334/303 281/310/281 314/346/314 
f 282/311/282 315/347/315 293/323/293 
f 293/323/293 315/347/315 288/317/288 
f 294/325/294 289/318/289 316/348/316 
f 317/349/317 281/310/281 269/297/269 
f 274/303/274 309/341/309 283/312/283 
f 306/337/306 301/332/301 318/350/318 
f 267/295/267 319/351/319 278/307/278 
f 288/317/288 320/352/320 321/353/321 
f 289/318/289 288/317/288 321/353/321 
f 289/318/289 321/353/321 316/348/316 
f 269/297/269 294/325/294 317/349/317 
f 281/310/281 317/349/317 314/346/314 
f 322/354/322 282/311/282 295/326/295 
f 310/342/310 287/316/287 277/306/277 
f 311/343/311 323/355/323 296/327/296 
f 313/345/313 318/350/318 301/332/301 
f 312/344/312 324/356/324 305/336/305 
f 306/337/306 318/350/318 312/344/312 
f 302/333/302 325/357/325 307/338/307 
f 302/333/302 303/334/303 325/357/325 
f 303/334/303 326/358/326 325/357/325 
f 314/346/314 326/358/326 303/334/303 
f 322/354/322 315/347/315 282/311/282 
f 323/355/323 310/342/310 296/327/296 
f 327/359/327 311/343/311 304/335/304 
f 311/343/311 327/359/327 323/355/323 
f 324/356/324 312/344/312 318/350/318 
f 299/339/299 307/338/307 328/360/328 
f 319/351/319 267/295/267 284/313/284 
f 328/360/328 307/338/307 325/357/325 
f 319/351/319 329/361/329 278/307/278 
f 314/346/314 330/362/330 326/358/326 
f 288/317/288 315/347/315 320/352/320 
f 331/363/331 283/312/283 309/341/309 
f 278/307/278 332/364/332 279/308/279 
f 294/325/294 333/365/333 317/349/317 
f 308/340/308 322/354/322 295/326/295 
f 334/366/334 335/367/335 287/316/287 
f 310/342/310 334/366/334 287/316/287 
f 331/363/331 309/341/309 287/316/287 
f 336/368/336 305/336/305 324/356/324 
f 270/299/270 337/369/337 292/321/292 
f 320/352/320 338/370/338 321/353/321 
f 339/371/339 284/324/284 275/304/275 
f 340/372/340 300/331/300 283/312/283 
f 340/372/340 283/312/283 331/363/331 
f 341/373/341 294/325/294 316/348/316 
f 338/370/338 320/352/320 315/347/315 
f 323/355/323 334/366/334 310/342/310 
f 342/374/342 328/360/328 325/357/325 
f 343/375/343 294/325/294 341/373/341 
f 339/371/339 275/304/275 344/376/344 
f 300/331/300 345/377/345 275/304/275 
f 278/307/278 329/361/329 332/364/332 
f 346/378/346 308/340/308 292/321/292 
f 294/325/294 343/375/343 333/365/333 
f 335/367/335 331/363/331 287/316/287 
f 345/377/345 344/376/344 275/304/275 
f 342/374/342 325/357/325 326/358/326 
f 279/308/279 332/364/332 347/379/347 
f 279/308/279 337/369/337 270/299/270 
f 340/372/340 345/377/345 300/331/300 
f 284/313/284 348/380/348 319/351/319 
f 337/369/337 346/378/346 292/321/292 
f 349/381/349 318/350/318 313/345/313 
f 339/371/339 348/382/348 284/324/284 
f 328/360/328 350/383/350 299/339/299 
f 329/361/329 351/384/351 332/364/332 
f 347/379/347 337/369/337 279/308/279 
f 350/385/350 313/345/313 299/330/299 
f 318/350/318 336/368/336 324/356/324 
f 319/351/319 352/386/352 329/361/329 
f 315/347/315 353/387/353 338/370/338 
f 354/388/354 339/371/339 344/376/344 
f 352/386/352 319/351/319 348/380/348 
f 329/361/329 352/386/352 351/384/351 
f 351/384/351 355/389/355 332/364/332 
f 355/389/355 347/379/347 332/364/332 
f 355/389/355 356/390/356 347/379/347 
f 347/379/347 356/390/356 337/369/337 
f 330/362/330 314/346/314 357/391/357 
f 358/392/358 321/353/321 338/370/338 
f 359/393/359 327/359/327 304/335/304 
f 336/368/336 304/335/304 305/336/305 
f 308/340/308 360/394/360 322/354/322 
f 361/395/361 333/365/333 343/375/343 
f 321/353/321 358/392/358 362/396/362 
f 353/387/353 358/392/358 338/370/338 
f 313/345/313 363/397/363 349/381/349 
f 364/398/364 355/389/355 351/384/351 
f 314/346/314 317/349/317 333/365/333 
f 365/399/365 315/347/315 322/354/322 
f 366/400/366 359/393/359 304/335/304 
f 367/401/367 331/363/331 335/367/335 
f 368/402/368 354/388/354 344/376/344 
f 367/401/367 340/372/340 331/363/331 
f 369/403/369 326/358/326 330/362/330 
f 364/398/364 351/384/351 352/386/352 
f 346/378/346 337/369/337 356/390/356 
f 364/398/364 356/390/356 355/389/355 
f 346/378/346 360/394/360 308/340/308 
f 370/404/370 371/405/371 336/368/336 
f 370/404/370 336/368/336 318/350/318 
f 368/402/368 339/371/339 354/388/354 
f 344/376/344 345/377/345 368/402/368 
f 339/371/339 372/406/372 348/382/348 
f 361/395/361 343/375/343 341/373/341 
f 361/395/361 357/391/357 333/365/333 
f 357/391/357 314/346/314 333/365/333 
f 371/405/371 304/335/304 336/368/336 
f 368/402/368 372/406/372 339/371/339 
f 345/377/345 340/372/340 368/402/368 
f 352/386/352 348/380/348 373/407/373 
f 365/399/365 353/387/353 315/347/315 
f 374/408/374 334/366/334 323/355/323 
f 327/359/327 374/408/374 323/355/323 
f 371/405/371 366/400/366 304/335/304 
f 349/381/349 370/404/370 318/350/318 
f 350/385/350 363/397/363 313/345/313 
f 350/383/350 328/360/328 342/374/342 
f 364/398/364 375/409/375 356/390/356 
f 357/391/357 369/403/369 330/362/330 
f 376/410/376 367/401/367 335/367/335 
f 369/403/369 377/411/377 326/358/326 
f 352/386/352 378/412/378 364/398/364 
f 379/413/379 316/348/316 321/353/321 
f 367/401/367 380/414/380 340/372/340 
f 373/415/373 348/382/348 372/406/372 
f 342/374/342 326/358/326 377/411/377 
f 381/416/381 368/402/368 340/372/340 
f 352/386/352 373/407/373 382/417/382 
f 375/409/375 346/378/346 356/390/356 
f 360/394/360 365/399/365 322/354/322 
f 379/413/379 341/373/341 316/348/316 
f 372/406/372 383/418/383 373/415/373 
f 341/373/341 379/413/379 361/395/361 
f 384/419/384 357/391/357 361/395/361 
f 362/396/362 379/413/379 321/353/321 
f 334/366/334 376/410/376 335/367/335 
f 359/393/359 374/408/374 327/359/327 
f 340/372/340 380/414/380 381/416/381 
f 385/420/385 360/394/360 346/378/346 
f 379/413/379 384/419/384 361/395/361 
f 381/416/381 372/406/372 368/402/368 
f 386/421/386 349/381/349 363/397/363 
f 382/417/382 378/412/378 352/386/352 
f 378/412/378 387/422/387 364/398/364 
f 387/422/387 375/409/375 364/398/364 
f 374/408/374 388/423/388 334/366/334 
f 388/423/388 374/408/374 359/393/359 
f 375/409/375 385/420/385 346/378/346 
f 389/424/389 369/403/369 357/391/357 
f 390/425/390 376/410/376 334/366/334 
f 375/409/375 391/426/391 385/420/385 
f 391/426/391 360/394/360 385/420/385 
f 365/399/365 392/427/392 353/387/353 
f 353/387/353 393/428/393 358/392/358 
f 393/428/393 362/396/362 358/392/358 
f 389/424/389 394/429/394 369/403/369 
f 395/430/395 383/418/383 372/406/372 
f 388/423/388 390/425/390 334/366/334 
f 390/425/390 367/401/367 376/410/376 
f 396/431/396 342/374/342 377/411/377 
f 360/394/360 391/426/391 397/432/397 
f 369/403/369 394/429/394 377/411/377 
f 360/394/360 392/427/392 365/399/365 
f 392/427/392 393/428/393 353/387/353 
f 381/416/381 380/414/380 367/401/367 
f 386/421/386 370/404/370 349/381/349 
f 373/415/373 383/418/383 395/430/395 
f 398/433/398 397/432/397 391/426/391 
f 375/409/375 398/433/398 391/426/391 
f 399/434/399 392/427/392 360/394/360 
f 397/432/397 399/434/399 360/394/360 
f 400/435/400 388/423/388 359/393/359 
f 367/401/367 401/436/401 381/416/381 
f 392/427/392 402/437/402 393/428/393 
f 393/428/393 402/437/402 362/396/362 
f 403/438/403 379/413/379 362/396/362 
f 350/383/350 342/374/342 404/439/404 
f 404/439/404 342/374/342 396/431/396 
f 350/385/350 405/440/405 363/397/363 
f 390/425/390 406/441/406 367/401/367 
f 400/435/400 359/393/359 366/400/366 
f 402/437/402 403/438/403 362/396/362 
f 370/404/370 407/442/407 371/405/371 
f 401/436/401 372/406/372 381/416/381 
f 408/443/408 390/425/390 388/423/388 
f 408/443/408 388/423/388 400/435/400 
f 404/444/404 405/440/405 350/385/350 
f 409/445/409 403/438/403 402/437/402 
f 410/446/410 384/419/384 379/413/379 
f 411/447/411 395/430/395 372/406/372 
f 373/407/373 412/448/412 382/417/382 
f 396/431/396 377/411/377 394/429/394 
f 413/449/413 397/432/397 398/433/398 
f 399/434/399 409/445/409 392/427/392 
f 409/445/409 402/437/402 392/427/392 
f 389/424/389 414/450/414 394/429/394 
f 387/422/387 415/451/415 375/409/375 
f 401/436/401 411/447/411 372/406/372 
f 416/452/416 370/404/370 386/421/386 
f 373/407/373 417/453/417 412/448/412 
f 413/449/413 399/434/399 397/432/397 
f 384/419/384 418/454/418 357/391/357 
f 405/440/405 419/455/419 363/397/363 
f 420/456/420 389/424/389 357/391/357 
f 371/405/371 400/435/400 366/400/366 
f 417/457/417 373/415/373 395/430/395 
f 382/417/382 412/448/412 378/412/378 
f 403/438/403 421/458/421 379/413/379 
f 422/459/422 411/447/411 401/436/401 
f 390/425/390 408/443/408 423/460/423 
f 367/401/367 406/441/406 424/461/424 
f 413/449/413 425/462/425 399/434/399 
f 426/463/426 420/456/420 357/391/357 
f 414/450/414 396/431/396 394/429/394 
f 378/412/378 427/464/427 387/422/387 
f 415/451/415 428/465/428 375/409/375 
f 389/424/389 420/456/420 414/450/414 
f 427/464/427 415/451/415 387/422/387 
f 416/452/416 386/421/386 363/397/363 
f 419/455/419 416/452/416 363/397/363 
f 408/443/408 400/435/400 429/466/429 
f 414/450/414 430/467/430 396/431/396 
f 431/468/431 427/464/427 378/412/378 
f 428/465/428 398/433/398 375/409/375 
f 418/454/418 426/463/426 357/391/357 
f 432/469/432 400/435/400 371/405/371 
f 407/442/407 432/469/432 371/405/371 
f 390/425/390 433/470/433 406/441/406 
f 416/452/416 407/442/407 370/404/370 
f 423/460/423 408/443/408 429/466/429 
f 398/433/398 428/465/428 413/449/413 
f 434/471/434 403/438/403 409/445/409 
f 421/458/421 410/446/410 379/413/379 
f 411/447/411 435/472/435 395/430/395 
f 401/436/401 367/401/367 424/461/424 
f 423/460/423 433/470/433 390/425/390 
f 412/448/412 431/468/431 378/412/378 
f 418/454/418 384/419/384 410/446/410 
f 417/457/417 395/430/395 435/472/435 
f 403/438/403 436/473/436 421/458/421 
f 436/473/436 410/446/410 421/458/421 
f 423/460/423 429/466/429 433/470/433 
f 437/474/437 404/439/404 396/431/396 
f 438/475/438 414/450/414 420/456/420 
f 434/471/434 436/473/436 403/438/403 
f 432/469/432 429/466/429 400/435/400 
f 439/476/439 434/471/434 399/434/399 
f 409/445/409 399/434/399 434/471/434 
f 436/473/436 418/454/418 410/446/410 
f 429/466/429 440/477/440 433/470/433 
f 416/452/416 432/469/432 407/442/407 
f 433/470/433 440/477/440 406/441/406 
f 399/434/399 425/462/425 441/478/441 
f 399/434/399 441/478/441 439/476/439 
f 442/479/442 443/480/443 405/440/405 
f 444/481/444 417/457/417 435/472/435 
f 414/450/414 438/475/438 430/467/430 
f 434/471/434 445/482/445 436/473/436 
f 443/480/443 419/455/419 405/440/405 
f 404/444/404 442/479/442 405/440/405 
f 430/467/430 446/483/446 396/431/396 
f 447/484/447 425/462/425 413/449/413 
f 427/464/427 448/485/448 415/451/415 
f 445/482/445 426/463/426 436/473/436 
f 426/463/426 418/454/418 436/473/436 
f 424/461/424 422/459/422 401/436/401 
f 442/479/442 404/444/404 437/486/437 
f 430/467/430 438/475/438 446/483/446 
f 439/476/439 449/487/449 434/471/434 
f 450/488/450 451/489/451 432/469/432 
f 450/488/450 432/469/432 416/452/416 
f 441/478/441 452/490/452 439/476/439 
f 445/482/445 453/491/453 426/463/426 
f 454/492/454 420/456/420 426/463/426 
f 419/455/419 455/493/455 416/452/416 
f 417/453/417 444/494/444 412/448/412 
f 437/474/437 396/431/396 446/483/446 
f 412/448/412 456/495/456 431/468/431 
f 95/115/95 64/82/64 79/97/79 
f 95/115/95 139/160/139 104/124/104 
f 453/491/453 457/496/457 426/463/426 
f 458/497/458 454/492/454 426/463/426 
f 451/489/451 429/466/429 432/469/432 
f 452/490/452 459/498/459 439/476/439 
f 428/465/428 447/484/447 413/449/413 
f 448/485/448 428/465/428 415/451/415 
f 459/498/459 449/487/449 439/476/439 
f 443/480/443 460/499/460 419/455/419 
f 441/478/441 425/462/425 452/490/452 
f 457/496/457 458/497/458 426/463/426 
f 420/456/420 461/500/461 438/475/438 
f 462/501/462 406/441/406 440/477/440 
f 463/502/463 406/441/406 462/501/462 
f 463/502/463 424/461/424 406/441/406 
f 453/491/453 458/497/458 457/496/457 
f 429/466/429 462/501/462 440/477/440 
f 460/499/460 455/493/455 419/455/419 
f 444/494/444 464/503/464 412/448/412 
f 412/448/412 464/503/464 456/495/456 
f 447/484/447 452/490/452 425/462/425 
f 427/464/427 465/504/465 448/485/448 
f 466/505/466 435/472/435 411/447/411 
f 466/505/466 411/447/411 422/459/422 
f 467/506/467 462/501/462 429/466/429 
f 424/461/424 468/507/468 422/459/422 
f 451/489/451 467/506/467 429/466/429 
f 431/468/431 469/508/469 427/464/427 
f 454/492/454 461/500/461 420/456/420 
f 435/472/435 470/509/470 444/481/444 
f 470/509/470 435/472/435 466/505/466 
f 450/488/450 416/452/416 455/493/455 
f 449/487/449 445/482/445 434/471/434 
f 471/510/471 458/497/458 453/491/453 
f 469/508/469 465/504/465 427/464/427 
f 471/510/471 453/491/453 445/482/445 
f 472/511/472 428/465/428 448/485/448 
f 473/512/473 450/488/450 455/493/455 
f 431/468/431 456/495/456 469/508/469 
f 107/513/107 454/492/454 458/497/458 
f 472/511/472 447/484/447 428/465/428 
f 474/514/474 452/490/452 447/484/447 
f 475/515/475 459/498/459 452/490/452 
f 449/487/449 471/510/471 445/482/445 
f 438/475/438 461/500/461 446/483/446 
f 464/516/464 444/481/444 470/509/470 
f 475/515/475 476/517/476 459/498/459 
f 454/492/454 477/518/477 461/500/461 
f 450/488/450 467/506/467 451/489/451 
f 468/507/468 424/461/424 463/502/463 
f 474/514/474 475/515/475 452/490/452 
f 458/497/458 478/519/478 107/513/107 
f 476/517/476 449/487/449 459/498/459 
f 466/505/466 479/520/479 470/509/470 
f 468/507/468 466/505/466 422/459/422 
f 473/512/473 480/521/480 450/488/450 
f 460/499/460 473/512/473 455/493/455 
f 464/516/464 470/509/470 479/520/479 
f 446/483/446 461/500/461 477/518/477 
f 480/521/480 467/506/467 450/488/450 
f 443/480/443 442/479/442 437/486/437 
f 106/522/106 454/492/454 107/513/107 
f 456/523/456 464/516/464 481/524/481 
f 437/474/437 446/483/446 98/525/98 
f 456/495/456 482/526/482 469/508/469 
f 98/525/98 446/483/446 477/518/477 
f 482/526/482 465/504/465 469/508/469 
f 447/484/447 483/527/483 474/514/474 
f 484/528/484 448/485/448 465/504/465 
f 484/528/484 472/511/472 448/485/448 
f 449/487/449 485/529/485 471/510/471 
f 471/510/471 478/519/478 458/497/458 
f 109/530/109 477/518/477 454/492/454 
f 463/502/463 486/531/486 468/507/468 
f 487/532/487 488/533/488 466/505/466 
f 487/532/487 466/505/466 468/507/468 
f 464/516/464 479/520/479 481/524/481 
f 456/523/456 481/524/481 482/534/482 
f 472/511/472 483/527/483 447/484/447 
f 489/535/489 462/501/462 467/506/467 
f 466/505/466 488/533/488 479/520/479 
f 468/507/468 486/531/486 487/532/487 
f 463/502/463 462/501/462 490/536/490 
f 479/520/479 488/533/488 484/537/484 
f 479/520/479 484/537/484 481/524/481 
f 97/538/97 437/474/437 98/525/98 
f 481/524/481 484/537/484 482/534/482 
f 482/534/482 484/537/484 465/539/465 
f 491/540/491 474/541/474 483/542/483 
f 484/528/484 483/527/483 472/511/472 
f 491/540/491 492/543/492 474/541/474 
f 474/514/474 492/544/492 475/515/475 
f 476/517/476 493/545/493 449/487/449 
f 493/545/493 485/529/485 449/487/449 
f 494/546/494 478/547/478 471/548/471 
f 106/522/106 101/549/101 454/492/454 
f 489/535/489 490/536/490 462/501/462 
f 495/550/495 489/535/489 467/506/467 
f 495/550/495 467/506/467 480/521/480 
f 496/551/496 443/480/443 437/486/437 
f 490/536/490 486/531/486 463/502/463 
f 487/532/487 486/531/486 491/540/491 
f 488/533/488 483/542/483 484/537/484 
f 488/533/488 487/532/487 483/542/483 
f 487/532/487 491/540/491 483/542/483 
f 492/544/492 476/517/476 475/515/475 
f 497/552/497 471/548/471 485/553/485 
f 497/552/497 494/546/494 471/548/471 
f 101/549/101 109/530/109 454/492/454 
f 100/120/100 192/216/192 473/512/473 
f 100/120/100 473/512/473 460/499/460 
f 100/120/100 460/499/460 443/480/443 
f 480/521/480 473/512/473 192/216/192 
f 486/531/486 490/536/490 498/554/498 
f 495/550/495 480/521/480 499/555/499 
f 486/531/486 498/554/498 491/540/491 
f 97/117/97 496/551/496 437/486/437 
f 495/550/495 499/555/499 494/546/494 
f 490/536/490 489/535/489 493/556/493 
f 498/554/498 490/536/490 492/543/492 
f 489/535/489 495/550/495 494/546/494 
f 489/535/489 494/546/494 497/552/497 
f 491/540/491 498/554/498 492/543/492 
f 490/536/490 493/556/493 492/543/492 
f 493/556/493 489/535/489 497/552/497 
f 499/555/499 105/125/105 478/547/478 
f 499/555/499 478/547/478 494/546/494 
f 492/544/492 493/545/493 476/517/476 
f 493/556/493 497/552/497 485/553/485 
f 477/557/477 109/129/109 98/118/98 
f 496/551/496 100/120/100 443/480/443 
f 480/521/480 192/216/192 499/555/499 
f 478/547/478 105/125/105 107/127/107 
f 99/119/99 98/118/98 109/129/109 
f 192/216/192 100/120/100 101/121/101 
f 100/120/100 496/551/496 99/119/99 
f 496/551/496 97/117/97 99/119/99 
f 499/555/499 192/216/192 105/125/105 
# 994 faces

