%YAML 1.1
%TAG !u! tag:unity3d.com,2011:
--- !u!114 &-4056119136527620071
MonoBehaviour:
  m_ObjectHideFlags: 11
  m_CorrespondingSourceObject: {fileID: 0}
  m_PrefabInstance: {fileID: 0}
  m_PrefabAsset: {fileID: 0}
  m_GameObject: {fileID: 0}
  m_Enabled: 1
  m_EditorHideFlags: 0
  m_Script: {fileID: 11500000, guid: d0353a89b1f911e48b9e16bdc9f2e058, type: 3}
  m_Name: 
  m_EditorClassIdentifier: 
  version: 5
--- !u!21 &2100000
Material:
  serializedVersion: 6
  m_ObjectHideFlags: 0
  m_CorrespondingSourceObject: {fileID: 0}
  m_PrefabInstance: {fileID: 0}
  m_PrefabAsset: {fileID: 0}
  m_Name: GlowRedMat
  m_Shader: {fileID: -6465566751694194690, guid: c26b2e632f41bcf4285dd74aef850bc8, type: 3}
  m_ShaderKeywords: 
  m_LightmapFlags: 4
  m_EnableInstancingVariants: 0
  m_DoubleSidedGI: 0
  m_CustomRenderQueue: -1
  stringTagMap: {}
  disabledShaderPasses: []
  m_SavedProperties:
    serializedVersion: 3
    m_TexEnvs:
    - Texture2D_1dbefb00f8774cbdb3c93fb60295d1c2:
        m_Texture: {fileID: 2800000, guid: e575eb325add35a478ae3e61031cc5d7, type: 3}
        m_Scale: {x: 1, y: 1}
        m_Offset: {x: 0, y: 0}
    - _Texture2DAsset_99a2a8cf11ac4953ad7620591d0a5468_Out_0:
        m_Texture: {fileID: 2800000, guid: e575eb325add35a478ae3e61031cc5d7, type: 3}
        m_Scale: {x: 1, y: 1}
        m_Offset: {x: 0, y: 0}
    - _Texture2DAsset_a55d33a2ff4a4598ba11add385cb5428_Out_0:
        m_Texture: {fileID: 2800000, guid: e575eb325add35a478ae3e61031cc5d7, type: 3}
        m_Scale: {x: 1, y: 1}
        m_Offset: {x: 0, y: 0}
    - unity_Lightmaps:
        m_Texture: {fileID: 0}
        m_Scale: {x: 1, y: 1}
        m_Offset: {x: 0, y: 0}
    - unity_LightmapsInd:
        m_Texture: {fileID: 0}
        m_Scale: {x: 1, y: 1}
        m_Offset: {x: 0, y: 0}
    - unity_ShadowMasks:
        m_Texture: {fileID: 0}
        m_Scale: {x: 1, y: 1}
        m_Offset: {x: 0, y: 0}
    m_Ints: []
    m_Floats:
    - _QueueControl: 0
    - _QueueOffset: 0
    m_Colors:
    - Color_5e3aa2a303a74921acebbcf02eb56f2b: {r: 4, g: 0, b: 0, a: 0}
    - Color_97a64032fbe64f35b0cae8bd5346d810: {r: 2, g: 0, b: 0, a: 0}
    - Color_cd08f3edc2bd42d68272e838ed6bdf64: {r: 2.9960785, g: 0, b: 0.1254902, a: 0}
  m_BuildTextureStacks: []
