# 3ds Max Wavefront OBJ Exporter v0.97b - (c)2007 guruware
# File Created: 16.12.2018 21:08:56

mtllib Spear.mtl

#
# object Spear
#

v  0.1440 1269.6636 25.5621
v  0.0069 1189.4753 42.1815
v  13.2903 1192.9155 40.2819
v  7.5223 1269.6636 22.9769
v  10.8054 1269.9668 1.3048
v  7.6930 1270.8102 -18.9422
v  1.8542 1339.9731 -4.4439
v  3.7104 1340.6465 0.8739
v  -2.3861 1339.9731 -5.3579
v  -0.5910 1339.7668 -6.6296
v  0.3113 1270.6296 -22.3464
v  -7.6704 1269.6636 -17.8546
v  -9.5905 1269.6636 -0.4038
v  -2.7723 1339.9731 0.8739
v  0.3109 1347.1229 1.3748
v  2.3434 1345.6718 1.4914
v  1.6423 1344.6920 -1.8708
v  0.3109 1345.3962 -2.7867
v  0.3112 1339.9731 8.6283
v  -2.2089 1339.9731 7.5929
v  -6.7837 1269.6636 23.4716
v  0.0069 1161.3247 -12.9031
v  -9.1637 1163.5245 -12.9031
v  -12.5474 1189.4753 -32.5744
v  0.8153 1189.8881 -37.1578
v  16.7648 1189.4753 1.6578
v  8.6140 1163.8566 19.3136
v  15.7334 1163.4377 2.5657
v  -10.6989 1192.1394 40.9300
v  -8.6140 1163.8566 19.3136
v  0.0069 1161.3247 19.3136
v  -17.3747 1189.4753 -3.1902
v  -12.5877 1162.5734 2.5657
v  9.1637 1163.5245 -12.9031
v  8.6113 1154.5247 -5.4196
v  0.0040 1154.5247 -8.6940
v  8.6113 1154.5247 11.5588
v  11.9653 1154.5247 2.9320
v  0.0040 1154.5247 14.1993
v  -8.6113 1154.5247 -5.8377
v  -10.3405 1154.5247 2.9320
v  9.2703 1134.4246 -7.4002
v  0.0043 1134.4246 -9.8621
v  9.2703 1134.4246 13.8107
v  14.1456 1134.4246 2.7842
v  0.0043 1134.4246 15.8373
v  -9.2703 1134.4246 -7.4002
v  -14.1456 1134.4246 2.7842
v  0.0069 1109.0437 -19.0724
v  -13.4113 1105.2858 -16.6388
v  22.8984 1109.0437 1.8180
v  14.2878 1105.2858 -16.9151
v  -9.2703 1134.4246 13.8107
v  -13.4113 1105.2858 21.8565
v  0.0069 1107.3250 25.5842
v  -21.7375 1109.0437 1.8180
v  14.7032 1081.1003 -18.2122
v  0.0069 1082.0364 -21.7718
v  13.4113 1105.2858 21.8565
v  13.4113 1081.1003 20.9378
v  22.9338 1082.0364 0.4120
v  -13.4113 1081.1003 20.9378
v  0.0069 1082.0364 23.9767
v  -13.4113 1081.1003 -18.2122
v  -22.4212 1082.0364 1.0118
v  13.4113 1060.6826 -16.7905
v  0.0069 1059.2365 -18.9915
v  13.4113 1060.6826 22.3595
v  23.7100 1059.2365 1.9996
v  -13.4113 1060.6826 22.3595
v  0.0069 1059.2365 24.7264
v  -22.3618 1059.2365 1.9996
v  13.4113 1040.8713 -17.2758
v  0.0069 1037.1135 -19.5335
v  21.7375 1037.1135 1.4576
v  -13.4113 1040.8713 21.8741
v  0.0069 1037.1135 24.1844
v  -13.4113 1060.6826 -16.7905
v  -13.4113 1040.8713 -17.2758
v  -21.7375 1037.1135 1.4576
v  0.0069 1019.7881 -11.8382
v  -8.3972 1019.7881 -8.5729
v  13.4113 1040.8713 21.8741
v  11.4268 1019.7881 12.4521
v  14.9761 1019.7881 1.3926
v  -11.4268 1019.7881 12.4521
v  0.0069 1019.7881 15.7174
v  -12.1787 1019.7881 2.2887
v  11.4268 1019.7881 -8.5729
v  10.4383 967.9823 -6.1153
v  1.6611 967.9823 -11.3570
v  10.4383 967.9823 11.2647
v  13.7105 967.9823 2.0798
v  -9.3566 967.9823 11.1078
v  0.0069 967.9823 14.9467
v  -8.1106 967.9823 -7.7232
v  -12.6547 968.6666 4.1467
v  12.0931 0.2538 -6.2858
v  1.8462 0.2538 -10.5930
v  12.0931 0.2538 11.4630
v  17.0698 0.2538 2.0653
v  -8.4148 0.2538 11.4630
v  1.8462 0.2538 15.7702
v  -13.3916 0.2538 2.0653
v  -1.3390 1345.8885 1.1937
v  -1.0702 1345.0344 5.5013
v  0.3109 1346.0472 5.9723
v  13.3123 1191.1360 -34.5906
v  -6.7256 1154.5247 11.1144
v  -8.4148 0.2538 -6.2858
v  2.3335 1345.1501 5.5104
v  2.9347 1339.9731 7.2991
v  -0.9392 1345.1891 -2.0859
# 113 vertices

vn 0.0195 0.2348 0.9719
vn 0.0115 -0.2801 0.9599
vn 0.6852 -0.1203 0.7183
vn 0.7642 0.1828 0.6185
vn 0.9960 0.0898 -0.0013
vn 0.7931 0.1701 -0.5849
vn 0.7955 0.2423 -0.5554
vn 0.9783 0.1698 -0.1189
vn -0.8100 0.3253 -0.4878
vn 0.0365 0.3780 -0.9251
vn -0.0568 0.2093 -0.9762
vn -0.8279 0.1491 -0.5406
vn -0.9955 0.0947 0.0045
vn -0.9838 0.1795 0.0031
vn 0.0034 0.9984 -0.0569
vn 0.7946 0.6000 -0.0927
vn 0.7649 0.4832 -0.4259
vn 0.1360 0.7483 -0.6493
vn 0.0275 0.3233 0.9459
vn -0.7763 0.2825 0.5635
vn -0.7573 0.1870 0.6258
vn 0.0005 -0.6113 -0.7914
vn -0.6409 -0.5002 -0.5822
vn -0.7042 -0.1931 -0.6833
vn -0.0488 -0.2426 -0.9689
vn 0.9990 -0.0447 -0.0005
vn 0.6324 -0.4788 0.6090
vn 0.9790 -0.2039 0.0008
vn -0.6485 -0.1252 0.7508
vn -0.6678 -0.5014 0.5501
vn -0.0118 -0.6362 0.7714
vn -0.9979 -0.0624 -0.0154
vn -0.9717 -0.2318 0.0444
vn 0.6235 -0.4970 -0.6034
vn 0.7136 -0.2155 -0.6666
vn 0.0194 -0.2476 -0.9687
vn 0.7106 -0.2078 0.6722
vn 0.9880 -0.1546 0.0001
vn -0.0748 -0.2942 0.9528
vn -0.7711 -0.1702 -0.6136
vn -0.9918 -0.0418 0.1206
vn 0.6274 0.2213 -0.7466
vn 0.0001 0.2065 -0.9784
vn 0.6243 0.2164 0.7506
vn 0.9764 0.2157 -0.0095
vn -0.0112 0.2305 0.9730
vn -0.6337 0.2058 -0.7457
vn -0.9756 0.2196 0.0042
vn -0.0135 0.2385 -0.9711
vn -0.6185 0.1701 -0.7671
vn 0.9861 0.1661 0.0020
vn 0.6058 0.1789 -0.7753
vn -0.6258 0.2512 0.7384
vn -0.6423 0.1108 0.7584
vn 0.0001 0.1399 0.9902
vn -0.9866 0.1625 -0.0172
vn 0.6393 -0.0228 -0.7686
vn -0.0100 -0.0063 -0.9999
vn 0.6295 0.1065 0.7696
vn 0.6329 0.0186 0.7740
vn 0.9998 0.0074 -0.0190
vn -0.6415 0.0117 0.7670
vn 0.0001 0.0025 1.0000
vn -0.6322 -0.0038 -0.7748
vn -0.9998 0.0053 -0.0199
vn 0.5941 -0.0348 -0.8036
vn 0.0001 -0.0438 -0.9990
vn 0.5938 0.0130 0.8045
vn 0.9999 -0.0124 -0.0067
vn -0.6147 0.0125 0.7886
vn 0.0001 0.0023 1.0000
vn -1.0000 -0.0072 -0.0050
vn 0.5863 -0.1502 -0.7961
vn -0.0073 -0.2320 -0.9727
vn 0.9778 -0.2089 -0.0185
vn -0.6109 -0.1719 0.7728
vn 0.0001 -0.2612 0.9653
vn -0.6161 -0.0284 -0.7871
vn -0.5987 -0.1704 -0.7827
vn -0.9732 -0.2266 -0.0380
vn -0.0496 -0.2210 -0.9740
vn -0.6855 -0.2484 -0.6844
vn 0.6024 -0.1800 0.7776
vn 0.6908 -0.2260 0.6868
vn 0.9784 -0.2057 -0.0188
vn -0.7439 -0.2551 0.6177
vn 0.0021 -0.2445 0.9696
vn -0.9579 -0.2561 -0.1297
vn 0.6818 -0.2133 -0.6998
vn 0.7629 -0.0205 -0.6462
vn 0.0861 -0.0182 -0.9961
vn 0.7045 -0.0105 0.7097
vn 0.9997 -0.0127 -0.0188
vn -0.6876 -0.0226 0.7257
vn -0.0210 -0.0131 0.9997
vn -0.7045 -0.0082 -0.7097
vn -0.9994 -0.0142 0.0319
vn 0.6566 0.0020 -0.7542
vn 0.0008 0.0000 -1.0000
vn 0.6749 0.0017 0.7379
vn 0.9997 0.0026 -0.0256
vn -0.6746 -0.0004 0.7382
vn 0.0007 0.0008 1.0000
vn -0.9997 -0.0007 -0.0253
vn -0.8197 0.5720 -0.0315
vn -0.7694 0.4861 0.4143
vn -0.0801 0.7941 0.6025
vn 0.6956 -0.1705 -0.6979
vn -0.7356 -0.2003 0.6471
vn -0.6560 -0.0007 -0.7548
vn 0.7134 0.5546 0.4283
vn 0.7928 0.2302 0.5644
vn -0.6933 0.6113 -0.3816
# 113 vertex normals

vt 0.2298 0.7843 0.0000
vt 0.1998 0.7008 0.0000
vt 0.2131 0.7050 0.0000
vt 0.2377 0.7820 0.0000
vt 0.2608 0.7786 0.0000
vt 0.2826 0.7759 0.0000
vt 0.2796 0.8487 0.0000
vt 0.2739 0.8496 0.0000
vt 0.3454 0.7660 0.0000
vt 0.3433 0.7668 0.0000
vt 0.3104 0.7003 0.0000
vt 0.3195 0.6971 0.0000
vt 0.3384 0.6946 0.0000
vt 0.3516 0.7650 0.0000
vt 0.2746 0.8574 0.0000
vt 0.2741 0.8550 0.0000
vt 0.2774 0.8538 0.0000
vt 0.2788 0.8549 0.0000
vt 0.3610 0.7648 0.0000
vt 0.3583 0.7642 0.0000
vt 0.3645 0.6914 0.0000
vt 0.3722 0.6915 0.0000
vt 0.3020 0.5795 0.0000
vt 0.3098 0.5852 0.0000
vt 0.2976 0.6165 0.0000
vt 0.2842 0.6157 0.0000
vt 0.2466 0.6937 0.0000
vt 0.2234 0.6693 0.0000
vt 0.2417 0.6672 0.0000
vt 0.3740 0.6048 0.0000
vt 0.3653 0.6113 0.0000
vt 0.3436 0.5826 0.0000
vt 0.3492 0.5755 0.0000
vt 0.3242 0.6116 0.0000
vt 0.3258 0.5824 0.0000
vt 0.2651 0.6577 0.0000
vt 0.2589 0.6649 0.0000
vt 0.2511 0.6557 0.0000
vt 0.2598 0.6514 0.0000
vt 0.2298 0.6584 0.0000
vt 0.2409 0.6574 0.0000
vt 0.2163 0.6636 0.0000
vt 0.2208 0.6560 0.0000
vt 0.3160 0.5747 0.0000
vt 0.3261 0.5738 0.0000
vt 0.1350 0.7926 0.0000
vt 0.1447 0.7942 0.0000
vt 0.1385 0.8143 0.0000
vt 0.1282 0.8124 0.0000
vt 0.1665 0.7958 0.0000
vt 0.1652 0.8159 0.0000
vt 0.1510 0.8153 0.0000
vt 0.1552 0.7951 0.0000
vt 0.1776 0.7965 0.0000
vt 0.1763 0.8164 0.0000
vt 0.2131 0.8154 0.0000
vt 0.2011 0.8167 0.0000
vt 0.1979 0.7967 0.0000
vt 0.2077 0.7958 0.0000
vt 0.2379 0.8393 0.0000
vt 0.2256 0.8460 0.0000
vt 0.2231 0.8131 0.0000
vt 0.1456 0.8416 0.0000
vt 0.1273 0.8448 0.0000
vt 0.1872 0.8171 0.0000
vt 0.1882 0.8479 0.0000
vt 0.1766 0.8448 0.0000
vt 0.2072 0.8432 0.0000
vt 0.1242 0.8699 0.0000
vt 0.1094 0.8697 0.0000
vt 0.1136 0.8395 0.0000
vt 0.1648 0.8467 0.0000
vt 0.1652 0.8708 0.0000
vt 0.1438 0.8692 0.0000
vt 0.1911 0.8716 0.0000
vt 0.1781 0.8701 0.0000
vt 0.2318 0.8708 0.0000
vt 0.2121 0.8702 0.0000
vt 0.1250 0.8915 0.0000
vt 0.1120 0.8950 0.0000
vt 0.1669 0.8910 0.0000
vt 0.1461 0.8921 0.0000
vt 0.1908 0.8919 0.0000
vt 0.1788 0.8930 0.0000
vt 0.2115 0.8933 0.0000
vt 0.1285 0.9125 0.0000
vt 0.1172 0.9191 0.0000
vt 0.1484 0.9152 0.0000
vt 0.1920 0.9113 0.0000
vt 0.1801 0.9154 0.0000
vt 0.2318 0.8926 0.0000
vt 0.2302 0.9131 0.0000
vt 0.2114 0.9159 0.0000
vt 0.2408 0.9199 0.0000
vt 0.2306 0.9377 0.0000
vt 0.2214 0.9361 0.0000
vt 0.1683 0.9106 0.0000
vt 0.1646 0.9335 0.0000
vt 0.1505 0.9335 0.0000
vt 0.1945 0.9347 0.0000
vt 0.1795 0.9343 0.0000
vt 0.2072 0.9355 0.0000
vt 0.1383 0.9341 0.0000
vt 0.1453 0.9869 0.0000
vt 0.1350 0.9883 0.0000
vt 0.1261 0.9363 0.0000
vt 0.1644 0.9860 0.0000
vt 0.1543 0.9861 0.0000
vt 0.1870 0.9869 0.0000
vt 0.1761 0.9865 0.0000
vt 0.2085 0.9883 0.0000
vt 0.1953 0.9867 0.0000
vt 0.0212 0.9900 0.0000
vt 0.0100 0.9899 0.0000
vt 0.0141 0.0106 0.0000
vt 0.0244 0.0107 0.0000
vt 0.0418 0.9900 0.0000
vt 0.0311 0.9900 0.0000
vt 0.0333 0.0107 0.0000
vt 0.0432 0.0107 0.0000
vt 0.0644 0.9900 0.0000
vt 0.0531 0.9900 0.0000
vt 0.0544 0.0107 0.0000
vt 0.0646 0.0107 0.0000
vt 0.0724 0.0100 0.0000
vt 0.0751 0.9900 0.0000
vt 0.2830 0.8488 0.0000
vt 0.2910 0.7752 0.0000
vt 0.3533 0.7731 0.0000
vt 0.3528 0.7711 0.0000
vt 0.3569 0.7696 0.0000
vt 0.3579 0.7711 0.0000
vt 0.2803 0.6939 0.0000
vt 0.2911 0.6886 0.0000
vt 0.3064 0.5721 0.0000
vt 0.3362 0.5721 0.0000
vt 0.3433 0.5690 0.0000
vt 0.2167 0.7936 0.0000
vt 0.1870 0.7969 0.0000
vt 0.2449 0.8680 0.0000
vt 0.2451 0.8941 0.0000
vt 0.2190 0.9900 0.0000
vt 0.0853 0.0107 0.0000
vt 0.0958 0.0107 0.0000
vt 0.0962 0.9900 0.0000
vt 0.0850 0.9900 0.0000
vt 0.2693 0.8571 0.0000
vt 0.2701 0.8550 0.0000
vt 0.2672 0.8503 0.0000
vt 0.3485 0.7721 0.0000
vt 0.3495 0.7710 0.0000
vt 0.2645 0.8517 0.0000
# 152 texture coords

g Spear
usemtl Spear
s 1
f 1/1/1 2/2/2 3/3/3 
f 3/3/3 4/4/4 1/1/1 
f 5/5/5 6/6/6 7/7/7 
f 7/7/7 8/8/8 5/5/5 
f 9/9/9 10/10/10 11/11/11 
f 11/11/11 12/12/12 9/9/9 
f 13/13/13 14/14/14 9/9/9 
f 9/9/9 12/12/12 13/13/13 
f 15/15/15 16/16/16 17/17/17 
f 17/17/17 18/18/18 15/15/15 
f 19/19/19 20/20/20 21/21/21 
f 21/21/21 1/22/1 19/19/19 
f 22/23/22 23/24/23 24/25/24 
f 24/25/24 25/26/25 22/23/22 
f 26/27/26 3/3/3 27/28/27 
f 27/28/27 28/29/28 26/27/26 
f 2/30/2 29/31/29 30/32/30 
f 30/32/30 31/33/31 2/30/2 
f 32/34/32 24/25/24 23/24/23 
f 23/24/23 33/35/33 32/34/32 
f 22/36/22 34/37/34 35/38/35 
f 35/38/35 36/39/36 22/36/22 
f 28/29/28 27/28/27 37/40/37 
f 37/40/37 38/41/38 28/29/28 
f 31/42/31 39/43/39 37/40/37 
f 37/40/37 27/28/27 31/42/31 
f 33/35/33 23/24/23 40/44/40 
f 40/44/40 41/45/41 33/35/33 
f 36/46/36 35/47/35 42/48/42 
f 42/48/42 43/49/43 36/46/36 
f 37/50/37 44/51/44 45/52/45 
f 45/52/45 38/53/38 37/50/37 
f 39/54/39 46/55/46 44/51/44 
f 44/51/44 37/50/37 39/54/39 
f 47/56/47 48/57/48 41/58/41 
f 41/58/41 40/59/40 47/56/47 
f 49/60/49 50/61/50 47/56/47 
f 47/56/47 43/62/43 49/60/49 
f 51/63/51 52/64/52 42/48/42 
f 42/48/42 45/52/45 51/63/51 
f 53/65/53 54/66/54 55/67/55 
f 55/67/55 46/55/46 53/65/53 
f 56/68/56 54/66/54 53/65/53 
f 53/65/53 48/57/48 56/68/56 
f 52/64/52 57/69/57 58/70/58 
f 58/70/58 49/71/49 52/64/52 
f 59/72/59 60/73/60 61/74/61 
f 61/74/61 51/63/51 59/72/59 
f 54/66/54 62/75/62 63/76/63 
f 63/76/63 55/67/55 54/66/54 
f 50/61/50 64/77/64 65/78/65 
f 65/78/65 56/68/56 50/61/50 
f 58/70/58 57/69/57 66/79/66 
f 66/79/66 67/80/67 58/70/58 
f 60/73/60 68/81/68 69/82/69 
f 69/82/69 61/74/61 60/73/60 
f 63/76/63 62/75/62 70/83/70 
f 70/83/70 71/84/71 63/76/63 
f 72/85/72 70/83/70 62/75/62 
f 62/75/62 65/78/65 72/85/72 
f 67/80/67 66/79/66 73/86/73 
f 73/86/73 74/87/74 67/80/67 
f 69/82/69 75/88/75 73/86/73 
f 73/86/73 66/79/66 69/82/69 
f 71/84/71 70/83/70 76/89/76 
f 76/89/76 77/90/77 71/84/71 
f 72/85/72 78/91/78 79/92/79 
f 79/92/79 80/93/80 72/85/72 
f 74/94/74 81/95/81 82/96/82 
f 82/96/82 79/92/79 74/94/74 
f 75/88/75 83/97/83 84/98/84 
f 84/98/84 85/99/85 75/88/75 
f 77/90/77 76/89/76 86/100/86 
f 86/100/86 87/101/87 77/90/77 
f 80/93/80 79/92/79 82/96/82 
f 82/96/82 88/102/88 80/93/80 
f 89/103/89 90/104/90 91/105/91 
f 91/105/91 81/106/81 89/103/89 
f 92/107/92 93/108/93 85/99/85 
f 85/99/85 84/98/84 92/107/92 
f 94/109/94 95/110/95 87/101/87 
f 87/101/87 86/100/86 94/109/94 
f 96/111/96 97/112/97 88/102/88 
f 88/102/88 82/96/82 96/111/96 
f 98/113/98 99/114/99 91/115/91 
f 91/115/91 90/116/90 98/113/98 
f 100/117/100 101/118/101 93/119/93 
f 93/119/93 92/120/92 100/117/100 
f 102/121/102 103/122/103 95/123/95 
f 95/123/95 94/124/94 102/121/102 
f 102/121/102 94/124/94 97/125/97 
f 97/125/97 104/126/104 102/121/102 
f 1/22/1 21/21/21 29/31/29 
f 29/31/29 2/30/2 1/22/1 
f 10/127/10 7/7/7 6/6/6 
f 6/6/6 11/128/11 10/127/10 
f 15/129/15 105/130/105 106/131/106 
f 106/131/106 107/132/107 15/129/15 
f 108/133/108 25/134/25 11/128/11 
f 11/128/11 6/6/6 108/133/108 
f 25/134/25 108/133/108 34/37/34 
f 34/37/34 22/36/22 25/134/25 
f 27/28/27 3/3/3 2/2/2 
f 2/2/2 31/42/31 27/28/27 
f 40/44/40 23/24/23 22/23/22 
f 22/23/22 36/135/36 40/44/40 
f 31/33/31 30/32/30 109/136/109 
f 109/136/109 39/137/39 31/33/31 
f 40/59/40 36/138/36 43/62/43 
f 43/62/43 47/56/47 40/59/40 
f 109/139/109 53/65/53 46/55/46 
f 46/55/46 39/54/39 109/139/109 
f 42/48/42 52/64/52 49/71/49 
f 49/71/49 43/49/43 42/48/42 
f 55/67/55 59/72/59 44/51/44 
f 44/51/44 46/55/46 55/67/55 
f 58/140/58 64/77/64 50/61/50 
f 50/61/50 49/60/49 58/140/58 
f 63/76/63 60/73/60 59/72/59 
f 59/72/59 55/67/55 63/76/63 
f 64/77/64 58/140/58 67/141/67 
f 67/141/67 78/91/78 64/77/64 
f 68/81/68 60/73/60 63/76/63 
f 63/76/63 71/84/71 68/81/68 
f 79/92/79 78/91/78 67/141/67 
f 67/141/67 74/94/74 79/92/79 
f 83/97/83 68/81/68 71/84/71 
f 71/84/71 77/90/77 83/97/83 
f 74/87/74 73/86/73 89/103/89 
f 89/103/89 81/106/81 74/87/74 
f 84/98/84 83/97/83 77/90/77 
f 77/90/77 87/101/87 84/98/84 
f 82/96/82 81/95/81 91/142/91 
f 91/142/91 96/111/96 82/96/82 
f 84/98/84 87/101/87 95/110/95 
f 95/110/95 92/107/92 84/98/84 
f 96/143/96 91/144/91 99/145/99 
f 99/145/99 110/146/110 96/143/96 
f 92/120/92 95/123/95 103/122/103 
f 103/122/103 100/117/100 92/120/92 
f 4/4/4 3/3/3 26/27/26 
f 26/27/26 5/5/5 4/4/4 
f 13/13/13 21/21/21 20/20/20 
f 20/20/20 14/14/14 13/13/13 
f 107/147/107 111/148/111 16/16/16 
f 16/16/16 15/15/15 107/147/107 
f 5/5/5 8/8/8 112/149/112 
f 112/149/112 4/4/4 5/5/5 
f 34/37/34 108/133/108 26/27/26 
f 26/27/26 28/29/28 34/37/34 
f 30/32/30 29/31/29 32/34/32 
f 32/34/32 33/35/33 30/32/30 
f 35/38/35 34/37/34 28/29/28 
f 28/29/28 38/41/38 35/38/35 
f 109/136/109 30/32/30 33/35/33 
f 33/35/33 41/45/41 109/136/109 
f 45/52/45 42/48/42 35/47/35 
f 35/47/35 38/53/38 45/52/45 
f 109/139/109 41/58/41 48/57/48 
f 48/57/48 53/65/53 109/139/109 
f 44/51/44 59/72/59 51/63/51 
f 51/63/51 45/52/45 44/51/44 
f 47/56/47 50/61/50 56/68/56 
f 56/68/56 48/57/48 47/56/47 
f 61/74/61 57/69/57 52/64/52 
f 52/64/52 51/63/51 61/74/61 
f 65/78/65 62/75/62 54/66/54 
f 54/66/54 56/68/56 65/78/65 
f 66/79/66 57/69/57 61/74/61 
f 61/74/61 69/82/69 66/79/66 
f 65/78/65 64/77/64 78/91/78 
f 78/91/78 72/85/72 65/78/65 
f 69/82/69 68/81/68 83/97/83 
f 83/97/83 75/88/75 69/82/69 
f 76/89/76 70/83/70 72/85/72 
f 72/85/72 80/93/80 76/89/76 
f 89/103/89 73/86/73 75/88/75 
f 75/88/75 85/99/85 89/103/89 
f 86/100/86 76/89/76 80/93/80 
f 80/93/80 88/102/88 86/100/86 
f 90/104/90 89/103/89 85/99/85 
f 85/99/85 93/108/93 90/104/90 
f 97/112/97 94/109/94 86/100/86 
f 86/100/86 88/102/88 97/112/97 
f 90/116/90 93/119/93 101/118/101 
f 101/118/101 98/113/98 90/116/90 
f 110/146/110 104/126/104 97/125/97 
f 97/125/97 96/143/96 110/146/110 
f 15/129/15 18/150/18 113/151/113 
f 113/151/113 105/130/105 15/129/15 
f 32/34/32 29/31/29 21/21/21 
f 21/21/21 13/13/13 32/34/32 
f 17/17/17 16/16/16 8/8/8 
f 8/8/8 7/7/7 17/17/17 
f 18/18/18 17/17/17 7/7/7 
f 7/7/7 10/127/10 18/18/18 
f 106/131/106 105/130/105 14/14/14 
f 14/14/14 20/20/20 106/131/106 
f 19/19/19 107/132/107 106/131/106 
f 106/131/106 20/20/20 19/19/19 
f 111/148/111 107/147/107 19/152/19 
f 19/152/19 112/149/112 111/148/111 
f 8/8/8 16/16/16 111/148/111 
f 111/148/111 112/149/112 8/8/8 
f 9/9/9 113/151/113 18/150/18 
f 18/150/18 10/10/10 9/9/9 
f 14/14/14 105/130/105 113/151/113 
f 113/151/113 9/9/9 14/14/14 
f 4/4/4 112/149/112 19/152/19 
f 19/152/19 1/1/1 4/4/4 
f 26/27/26 108/133/108 6/6/6 
f 6/6/6 5/5/5 26/27/26 
f 24/25/24 12/12/12 11/11/11 
f 11/11/11 25/26/25 24/25/24 
f 12/12/12 24/25/24 32/34/32 
f 32/34/32 13/13/13 12/12/12 
# 216 faces

