%YAML 1.1
%TAG !u! tag:unity3d.com,2011:
--- !u!78 &1
TagManager:
  serializedVersion: 2
  tags:
  - Toe
  - Heel
  - projectile
  - FxTemporaire
  - puzzle
  - checker
  - Mirror
  - gear
  - beetle
  - HoverPoint
  - OtherLHand
  - OtherRHand
  - Stage1Checker
  - LeftHand
  - RightHand
  - ServerGem
  - LeftJewel
  - RightJewel
  - Jewel
  - Land
  layers:
  - Default
  - TransparentFX
  - Ignore Raycast
  - Ground
  - Water
  - UI
  - Player
  - Bullet
  - Teleport
  - Raycast
  - Beetle
  - Torch
  - Gem
  - 
  - 
  - 
  - 
  - 
  - 
  - 
  - 
  - 
  - 
  - 
  - 
  - 
  - 
  - 
  - 
  - 
  - 
  - 
  m_SortingLayers:
  - name: Default
    uniqueID: 0
    locked: 0
